Caso 1:
Mes 1/2018:
investir na poupanca 0.00 dinheiros
retirar da poupanca 0.00 dinheiros
investir no CDB 0.00 dinheiros
retirar do CDB 0.00 dinheiros
investir nas acoes 96800.00 dinheiros
retirar das acoes 0.00 dinheiros
Mes 2/2018:
investir na poupanca 0.00 dinheiros
retirar da poupanca 0.00 dinheiros
investir no CDB 0.00 dinheiros
retirar do CDB 0.00 dinheiros
investir nas acoes 0.00 dinheiros
retirar das acoes 100962.40 dinheiros
Mes 3/2018:
investir na poupanca 0.00 dinheiros
retirar da poupanca 0.00 dinheiros
investir no CDB 0.00 dinheiros
retirar do CDB 0.00 dinheiros
investir nas acoes 94688.40 dinheiros
retirar das acoes 0.00 dinheiros
Mes 4/2018:
investir na poupanca 0.00 dinheiros
retirar da poupanca 0.00 dinheiros
investir no CDB 0.00 dinheiros
retirar do CDB 0.00 dinheiros
investir nas acoes 0.00 dinheiros
retirar das acoes 3507.45 dinheiros
Mes 5/2018:
investir na poupanca 0.00 dinheiros
retirar da poupanca 0.00 dinheiros
investir no CDB 0.00 dinheiros
retirar do CDB 0.00 dinheiros
investir nas acoes 0.00 dinheiros
retirar das acoes 2464.56 dinheiros
Mes 6/2018:
investir na poupanca 0.00 dinheiros
retirar da poupanca 0.00 dinheiros
investir no CDB 0.00 dinheiros
retirar do CDB 0.00 dinheiros
investir nas acoes 0.00 dinheiros
retirar das acoes 322511.33 dinheiros
Mes 7/2018:
investir na poupanca 0.00 dinheiros
retirar da poupanca 0.00 dinheiros
investir no CDB 0.00 dinheiros
retirar do CDB 0.00 dinheiros
investir nas acoes 317088.34 dinheiros
retirar das acoes 0.00 dinheiros
Mes 8/2018:
investir na poupanca 0.00 dinheiros
retirar da poupanca 0.00 dinheiros
investir no CDB 0.00 dinheiros
retirar do CDB 0.00 dinheiros
investir nas acoes 0.00 dinheiros
retirar das acoes 6265.34 dinheiros
Mes 9/2018:
investir na poupanca 0.00 dinheiros
retirar da poupanca 0.00 dinheiros
investir no CDB 0.00 dinheiros
retirar do CDB 0.00 dinheiros
investir nas acoes 0.00 dinheiros
retirar das acoes 1358.34 dinheiros
Mes 10/2018:
investir na poupanca 0.00 dinheiros
retirar da poupanca 0.00 dinheiros
investir no CDB 0.00 dinheiros
retirar do CDB 0.00 dinheiros
investir nas acoes 0.00 dinheiros
retirar das acoes 537118.62 dinheiros
Mes 11/2018:
investir na poupanca 0.00 dinheiros
retirar da poupanca 0.00 dinheiros
investir no CDB 0.00 dinheiros
retirar do CDB 0.00 dinheiros
investir nas acoes 530338.96 dinheiros
retirar das acoes 0.00 dinheiros
Mes 12/2018:
investir na poupanca 0.00 dinheiros
retirar da poupanca 0.00 dinheiros
investir no CDB 608351.80 dinheiros
retirar do CDB 0.00 dinheiros
investir nas acoes 0.00 dinheiros
retirar das acoes 609889.80 dinheiros
Mes 1/2019:
retirar da poupanca 0.00 dinheiros
retirar do CDB 0.00 dinheiros
retirar das acoes 0.00 dinheiros
saldo da heranca em 2019: 617477.08 dinheiros
