Caso 1:
Mes 1/2018:
investir na poupanca 8690211.80 dinheiros
retirar da poupanca 0.00 dinheiros
investir no CDB 0.00 dinheiros
retirar do CDB 0.00 dinheiros
investir nas acoes 0.00 dinheiros
retirar das acoes 0.00 dinheiros
Mes 2/2018:
investir na poupanca 0.00 dinheiros
retirar da poupanca 9184072.29 dinheiros
investir no CDB 0.00 dinheiros
retirar do CDB 0.00 dinheiros
investir nas acoes 9177642.69 dinheiros
retirar das acoes 0.00 dinheiros
Mes 3/2018:
investir na poupanca 0.00 dinheiros
retirar da poupanca 0.00 dinheiros
investir no CDB 0.00 dinheiros
retirar do CDB 0.00 dinheiros
investir nas acoes 0.00 dinheiros
retirar das acoes 41042.16 dinheiros
Mes 4/2018:
investir na poupanca 86559.25 dinheiros
retirar da poupanca 0.00 dinheiros
investir no CDB 16386794.67 dinheiros
retirar do CDB 0.00 dinheiros
investir nas acoes 0.00 dinheiros
retirar das acoes 16573064.43 dinheiros
Mes 5/2018:
investir na poupanca 0.00 dinheiros
retirar da poupanca 91478.37 dinheiros
investir no CDB 0.00 dinheiros
retirar do CDB 0.00 dinheiros
investir nas acoes 29784.08 dinheiros
retirar das acoes 0.00 dinheiros
Mes 6/2018:
investir na poupanca 0.00 dinheiros
retirar da poupanca 0.00 dinheiros
investir no CDB 0.00 dinheiros
retirar do CDB 0.00 dinheiros
investir nas acoes 0.00 dinheiros
retirar das acoes 32137.02 dinheiros
Mes 7/2018:
investir na poupanca 19883036.60 dinheiros
retirar da poupanca 0.00 dinheiros
investir no CDB 0.00 dinheiros
retirar do CDB 19981129.76 dinheiros
investir nas acoes 0.00 dinheiros
retirar das acoes -0.00 dinheiros
Mes 8/2018:
investir na poupanca 0.00 dinheiros
retirar da poupanca 21012979.85 dinheiros
investir no CDB 0.00 dinheiros
retirar do CDB 0.00 dinheiros
investir nas acoes 20934814.37 dinheiros
retirar das acoes 0.00 dinheiros
Mes 9/2018:
investir na poupanca 29316677.49 dinheiros
retirar da poupanca 0.00 dinheiros
investir no CDB 0.00 dinheiros
retirar do CDB 0.00 dinheiros
investir nas acoes 0.00 dinheiros
retirar das acoes 29329674.94 dinheiros
Mes 10/2018:
investir na poupanca 0.00 dinheiros
retirar da poupanca 30982729.95 dinheiros
investir no CDB 0.00 dinheiros
retirar do CDB 0.00 dinheiros
investir nas acoes 30944675.85 dinheiros
retirar das acoes 0.00 dinheiros
Mes 11/2018:
investir na poupanca 37491053.66 dinheiros
retirar da poupanca 0.00 dinheiros
investir no CDB -0.00 dinheiros
retirar do CDB 0.00 dinheiros
investir nas acoes 0.00 dinheiros
retirar das acoes 37566836.48 dinheiros
Mes 12/2018:
investir na poupanca 0.00 dinheiros
retirar da poupanca 39621648.70 dinheiros
investir no CDB 39613824.05 dinheiros
retirar do CDB 0.00 dinheiros
investir nas acoes 0.00 dinheiros
retirar das acoes 0.00 dinheiros
Mes 1/2019:
retirar da poupanca 3.41 dinheiros
retirar do CDB 0.00 dinheiros
retirar das acoes -0.00 dinheiros
saldo da heranca em 2019: 43060226.75 dinheiros
Caso 2:
Mes 1/2018:
investir na poupanca 5247453.87 dinheiros
retirar da poupanca 0.00 dinheiros
investir no CDB 59139.36 dinheiros
retirar do CDB 0.00 dinheiros
investir nas acoes 0.00 dinheiros
retirar das acoes 0.00 dinheiros
Mes 2/2018:
investir na poupanca 0.00 dinheiros
retirar da poupanca 0.00 dinheiros
investir no CDB 0.00 dinheiros
retirar do CDB 61154.82 dinheiros
investir nas acoes 0.00 dinheiros
retirar das acoes -0.00 dinheiros
Mes 3/2018:
investir na poupanca 0.00 dinheiros
retirar da poupanca 34579.76 dinheiros
investir no CDB 0.00 dinheiros
retirar do CDB 0.00 dinheiros
investir nas acoes 0.00 dinheiros
retirar das acoes 0.00 dinheiros
Mes 4/2018:
investir na poupanca 0.00 dinheiros
retirar da poupanca 6004552.82 dinheiros
investir no CDB 0.00 dinheiros
retirar do CDB 0.00 dinheiros
investir nas acoes 5905593.94 dinheiros
retirar das acoes 0.00 dinheiros
Mes 5/2018:
investir na poupanca 6905753.66 dinheiros
retirar da poupanca 0.00 dinheiros
investir no CDB 78463.86 dinheiros
retirar do CDB 0.00 dinheiros
investir nas acoes 0.00 dinheiros
retirar das acoes 7051279.16 dinheiros
Mes 6/2018:
investir na poupanca 0.00 dinheiros
retirar da poupanca 0.00 dinheiros
investir no CDB 0.00 dinheiros
retirar do CDB 63644.71 dinheiros
investir nas acoes 0.00 dinheiros
retirar das acoes 0.00 dinheiros
Mes 7/2018:
investir na poupanca 0.00 dinheiros
retirar da poupanca 0.00 dinheiros
investir no CDB 0.00 dinheiros
retirar do CDB 20429.40 dinheiros
investir nas acoes 0.00 dinheiros
retirar das acoes 0.00 dinheiros
Mes 8/2018:
investir na poupanca 0.00 dinheiros
retirar da poupanca 63300.84 dinheiros
investir no CDB 0.00 dinheiros
retirar do CDB 0.00 dinheiros
investir nas acoes 0.00 dinheiros
retirar das acoes 0.00 dinheiros
Mes 9/2018:
investir na poupanca 0.00 dinheiros
retirar da poupanca 41912.75 dinheiros
investir no CDB 0.00 dinheiros
retirar do CDB 0.00 dinheiros
investir nas acoes 0.00 dinheiros
retirar das acoes 0.00 dinheiros
Mes 10/2018:
investir na poupanca 0.00 dinheiros
retirar da poupanca 88625.88 dinheiros
investir no CDB 0.00 dinheiros
retirar do CDB 0.00 dinheiros
investir nas acoes 0.00 dinheiros
retirar das acoes 0.00 dinheiros
Mes 11/2018:
investir na poupanca 0.00 dinheiros
retirar da poupanca 23301.97 dinheiros
investir no CDB 0.00 dinheiros
retirar do CDB 0.00 dinheiros
investir nas acoes 0.00 dinheiros
retirar das acoes 0.00 dinheiros
Mes 12/2018:
investir na poupanca 0.00 dinheiros
retirar da poupanca 66959.23 dinheiros
investir no CDB 0.00 dinheiros
retirar do CDB 0.00 dinheiros
investir nas acoes 0.00 dinheiros
retirar das acoes 0.00 dinheiros
Mes 1/2019:
retirar da poupanca 70.09 dinheiros
retirar do CDB 0.00 dinheiros
retirar das acoes 0.00 dinheiros
saldo da heranca em 2019: 12112289.48 dinheiros
Caso 3:
Mes 1/2018:
investir na poupanca 0.00 dinheiros
retirar da poupanca 0.00 dinheiros
investir no CDB 0.00 dinheiros
retirar do CDB 0.00 dinheiros
investir nas acoes 7544077.13 dinheiros
retirar das acoes 0.00 dinheiros
Mes 2/2018:
investir na poupanca 0.00 dinheiros
retirar da poupanca 0.00 dinheiros
investir no CDB 0.00 dinheiros
retirar do CDB 0.00 dinheiros
investir nas acoes 0.00 dinheiros
retirar das acoes 69866.60 dinheiros
Mes 3/2018:
investir na poupanca 0.00 dinheiros
retirar da poupanca 0.00 dinheiros
investir no CDB 0.00 dinheiros
retirar do CDB 0.00 dinheiros
investir nas acoes 0.00 dinheiros
retirar das acoes 46103.74 dinheiros
Mes 4/2018:
investir na poupanca 0.00 dinheiros
retirar da poupanca 0.00 dinheiros
investir no CDB 0.00 dinheiros
retirar do CDB 0.00 dinheiros
investir nas acoes 0.00 dinheiros
retirar das acoes 20766077.16 dinheiros
Mes 5/2018:
investir na poupanca 0.00 dinheiros
retirar da poupanca 0.00 dinheiros
investir no CDB 0.00 dinheiros
retirar do CDB 0.00 dinheiros
investir nas acoes 20625125.06 dinheiros
retirar das acoes 0.00 dinheiros
Mes 6/2018:
investir na poupanca 0.00 dinheiros
retirar da poupanca 0.00 dinheiros
investir no CDB 0.00 dinheiros
retirar do CDB 0.00 dinheiros
investir nas acoes 0.00 dinheiros
retirar das acoes 16620.99 dinheiros
Mes 7/2018:
investir na poupanca 0.00 dinheiros
retirar da poupanca 0.00 dinheiros
investir no CDB 0.00 dinheiros
retirar do CDB 0.00 dinheiros
investir nas acoes 0.00 dinheiros
retirar das acoes 30653026.41 dinheiros
Mes 8/2018:
investir na poupanca 0.00 dinheiros
retirar da poupanca 0.00 dinheiros
investir no CDB 0.00 dinheiros
retirar do CDB 0.00 dinheiros
investir nas acoes 0.00 dinheiros
retirar das acoes 0.00 dinheiros
Mes 9/2018:
investir na poupanca 0.00 dinheiros
retirar da poupanca 0.00 dinheiros
investir no CDB 0.00 dinheiros
retirar do CDB 0.00 dinheiros
investir nas acoes 30452363.11 dinheiros
retirar das acoes 0.00 dinheiros
Mes 10/2018:
investir na poupanca 0.00 dinheiros
retirar da poupanca 0.00 dinheiros
investir no CDB 42249549.17 dinheiros
retirar do CDB 0.00 dinheiros
investir nas acoes 0.00 dinheiros
retirar das acoes 42359237.08 dinheiros
Mes 11/2018:
investir na poupanca 0.00 dinheiros
retirar da poupanca 0.00 dinheiros
investir no CDB 0.00 dinheiros
retirar do CDB 0.00 dinheiros
investir nas acoes 0.00 dinheiros
retirar das acoes 0.00 dinheiros
Mes 12/2018:
investir na poupanca 0.00 dinheiros
retirar da poupanca 0.00 dinheiros
investir no CDB 0.00 dinheiros
retirar do CDB 62330.42 dinheiros
investir nas acoes 0.00 dinheiros
retirar das acoes 0.00 dinheiros
Mes 1/2019:
retirar da poupanca 0.00 dinheiros
retirar do CDB 76.14 dinheiros
retirar das acoes 0.00 dinheiros
saldo da heranca em 2019: 47062068.39 dinheiros
Caso 4:
Mes 1/2018:
investir na poupanca 0.00 dinheiros
retirar da poupanca 0.00 dinheiros
investir no CDB 1967189.80 dinheiros
retirar do CDB 0.00 dinheiros
investir nas acoes 0.00 dinheiros
retirar das acoes 0.00 dinheiros
Mes 2/2018:
investir na poupanca 0.00 dinheiros
retirar da poupanca 0.00 dinheiros
investir no CDB 0.00 dinheiros
retirar do CDB 2030587.39 dinheiros
investir nas acoes 2023472.81 dinheiros
retirar das acoes 0.00 dinheiros
Mes 3/2018:
investir na poupanca 0.00 dinheiros
retirar da poupanca 0.00 dinheiros
investir no CDB 2520565.00 dinheiros
retirar do CDB 0.00 dinheiros
investir nas acoes 0.00 dinheiros
retirar das acoes 2579927.83 dinheiros
Mes 4/2018:
investir na poupanca 0.00 dinheiros
retirar da poupanca 0.00 dinheiros
investir no CDB 0.00 dinheiros
retirar do CDB 55959.98 dinheiros
investir nas acoes 0.00 dinheiros
retirar das acoes 0.00 dinheiros
Mes 5/2018:
investir na poupanca 0.00 dinheiros
retirar da poupanca 0.00 dinheiros
investir no CDB 0.00 dinheiros
retirar do CDB 42487.64 dinheiros
investir nas acoes 0.00 dinheiros
retirar das acoes -0.00 dinheiros
Mes 6/2018:
investir na poupanca 0.00 dinheiros
retirar da poupanca 0.00 dinheiros
investir no CDB 0.00 dinheiros
retirar do CDB 2793255.77 dinheiros
investir nas acoes 2776585.56 dinheiros
retirar das acoes 0.00 dinheiros
Mes 7/2018:
investir na poupanca 0.00 dinheiros
retirar da poupanca 0.00 dinheiros
investir no CDB 3203168.87 dinheiros
retirar do CDB 0.00 dinheiros
investir nas acoes 0.00 dinheiros
retirar das acoes 3301360.23 dinheiros
Mes 8/2018:
investir na poupanca 0.00 dinheiros
retirar da poupanca 0.00 dinheiros
investir no CDB 0.00 dinheiros
retirar do CDB 0.00 dinheiros
investir nas acoes 0.00 dinheiros
retirar das acoes 0.00 dinheiros
Mes 9/2018:
investir na poupanca 0.00 dinheiros
retirar da poupanca 0.00 dinheiros
investir no CDB 0.00 dinheiros
retirar do CDB 99882.97 dinheiros
investir nas acoes 0.00 dinheiros
retirar das acoes 0.00 dinheiros
Mes 10/2018:
investir na poupanca 0.00 dinheiros
retirar da poupanca 0.00 dinheiros
investir no CDB 0.00 dinheiros
retirar do CDB 6094.59 dinheiros
investir nas acoes 0.00 dinheiros
retirar das acoes 0.00 dinheiros
Mes 11/2018:
investir na poupanca 0.00 dinheiros
retirar da poupanca 0.00 dinheiros
investir no CDB 0.00 dinheiros
retirar do CDB 3348279.75 dinheiros
investir nas acoes 3328497.71 dinheiros
retirar das acoes 0.00 dinheiros
Mes 12/2018:
investir na poupanca 0.00 dinheiros
retirar da poupanca 0.00 dinheiros
investir no CDB 0.00 dinheiros
retirar do CDB 0.00 dinheiros
investir nas acoes 0.00 dinheiros
retirar das acoes 27659.01 dinheiros
Mes 1/2019:
retirar da poupanca 0.00 dinheiros
retirar do CDB 0.00 dinheiros
retirar das acoes 50.59 dinheiros
saldo da heranca em 2019: 5336358.71 dinheiros
Caso 5:
Mes 1/2018:
investir na poupanca 0.00 dinheiros
retirar da poupanca 0.00 dinheiros
investir no CDB 0.00 dinheiros
retirar do CDB 0.00 dinheiros
investir nas acoes 7649272.23 dinheiros
retirar das acoes 0.00 dinheiros
Mes 2/2018:
investir na poupanca 0.00 dinheiros
retirar da poupanca 0.00 dinheiros
investir no CDB 0.00 dinheiros
retirar do CDB 0.00 dinheiros
investir nas acoes 0.00 dinheiros
retirar das acoes 11122041.82 dinheiros
Mes 3/2018:
investir na poupanca 0.00 dinheiros
retirar da poupanca 0.00 dinheiros
investir no CDB 0.00 dinheiros
retirar do CDB 0.00 dinheiros
investir nas acoes 11013758.22 dinheiros
retirar das acoes 0.00 dinheiros
Mes 4/2018:
investir na poupanca 0.00 dinheiros
retirar da poupanca 0.00 dinheiros
investir no CDB 0.00 dinheiros
retirar do CDB 0.00 dinheiros
investir nas acoes 0.00 dinheiros
retirar das acoes 63111.08 dinheiros
Mes 5/2018:
investir na poupanca 0.00 dinheiros
retirar da poupanca 0.00 dinheiros
investir no CDB 16418752.74 dinheiros
retirar do CDB 0.00 dinheiros
investir nas acoes 0.00 dinheiros
retirar das acoes 16439623.73 dinheiros
Mes 6/2018:
investir na poupanca 0.00 dinheiros
retirar da poupanca 0.00 dinheiros
investir no CDB 0.00 dinheiros
retirar do CDB 664.08 dinheiros
investir nas acoes 0.00 dinheiros
retirar das acoes 0.00 dinheiros
Mes 7/2018:
investir na poupanca 0.00 dinheiros
retirar da poupanca 0.00 dinheiros
investir no CDB 0.00 dinheiros
retirar do CDB 18150553.61 dinheiros
investir nas acoes 18145762.81 dinheiros
retirar das acoes 0.00 dinheiros
Mes 8/2018:
investir na poupanca 0.00 dinheiros
retirar da poupanca 0.00 dinheiros
investir no CDB 0.00 dinheiros
retirar do CDB 0.00 dinheiros
investir nas acoes 0.00 dinheiros
retirar das acoes 20958356.05 dinheiros
Mes 9/2018:
investir na poupanca 0.00 dinheiros
retirar da poupanca 0.00 dinheiros
investir no CDB 0.00 dinheiros
retirar do CDB 0.00 dinheiros
investir nas acoes 20922602.42 dinheiros
retirar das acoes 0.00 dinheiros
Mes 10/2018:
investir na poupanca 0.00 dinheiros
retirar da poupanca 0.00 dinheiros
investir no CDB 29549416.82 dinheiros
retirar do CDB 0.00 dinheiros
investir nas acoes 0.00 dinheiros
retirar das acoes 29563637.22 dinheiros
Mes 11/2018:
investir na poupanca 0.00 dinheiros
retirar da poupanca 0.00 dinheiros
investir no CDB 0.00 dinheiros
retirar do CDB 89365.64 dinheiros
investir nas acoes 0.00 dinheiros
retirar das acoes 0.00 dinheiros
Mes 12/2018:
investir na poupanca 0.00 dinheiros
retirar da poupanca 0.00 dinheiros
investir no CDB 0.00 dinheiros
retirar do CDB 30930.62 dinheiros
investir nas acoes 0.00 dinheiros
retirar das acoes 0.00 dinheiros
Mes 1/2019:
retirar da poupanca 0.00 dinheiros
retirar do CDB 92.22 dinheiros
retirar das acoes 0.00 dinheiros
saldo da heranca em 2019: 36278657.73 dinheiros
