Caso 1:
Mes 1/2018:
investir na poupanca 0.00 dinheiros
retirar da poupanca 0.00 dinheiros
investir no CDB 8579063.50 dinheiros
retirar do CDB 0.00 dinheiros
investir nas acoes 0.00 dinheiros
retirar das acoes 0.00 dinheiros
Mes 2/2018:
investir na poupanca 13711563.92 dinheiros
retirar da poupanca 0.00 dinheiros
investir no CDB 0.00 dinheiros
retirar do CDB 13829543.95 dinheiros
investir nas acoes 0.00 dinheiros
retirar das acoes 0.00 dinheiros
Mes 3/2018:
investir na poupanca 0.00 dinheiros
retirar da poupanca 0.00 dinheiros
investir no CDB 0.00 dinheiros
retirar do CDB 923783.41 dinheiros
investir nas acoes 0.00 dinheiros
retirar das acoes 0.00 dinheiros
Mes 4/2018:
investir na poupanca 0.00 dinheiros
retirar da poupanca 404271.39 dinheiros
investir no CDB 0.00 dinheiros
retirar do CDB 0.00 dinheiros
investir nas acoes 0.00 dinheiros
retirar das acoes 0.00 dinheiros
Mes 5/2018:
investir na poupanca 0.00 dinheiros
retirar da poupanca 140226.10 dinheiros
investir no CDB 0.00 dinheiros
retirar do CDB 0.00 dinheiros
investir nas acoes 0.00 dinheiros
retirar das acoes 0.00 dinheiros
Mes 6/2018:
investir na poupanca 0.00 dinheiros
retirar da poupanca 755016.13 dinheiros
investir no CDB 0.00 dinheiros
retirar do CDB 0.00 dinheiros
investir nas acoes 0.00 dinheiros
retirar das acoes 0.00 dinheiros
Mes 7/2018:
investir na poupanca 0.00 dinheiros
retirar da poupanca 148179149.23 dinheiros
investir no CDB 147673460.09 dinheiros
retirar do CDB 0.00 dinheiros
investir nas acoes 0.00 dinheiros
retirar das acoes 0.00 dinheiros
Mes 8/2018:
investir na poupanca 0.00 dinheiros
retirar da poupanca 0.00 dinheiros
investir no CDB 0.00 dinheiros
retirar do CDB 611218.53 dinheiros
investir nas acoes 0.00 dinheiros
retirar das acoes 0.00 dinheiros
Mes 9/2018:
investir na poupanca 0.00 dinheiros
retirar da poupanca 0.00 dinheiros
investir no CDB 0.00 dinheiros
retirar do CDB 342192.83 dinheiros
investir nas acoes 0.00 dinheiros
retirar das acoes 0.00 dinheiros
Mes 10/2018:
investir na poupanca 0.00 dinheiros
retirar da poupanca 0.00 dinheiros
investir no CDB 0.00 dinheiros
retirar do CDB 269653.42 dinheiros
investir nas acoes 0.00 dinheiros
retirar das acoes 0.00 dinheiros
Mes 11/2018:
investir na poupanca 1530803237.88 dinheiros
retirar da poupanca 0.00 dinheiros
investir no CDB 0.00 dinheiros
retirar do CDB 1531255718.65 dinheiros
investir nas acoes 0.00 dinheiros
retirar das acoes 0.00 dinheiros
Mes 12/2018:
investir na poupanca 0.00 dinheiros
retirar da poupanca 365244.12 dinheiros
investir no CDB 0.00 dinheiros
retirar do CDB 0.00 dinheiros
investir nas acoes 0.00 dinheiros
retirar das acoes 0.00 dinheiros
Mes 1/2019:
retirar da poupanca 76.26 dinheiros
retirar do CDB 0.00 dinheiros
retirar das acoes 0.00 dinheiros
saldo da heranca em 2019: 4061584563.81 dinheiros
Caso 2:
Mes 1/2018:
investir na poupanca 0.00 dinheiros
retirar da poupanca 0.00 dinheiros
investir no CDB 0.00 dinheiros
retirar do CDB 0.00 dinheiros
investir nas acoes 1401887.25 dinheiros
retirar das acoes 0.00 dinheiros
Mes 2/2018:
investir na poupanca 0.00 dinheiros
retirar da poupanca 0.00 dinheiros
investir no CDB 1340263.87 dinheiros
retirar do CDB 0.00 dinheiros
investir nas acoes 0.00 dinheiros
retirar das acoes 2115447.86 dinheiros
Mes 3/2018:
investir na poupanca 0.00 dinheiros
retirar da poupanca 0.00 dinheiros
investir no CDB 0.00 dinheiros
retirar do CDB 354930.05 dinheiros
investir nas acoes 0.00 dinheiros
retirar das acoes 0.00 dinheiros
Mes 4/2018:
investir na poupanca 0.00 dinheiros
retirar da poupanca 0.00 dinheiros
investir no CDB 0.00 dinheiros
retirar do CDB 200222.22 dinheiros
investir nas acoes 0.00 dinheiros
retirar das acoes 0.00 dinheiros
Mes 5/2018:
investir na poupanca 4631512.80 dinheiros
retirar da poupanca 0.00 dinheiros
investir no CDB 0.00 dinheiros
retirar do CDB 5280385.96 dinheiros
investir nas acoes 0.00 dinheiros
retirar das acoes 0.00 dinheiros
Mes 6/2018:
investir na poupanca 0.00 dinheiros
retirar da poupanca 6666313.46 dinheiros
investir no CDB -0.00 dinheiros
retirar do CDB 0.00 dinheiros
investir nas acoes 6376629.57 dinheiros
retirar das acoes 0.00 dinheiros
Mes 7/2018:
investir na poupanca 0.00 dinheiros
retirar da poupanca 0.00 dinheiros
investir no CDB 11642783.28 dinheiros
retirar do CDB 0.00 dinheiros
investir nas acoes 0.00 dinheiros
retirar das acoes 12313271.69 dinheiros
Mes 8/2018:
investir na poupanca 0.00 dinheiros
retirar da poupanca 0.00 dinheiros
investir no CDB 0.00 dinheiros
retirar do CDB 721768.86 dinheiros
investir nas acoes 0.00 dinheiros
retirar das acoes 0.00 dinheiros
Mes 9/2018:
investir na poupanca 0.00 dinheiros
retirar da poupanca 0.00 dinheiros
investir no CDB 0.00 dinheiros
retirar do CDB 466003.44 dinheiros
investir nas acoes 0.00 dinheiros
retirar das acoes 0.00 dinheiros
Mes 10/2018:
investir na poupanca 50942383.13 dinheiros
retirar da poupanca 0.00 dinheiros
investir no CDB 0.00 dinheiros
retirar do CDB 51810235.07 dinheiros
investir nas acoes 0.00 dinheiros
retirar das acoes 0.00 dinheiros
Mes 11/2018:
investir na poupanca 0.00 dinheiros
retirar da poupanca 819365.20 dinheiros
investir no CDB 0.00 dinheiros
retirar do CDB 0.00 dinheiros
investir nas acoes 350362.22 dinheiros
retirar das acoes 0.00 dinheiros
Mes 12/2018:
investir na poupanca 0.00 dinheiros
retirar da poupanca 0.00 dinheiros
investir no CDB 0.00 dinheiros
retirar do CDB 0.00 dinheiros
investir nas acoes 0.00 dinheiros
retirar das acoes 583353.10 dinheiros
Mes 1/2019:
retirar da poupanca 44.47 dinheiros
retirar do CDB 0.00 dinheiros
retirar das acoes 0.00 dinheiros
saldo da heranca em 2019: 193452344.52 dinheiros
Caso 3:
Mes 1/2018:
investir na poupanca 2964900.53 dinheiros
retirar da poupanca 0.00 dinheiros
investir no CDB 0.00 dinheiros
retirar do CDB 0.00 dinheiros
investir nas acoes 0.00 dinheiros
retirar das acoes 0.00 dinheiros
Mes 2/2018:
investir na poupanca 0.00 dinheiros
retirar da poupanca 881932.69 dinheiros
investir no CDB 0.00 dinheiros
retirar do CDB 0.00 dinheiros
investir nas acoes 0.00 dinheiros
retirar das acoes 0.00 dinheiros
Mes 3/2018:
investir na poupanca 0.00 dinheiros
retirar da poupanca 868462.57 dinheiros
investir no CDB 0.00 dinheiros
retirar do CDB 0.00 dinheiros
investir nas acoes 0.00 dinheiros
retirar das acoes 0.00 dinheiros
Mes 4/2018:
investir na poupanca 0.00 dinheiros
retirar da poupanca 783325.34 dinheiros
investir no CDB 0.00 dinheiros
retirar do CDB 0.00 dinheiros
investir nas acoes 0.00 dinheiros
retirar das acoes 0.00 dinheiros
Mes 5/2018:
investir na poupanca 0.00 dinheiros
retirar da poupanca 269969.08 dinheiros
investir no CDB 0.00 dinheiros
retirar do CDB 0.00 dinheiros
investir nas acoes 0.00 dinheiros
retirar das acoes 0.00 dinheiros
Mes 6/2018:
investir na poupanca 0.00 dinheiros
retirar da poupanca 42738.43 dinheiros
investir no CDB 0.00 dinheiros
retirar do CDB 0.00 dinheiros
investir nas acoes 0.00 dinheiros
retirar das acoes 0.00 dinheiros
Mes 7/2018:
investir na poupanca 0.00 dinheiros
retirar da poupanca 462988.43 dinheiros
investir no CDB 0.00 dinheiros
retirar do CDB 0.00 dinheiros
investir nas acoes 0.00 dinheiros
retirar das acoes 0.00 dinheiros
Mes 8/2018:
investir na poupanca 0.00 dinheiros
retirar da poupanca 229357.14 dinheiros
investir no CDB 0.00 dinheiros
retirar do CDB 0.00 dinheiros
investir nas acoes 0.00 dinheiros
retirar das acoes 0.00 dinheiros
Mes 9/2018:
investir na poupanca 0.00 dinheiros
retirar da poupanca 57364.98 dinheiros
investir no CDB 0.00 dinheiros
retirar do CDB 0.00 dinheiros
investir nas acoes 0.00 dinheiros
retirar das acoes 0.00 dinheiros
Mes 10/2018:
investir na poupanca 0.00 dinheiros
retirar da poupanca 390332.65 dinheiros
investir no CDB 0.00 dinheiros
retirar do CDB 0.00 dinheiros
investir nas acoes 0.00 dinheiros
retirar das acoes 0.00 dinheiros
Mes 11/2018:
investir na poupanca 0.00 dinheiros
retirar da poupanca 407492.57 dinheiros
investir no CDB 0.00 dinheiros
retirar do CDB 0.00 dinheiros
investir nas acoes 0.00 dinheiros
retirar das acoes 0.00 dinheiros
Mes 12/2018:
investir na poupanca 0.00 dinheiros
retirar da poupanca 725362.34 dinheiros
investir no CDB 0.00 dinheiros
retirar do CDB 0.00 dinheiros
investir nas acoes 0.00 dinheiros
retirar das acoes 0.00 dinheiros
Mes 1/2019:
retirar da poupanca 67.66 dinheiros
retirar do CDB 0.00 dinheiros
retirar das acoes 0.00 dinheiros
saldo da heranca em 2019: 4581504049.34 dinheiros
Caso 4:
Mes 1/2018:
investir na poupanca 1506724.61 dinheiros
retirar da poupanca 0.00 dinheiros
investir no CDB 0.00 dinheiros
retirar do CDB 0.00 dinheiros
investir nas acoes 0.00 dinheiros
retirar das acoes 0.00 dinheiros
Mes 2/2018:
investir na poupanca 0.00 dinheiros
retirar da poupanca 150822.20 dinheiros
investir no CDB 0.00 dinheiros
retirar do CDB 0.00 dinheiros
investir nas acoes 0.00 dinheiros
retirar das acoes 0.00 dinheiros
Mes 3/2018:
investir na poupanca 0.00 dinheiros
retirar da poupanca 3904032.76 dinheiros
investir no CDB 3521456.07 dinheiros
retirar do CDB 0.00 dinheiros
investir nas acoes 0.00 dinheiros
retirar das acoes 0.00 dinheiros
Mes 4/2018:
investir na poupanca 5559698.99 dinheiros
retirar da poupanca 0.00 dinheiros
investir no CDB 0.00 dinheiros
retirar do CDB 6465568.91 dinheiros
investir nas acoes 0.00 dinheiros
retirar das acoes 0.00 dinheiros
Mes 5/2018:
investir na poupanca 0.00 dinheiros
retirar da poupanca 8995645.66 dinheiros
investir no CDB 0.00 dinheiros
retirar do CDB 0.00 dinheiros
investir nas acoes 8070424.26 dinheiros
retirar das acoes 0.00 dinheiros
Mes 6/2018:
investir na poupanca 15008342.54 dinheiros
retirar da poupanca 0.00 dinheiros
investir no CDB 0.00 dinheiros
retirar do CDB 0.00 dinheiros
investir nas acoes 0.00 dinheiros
retirar das acoes 15051341.25 dinheiros
Mes 7/2018:
investir na poupanca 0.00 dinheiros
retirar da poupanca 925261.08 dinheiros
investir no CDB 0.00 dinheiros
retirar do CDB 0.00 dinheiros
investir nas acoes 0.00 dinheiros
retirar das acoes 0.00 dinheiros
Mes 8/2018:
investir na poupanca 0.00 dinheiros
retirar da poupanca 674793.36 dinheiros
investir no CDB 0.00 dinheiros
retirar do CDB 0.00 dinheiros
investir nas acoes 0.00 dinheiros
retirar das acoes 0.00 dinheiros
Mes 9/2018:
investir na poupanca 0.00 dinheiros
retirar da poupanca 66910918.21 dinheiros
investir no CDB 66695178.33 dinheiros
retirar do CDB 0.00 dinheiros
investir nas acoes 0.00 dinheiros
retirar das acoes 0.00 dinheiros
Mes 10/2018:
investir na poupanca 0.00 dinheiros
retirar da poupanca 0.00 dinheiros
investir no CDB 0.00 dinheiros
retirar do CDB 489269.80 dinheiros
investir nas acoes 0.00 dinheiros
retirar das acoes 0.00 dinheiros
Mes 11/2018:
investir na poupanca -0.00 dinheiros
retirar da poupanca 0.00 dinheiros
investir no CDB 0.00 dinheiros
retirar do CDB 208345888.01 dinheiros
investir nas acoes 207590131.11 dinheiros
retirar das acoes 0.00 dinheiros
Mes 12/2018:
investir na poupanca 0.00 dinheiros
retirar da poupanca 0.00 dinheiros
investir no CDB 0.00 dinheiros
retirar do CDB 0.00 dinheiros
investir nas acoes 0.00 dinheiros
retirar das acoes 615529.69 dinheiros
Mes 1/2019:
retirar da poupanca 0.00 dinheiros
retirar do CDB 0.00 dinheiros
retirar das acoes 10.84 dinheiros
saldo da heranca em 2019: 720154652.85 dinheiros
Caso 5:
Mes 1/2018:
investir na poupanca 0.00 dinheiros
retirar da poupanca 0.00 dinheiros
investir no CDB 0.00 dinheiros
retirar do CDB 0.00 dinheiros
investir nas acoes 4754690.07 dinheiros
retirar das acoes 0.00 dinheiros
Mes 2/2018:
investir na poupanca 0.00 dinheiros
retirar da poupanca 0.00 dinheiros
investir no CDB 6745014.70 dinheiros
retirar do CDB 0.00 dinheiros
investir nas acoes 0.00 dinheiros
retirar das acoes 7278411.13 dinheiros
Mes 3/2018:
investir na poupanca 0.00 dinheiros
retirar da poupanca 0.00 dinheiros
investir no CDB 0.00 dinheiros
retirar do CDB 0.00 dinheiros
investir nas acoes 0.00 dinheiros
retirar das acoes 845671.47 dinheiros
Mes 4/2018:
investir na poupanca 0.00 dinheiros
retirar da poupanca 0.00 dinheiros
investir no CDB 0.00 dinheiros
retirar do CDB 392170.07 dinheiros
investir nas acoes 0.00 dinheiros
retirar das acoes 0.00 dinheiros
Mes 5/2018:
investir na poupanca 0.00 dinheiros
retirar da poupanca 0.00 dinheiros
investir no CDB 0.00 dinheiros
retirar do CDB 212992.44 dinheiros
investir nas acoes 0.00 dinheiros
retirar das acoes 0.00 dinheiros
Mes 6/2018:
investir na poupanca 0.00 dinheiros
retirar da poupanca 0.00 dinheiros
investir no CDB 0.00 dinheiros
retirar do CDB 964658.40 dinheiros
investir nas acoes 0.00 dinheiros
retirar das acoes 0.00 dinheiros
Mes 7/2018:
investir na poupanca 0.00 dinheiros
retirar da poupanca 0.00 dinheiros
investir no CDB 0.00 dinheiros
retirar do CDB 297616.19 dinheiros
investir nas acoes 0.00 dinheiros
retirar das acoes 0.00 dinheiros
Mes 8/2018:
investir na poupanca 0.00 dinheiros
retirar da poupanca 0.00 dinheiros
investir no CDB 0.00 dinheiros
retirar do CDB 99861.62 dinheiros
investir nas acoes 0.00 dinheiros
retirar das acoes 0.00 dinheiros
Mes 9/2018:
investir na poupanca 0.00 dinheiros
retirar da poupanca 0.00 dinheiros
investir no CDB 0.00 dinheiros
retirar do CDB 363065058.06 dinheiros
investir nas acoes 362823557.59 dinheiros
retirar das acoes 0.00 dinheiros
Mes 10/2018:
investir na poupanca 0.00 dinheiros
retirar da poupanca 0.00 dinheiros
investir no CDB 627435565.94 dinheiros
retirar do CDB 0.00 dinheiros
investir nas acoes 0.00 dinheiros
retirar das acoes 628410401.75 dinheiros
Mes 11/2018:
investir na poupanca 1095075565.18 dinheiros
retirar da poupanca 0.00 dinheiros
investir no CDB 0.00 dinheiros
retirar do CDB 1095255238.61 dinheiros
investir nas acoes 0.00 dinheiros
retirar das acoes 0.00 dinheiros
Mes 12/2018:
investir na poupanca 0.00 dinheiros
retirar da poupanca 653679.31 dinheiros
investir no CDB 0.00 dinheiros
retirar do CDB 0.00 dinheiros
investir nas acoes 0.00 dinheiros
retirar das acoes 0.00 dinheiros
Mes 1/2019:
retirar da poupanca 8.59 dinheiros
retirar do CDB 0.00 dinheiros
retirar das acoes 0.00 dinheiros
saldo da heranca em 2019: 1704711666.67 dinheiros
Caso 6:
Mes 1/2018:
investir na poupanca 0.00 dinheiros
retirar da poupanca 0.00 dinheiros
investir no CDB 0.00 dinheiros
retirar do CDB 0.00 dinheiros
investir nas acoes 4697670.11 dinheiros
retirar das acoes 0.00 dinheiros
Mes 2/2018:
investir na poupanca 6982638.04 dinheiros
retirar da poupanca 0.00 dinheiros
investir no CDB 0.00 dinheiros
retirar do CDB 0.00 dinheiros
investir nas acoes 0.00 dinheiros
retirar das acoes 7826318.40 dinheiros
Mes 3/2018:
investir na poupanca 0.00 dinheiros
retirar da poupanca 296224.28 dinheiros
investir no CDB 0.00 dinheiros
retirar do CDB 0.00 dinheiros
investir nas acoes 0.00 dinheiros
retirar das acoes 0.00 dinheiros
Mes 4/2018:
investir na poupanca 0.00 dinheiros
retirar da poupanca 17676354.71 dinheiros
investir no CDB 0.00 dinheiros
retirar do CDB 0.00 dinheiros
investir nas acoes 17531470.26 dinheiros
retirar das acoes 0.00 dinheiros
Mes 5/2018:
investir na poupanca 0.00 dinheiros
retirar da poupanca 0.00 dinheiros
investir no CDB 29107996.42 dinheiros
retirar do CDB 0.00 dinheiros
investir nas acoes 0.00 dinheiros
retirar das acoes 29189897.99 dinheiros
Mes 6/2018:
investir na poupanca 0.00 dinheiros
retirar da poupanca 0.00 dinheiros
investir no CDB 0.00 dinheiros
retirar do CDB 131498.20 dinheiros
investir nas acoes 0.00 dinheiros
retirar das acoes 0.00 dinheiros
Mes 7/2018:
investir na poupanca 88217812.47 dinheiros
retirar da poupanca 0.00 dinheiros
investir no CDB 0.00 dinheiros
retirar do CDB 88659287.01 dinheiros
investir nas acoes 0.00 dinheiros
retirar das acoes 0.00 dinheiros
Mes 8/2018:
investir na poupanca 0.00 dinheiros
retirar da poupanca 10249.81 dinheiros
investir no CDB 0.00 dinheiros
retirar do CDB 0.00 dinheiros
investir nas acoes 0.00 dinheiros
retirar das acoes 0.00 dinheiros
Mes 9/2018:
investir na poupanca 0.00 dinheiros
retirar da poupanca 268166.21 dinheiros
investir no CDB 0.00 dinheiros
retirar do CDB 0.00 dinheiros
investir nas acoes 0.00 dinheiros
retirar das acoes 0.00 dinheiros
Mes 10/2018:
investir na poupanca 0.00 dinheiros
retirar da poupanca 781153.20 dinheiros
investir no CDB 0.00 dinheiros
retirar do CDB 0.00 dinheiros
investir nas acoes 0.00 dinheiros
retirar das acoes 0.00 dinheiros
Mes 11/2018:
investir na poupanca 0.00 dinheiros
retirar da poupanca 718094.52 dinheiros
investir no CDB 0.00 dinheiros
retirar do CDB 0.00 dinheiros
investir nas acoes 0.00 dinheiros
retirar das acoes 0.00 dinheiros
Mes 12/2018:
investir na poupanca 0.00 dinheiros
retirar da poupanca 905941.47 dinheiros
investir no CDB 0.00 dinheiros
retirar do CDB 0.00 dinheiros
investir nas acoes 0.00 dinheiros
retirar das acoes 0.00 dinheiros
Mes 1/2019:
retirar da poupanca 12.82 dinheiros
retirar do CDB 0.00 dinheiros
retirar das acoes 0.00 dinheiros
saldo da heranca em 2019: 1603589570.27 dinheiros
Caso 7:
Mes 1/2018:
investir na poupanca 0.00 dinheiros
retirar da poupanca 0.00 dinheiros
investir no CDB 0.00 dinheiros
retirar do CDB 0.00 dinheiros
investir nas acoes 9651288.69 dinheiros
retirar das acoes 0.00 dinheiros
Mes 2/2018:
investir na poupanca 16547002.91 dinheiros
retirar da poupanca 0.00 dinheiros
investir no CDB 0.00 dinheiros
retirar do CDB 0.00 dinheiros
investir nas acoes 0.00 dinheiros
retirar das acoes 16918709.07 dinheiros
Mes 3/2018:
investir na poupanca 0.00 dinheiros
retirar da poupanca 389453.36 dinheiros
investir no CDB 0.00 dinheiros
retirar do CDB 0.00 dinheiros
investir nas acoes 0.00 dinheiros
retirar das acoes 0.00 dinheiros
Mes 4/2018:
investir na poupanca 0.00 dinheiros
retirar da poupanca 47880517.04 dinheiros
investir no CDB 0.00 dinheiros
retirar do CDB 0.00 dinheiros
investir nas acoes 47351640.28 dinheiros
retirar das acoes 0.00 dinheiros
Mes 5/2018:
investir na poupanca 90481873.45 dinheiros
retirar da poupanca 0.00 dinheiros
investir no CDB 0.00 dinheiros
retirar do CDB 0.00 dinheiros
investir nas acoes 0.00 dinheiros
retirar das acoes 90962500.98 dinheiros
Mes 6/2018:
investir na poupanca 0.00 dinheiros
retirar da poupanca 753787.44 dinheiros
investir no CDB 0.00 dinheiros
retirar do CDB 0.00 dinheiros
investir nas acoes 0.00 dinheiros
retirar das acoes 0.00 dinheiros
Mes 7/2018:
investir na poupanca 0.00 dinheiros
retirar da poupanca 264207354.99 dinheiros
investir no CDB 0.00 dinheiros
retirar do CDB 0.00 dinheiros
investir nas acoes 263560021.18 dinheiros
retirar das acoes 0.00 dinheiros
Mes 8/2018:
investir na poupanca 519097566.15 dinheiros
retirar da poupanca 0.00 dinheiros
investir no CDB 0.00 dinheiros
retirar do CDB 0.00 dinheiros
investir nas acoes 0.00 dinheiros
retirar das acoes 520003921.78 dinheiros
Mes 9/2018:
investir na poupanca 0.00 dinheiros
retirar da poupanca 877461903.45 dinheiros
investir no CDB 0.00 dinheiros
retirar do CDB 0.00 dinheiros
investir nas acoes 876770666.48 dinheiros
retirar das acoes 0.00 dinheiros
Mes 10/2018:
investir na poupanca 1669402749.88 dinheiros
retirar da poupanca 0.00 dinheiros
investir no CDB 0.00 dinheiros
retirar do CDB 0.00 dinheiros
investir nas acoes 0.00 dinheiros
retirar das acoes 1670248119.64 dinheiros
Mes 11/2018:
investir na poupanca 0.00 dinheiros
retirar da poupanca 19033.97 dinheiros
investir no CDB 0.00 dinheiros
retirar do CDB 0.00 dinheiros
investir nas acoes 0.00 dinheiros
retirar das acoes 0.00 dinheiros
Mes 12/2018:
investir na poupanca 0.00 dinheiros
retirar da poupanca 998853.31 dinheiros
investir no CDB 0.00 dinheiros
retirar do CDB 0.00 dinheiros
investir nas acoes 0.00 dinheiros
retirar das acoes 0.00 dinheiros
Mes 1/2019:
retirar da poupanca 98.98 dinheiros
retirar do CDB 0.00 dinheiros
retirar das acoes 0.00 dinheiros
saldo da heranca em 2019: 8732101827.86 dinheiros
Caso 8:
Mes 1/2018:
investir na poupanca 5813825.99 dinheiros
retirar da poupanca 0.00 dinheiros
investir no CDB 0.00 dinheiros
retirar do CDB 0.00 dinheiros
investir nas acoes 0.00 dinheiros
retirar das acoes 0.00 dinheiros
Mes 2/2018:
investir na poupanca 0.00 dinheiros
retirar da poupanca 7965443.28 dinheiros
investir no CDB 7464149.84 dinheiros
retirar do CDB 0.00 dinheiros
investir nas acoes 0.00 dinheiros
retirar das acoes -0.00 dinheiros
Mes 3/2018:
investir na poupanca 0.00 dinheiros
retirar da poupanca 0.00 dinheiros
investir no CDB 0.00 dinheiros
retirar do CDB 593162.30 dinheiros
investir nas acoes 0.00 dinheiros
retirar das acoes -0.00 dinheiros
Mes 4/2018:
investir na poupanca 0.00 dinheiros
retirar da poupanca 0.00 dinheiros
investir no CDB 0.00 dinheiros
retirar do CDB 24141076.41 dinheiros
investir nas acoes 24018329.47 dinheiros
retirar das acoes 0.00 dinheiros
Mes 5/2018:
investir na poupanca 0.00 dinheiros
retirar da poupanca 0.00 dinheiros
investir no CDB 45091633.13 dinheiros
retirar do CDB 0.00 dinheiros
investir nas acoes 0.00 dinheiros
retirar das acoes 46019119.27 dinheiros
Mes 6/2018:
investir na poupanca 0.00 dinheiros
retirar da poupanca 0.00 dinheiros
investir no CDB 0.00 dinheiros
retirar do CDB 696370.68 dinheiros
investir nas acoes 0.00 dinheiros
retirar das acoes 0.00 dinheiros
Mes 7/2018:
investir na poupanca 121564788.17 dinheiros
retirar da poupanca 0.00 dinheiros
investir no CDB 0.00 dinheiros
retirar do CDB 122136036.13 dinheiros
investir nas acoes 0.00 dinheiros
retirar das acoes 0.00 dinheiros
Mes 8/2018:
investir na poupanca 0.00 dinheiros
retirar da poupanca 166554249.56 dinheiros
investir no CDB 0.00 dinheiros
retirar do CDB 0.00 dinheiros
investir nas acoes 165757563.45 dinheiros
retirar das acoes 0.00 dinheiros
Mes 9/2018:
investir na poupanca 0.00 dinheiros
retirar da poupanca 0.00 dinheiros
investir no CDB 322358118.97 dinheiros
retirar do CDB 0.00 dinheiros
investir nas acoes 0.00 dinheiros
retirar das acoes 323061491.16 dinheiros
Mes 10/2018:
investir na poupanca 0.00 dinheiros
retirar da poupanca 0.00 dinheiros
investir no CDB 0.00 dinheiros
retirar do CDB 871444.18 dinheiros
investir nas acoes 0.00 dinheiros
retirar das acoes 0.00 dinheiros
Mes 11/2018:
investir na poupanca 1008046488.80 dinheiros
retirar da poupanca 0.00 dinheiros
investir no CDB 0.00 dinheiros
retirar do CDB 1008109423.31 dinheiros
investir nas acoes 0.00 dinheiros
retirar das acoes 0.00 dinheiros
Mes 12/2018:
investir na poupanca 0.00 dinheiros
retirar da poupanca 1381110673.54 dinheiros
investir no CDB 1380231106.98 dinheiros
retirar do CDB 0.00 dinheiros
investir nas acoes 0.00 dinheiros
retirar das acoes 0.00 dinheiros
Mes 1/2019:
retirar da poupanca 0.00 dinheiros
retirar do CDB 35.33 dinheiros
retirar das acoes 0.00 dinheiros
saldo da heranca em 2019: 2705252933.07 dinheiros
Caso 9:
Mes 1/2018:
investir na poupanca 9249593.90 dinheiros
retirar da poupanca 0.00 dinheiros
investir no CDB 0.00 dinheiros
retirar do CDB 0.00 dinheiros
investir nas acoes 0.00 dinheiros
retirar das acoes 0.00 dinheiros
Mes 2/2018:
investir na poupanca 0.00 dinheiros
retirar da poupanca 637511.56 dinheiros
investir no CDB 0.00 dinheiros
retirar do CDB 0.00 dinheiros
investir nas acoes 0.00 dinheiros
retirar das acoes -0.00 dinheiros
Mes 3/2018:
investir na poupanca 0.00 dinheiros
retirar da poupanca 19513228.15 dinheiros
investir no CDB 19139985.79 dinheiros
retirar do CDB 0.00 dinheiros
investir nas acoes 0.00 dinheiros
retirar das acoes 0.00 dinheiros
Mes 4/2018:
investir na poupanca -0.00 dinheiros
retirar da poupanca 0.00 dinheiros
investir no CDB 0.00 dinheiros
retirar do CDB 32197426.14 dinheiros
investir nas acoes 31888680.68 dinheiros
retirar das acoes 0.00 dinheiros
Mes 5/2018:
investir na poupanca 55638424.41 dinheiros
retirar da poupanca 0.00 dinheiros
investir no CDB 0.00 dinheiros
retirar do CDB 0.00 dinheiros
investir nas acoes 0.00 dinheiros
retirar das acoes 56570519.52 dinheiros
Mes 6/2018:
investir na poupanca 0.00 dinheiros
retirar da poupanca 81722325.13 dinheiros
investir no CDB 80837752.72 dinheiros
retirar do CDB 0.00 dinheiros
investir nas acoes 0.00 dinheiros
retirar das acoes 0.00 dinheiros
Mes 7/2018:
investir na poupanca 0.00 dinheiros
retirar da poupanca 0.00 dinheiros
investir no CDB 0.00 dinheiros
retirar do CDB 368522.03 dinheiros
investir nas acoes 0.00 dinheiros
retirar das acoes 0.00 dinheiros
Mes 8/2018:
investir na poupanca 253528954.17 dinheiros
retirar da poupanca 0.00 dinheiros
investir no CDB 0.00 dinheiros
retirar do CDB 254521534.75 dinheiros
investir nas acoes 0.00 dinheiros
retirar das acoes 0.00 dinheiros
Mes 9/2018:
investir na poupanca 0.00 dinheiros
retirar da poupanca 111445.50 dinheiros
investir no CDB 0.00 dinheiros
retirar do CDB 0.00 dinheiros
investir nas acoes 0.00 dinheiros
retirar das acoes 0.00 dinheiros
Mes 10/2018:
investir na poupanca 0.00 dinheiros
retirar da poupanca 36483.77 dinheiros
investir no CDB 0.00 dinheiros
retirar do CDB 0.00 dinheiros
investir nas acoes 0.00 dinheiros
retirar das acoes 0.00 dinheiros
Mes 11/2018:
investir na poupanca 0.00 dinheiros
retirar da poupanca 156285.17 dinheiros
investir no CDB 0.00 dinheiros
retirar do CDB 0.00 dinheiros
investir nas acoes 0.00 dinheiros
retirar das acoes 0.00 dinheiros
Mes 12/2018:
investir na poupanca 0.00 dinheiros
retirar da poupanca 701667.25 dinheiros
investir no CDB 0.00 dinheiros
retirar do CDB 0.00 dinheiros
investir nas acoes 0.00 dinheiros
retirar das acoes 0.00 dinheiros
Mes 1/2019:
retirar da poupanca 53.49 dinheiros
retirar do CDB 0.00 dinheiros
retirar das acoes 0.00 dinheiros
saldo da heranca em 2019: 1968411918.04 dinheiros
Caso 10:
Mes 1/2018:
investir na poupanca 0.00 dinheiros
retirar da poupanca 0.00 dinheiros
investir no CDB 4102201.72 dinheiros
retirar do CDB 0.00 dinheiros
investir nas acoes 0.00 dinheiros
retirar das acoes 0.00 dinheiros
Mes 2/2018:
investir na poupanca 7226597.32 dinheiros
retirar da poupanca 0.00 dinheiros
investir no CDB 0.00 dinheiros
retirar do CDB 7473206.61 dinheiros
investir nas acoes 0.00 dinheiros
retirar das acoes 0.00 dinheiros
Mes 3/2018:
investir na poupanca 0.00 dinheiros
retirar da poupanca 686822.28 dinheiros
investir no CDB 0.00 dinheiros
retirar do CDB 0.00 dinheiros
investir nas acoes 0.00 dinheiros
retirar das acoes -0.00 dinheiros
Mes 4/2018:
investir na poupanca 0.00 dinheiros
retirar da poupanca 324919.07 dinheiros
investir no CDB 0.00 dinheiros
retirar do CDB 0.00 dinheiros
investir nas acoes 0.00 dinheiros
retirar das acoes 0.00 dinheiros
Mes 5/2018:
investir na poupanca 0.00 dinheiros
retirar da poupanca 21726484.82 dinheiros
investir no CDB 0.00 dinheiros
retirar do CDB 0.00 dinheiros
investir nas acoes 21411019.66 dinheiros
retirar das acoes 0.00 dinheiros
Mes 6/2018:
investir na poupanca 0.00 dinheiros
retirar da poupanca 0.00 dinheiros
investir no CDB 0.00 dinheiros
retirar do CDB 0.00 dinheiros
investir nas acoes 0.00 dinheiros
retirar das acoes 89461.78 dinheiros
Mes 7/2018:
investir na poupanca 81590003.90 dinheiros
retirar da poupanca 0.00 dinheiros
investir no CDB 0.00 dinheiros
retirar do CDB 0.00 dinheiros
investir nas acoes 0.00 dinheiros
retirar das acoes 81825630.96 dinheiros
Mes 8/2018:
investir na poupanca 0.00 dinheiros
retirar da poupanca 115775759.73 dinheiros
investir no CDB 115085383.51 dinheiros
retirar do CDB 0.00 dinheiros
investir nas acoes 0.00 dinheiros
retirar das acoes 0.00 dinheiros
Mes 9/2018:
investir na poupanca 200953370.11 dinheiros
retirar da poupanca 0.00 dinheiros
investir no CDB 0.00 dinheiros
retirar do CDB 201452019.58 dinheiros
investir nas acoes 0.00 dinheiros
retirar das acoes 0.00 dinheiros
Mes 10/2018:
investir na poupanca 0.00 dinheiros
retirar da poupanca 134481.62 dinheiros
investir no CDB 0.00 dinheiros
retirar do CDB 0.00 dinheiros
investir nas acoes 0.00 dinheiros
retirar das acoes 0.00 dinheiros
Mes 11/2018:
investir na poupanca 0.00 dinheiros
retirar da poupanca 434366255.36 dinheiros
investir no CDB 434339604.97 dinheiros
retirar do CDB 0.00 dinheiros
investir nas acoes 0.00 dinheiros
retirar das acoes 0.00 dinheiros
Mes 12/2018:
investir na poupanca 0.00 dinheiros
retirar da poupanca 0.00 dinheiros
investir no CDB 0.00 dinheiros
retirar do CDB 746397127.37 dinheiros
investir nas acoes 745803696.11 dinheiros
retirar das acoes 0.00 dinheiros
Mes 1/2019:
retirar da poupanca 0.00 dinheiros
retirar do CDB 0.00 dinheiros
retirar das acoes 71.86 dinheiros
saldo da heranca em 2019: 1403602484.22 dinheiros
Caso 11:
Mes 1/2018:
investir na poupanca 7437224.81 dinheiros
retirar da poupanca 0.00 dinheiros
investir no CDB 0.00 dinheiros
retirar do CDB 0.00 dinheiros
investir nas acoes 0.00 dinheiros
retirar das acoes 0.00 dinheiros
Mes 2/2018:
investir na poupanca 0.00 dinheiros
retirar da poupanca 404166.60 dinheiros
investir no CDB 0.00 dinheiros
retirar do CDB -0.00 dinheiros
investir nas acoes 0.00 dinheiros
retirar das acoes -0.00 dinheiros
Mes 3/2018:
investir na poupanca 0.00 dinheiros
retirar da poupanca 285384.45 dinheiros
investir no CDB 0.00 dinheiros
retirar do CDB 0.00 dinheiros
investir nas acoes 0.00 dinheiros
retirar das acoes 0.00 dinheiros
Mes 4/2018:
investir na poupanca 0.00 dinheiros
retirar da poupanca 479669.09 dinheiros
investir no CDB -0.00 dinheiros
retirar do CDB 0.00 dinheiros
investir nas acoes 0.00 dinheiros
retirar das acoes 0.00 dinheiros
Mes 5/2018:
investir na poupanca 0.00 dinheiros
retirar da poupanca 226627.93 dinheiros
investir no CDB 0.00 dinheiros
retirar do CDB 0.00 dinheiros
investir nas acoes 0.00 dinheiros
retirar das acoes -0.00 dinheiros
Mes 6/2018:
investir na poupanca 0.00 dinheiros
retirar da poupanca 514302.64 dinheiros
investir no CDB 0.00 dinheiros
retirar do CDB 0.00 dinheiros
investir nas acoes 0.00 dinheiros
retirar das acoes 0.00 dinheiros
Mes 7/2018:
investir na poupanca 0.00 dinheiros
retirar da poupanca 947067.40 dinheiros
investir no CDB 0.00 dinheiros
retirar do CDB 0.00 dinheiros
investir nas acoes 0.00 dinheiros
retirar das acoes 0.00 dinheiros
Mes 8/2018:
investir na poupanca 0.00 dinheiros
retirar da poupanca 796832.09 dinheiros
investir no CDB 0.00 dinheiros
retirar do CDB 0.00 dinheiros
investir nas acoes 0.00 dinheiros
retirar das acoes 0.00 dinheiros
Mes 9/2018:
investir na poupanca 0.00 dinheiros
retirar da poupanca 242522.58 dinheiros
investir no CDB 0.00 dinheiros
retirar do CDB 0.00 dinheiros
investir nas acoes 0.00 dinheiros
retirar das acoes 0.00 dinheiros
Mes 10/2018:
investir na poupanca 0.00 dinheiros
retirar da poupanca 41615.99 dinheiros
investir no CDB 0.00 dinheiros
retirar do CDB 0.00 dinheiros
investir nas acoes 0.00 dinheiros
retirar das acoes 0.00 dinheiros
Mes 11/2018:
investir na poupanca 0.00 dinheiros
retirar da poupanca 240896.08 dinheiros
investir no CDB 0.00 dinheiros
retirar do CDB 0.00 dinheiros
investir nas acoes 0.00 dinheiros
retirar das acoes 0.00 dinheiros
Mes 12/2018:
investir na poupanca 0.00 dinheiros
retirar da poupanca 47037.19 dinheiros
investir no CDB 0.00 dinheiros
retirar do CDB 0.00 dinheiros
investir nas acoes 0.00 dinheiros
retirar das acoes 0.00 dinheiros
Mes 1/2019:
retirar da poupanca 82.65 dinheiros
retirar do CDB 0.00 dinheiros
retirar das acoes 0.00 dinheiros
saldo da heranca em 2019: 19703117294.67 dinheiros
Caso 12:
Mes 1/2018:
investir na poupanca 0.00 dinheiros
retirar da poupanca 0.00 dinheiros
investir no CDB 3614050.97 dinheiros
retirar do CDB 0.00 dinheiros
investir nas acoes 0.00 dinheiros
retirar das acoes 0.00 dinheiros
Mes 2/2018:
investir na poupanca 5817095.88 dinheiros
retirar da poupanca 0.00 dinheiros
investir no CDB 0.00 dinheiros
retirar do CDB 6622376.17 dinheiros
investir nas acoes 0.00 dinheiros
retirar das acoes 0.00 dinheiros
Mes 3/2018:
investir na poupanca 0.00 dinheiros
retirar da poupanca 458739.12 dinheiros
investir no CDB 0.00 dinheiros
retirar do CDB 0.00 dinheiros
investir nas acoes 0.00 dinheiros
retirar das acoes -0.00 dinheiros
Mes 4/2018:
investir na poupanca 0.00 dinheiros
retirar da poupanca 905946.74 dinheiros
investir no CDB 0.00 dinheiros
retirar do CDB 0.00 dinheiros
investir nas acoes 0.00 dinheiros
retirar das acoes 0.00 dinheiros
Mes 5/2018:
investir na poupanca 0.00 dinheiros
retirar da poupanca 19142244.55 dinheiros
investir no CDB 18581573.84 dinheiros
retirar do CDB 0.00 dinheiros
investir nas acoes 0.00 dinheiros
retirar das acoes -0.00 dinheiros
Mes 6/2018:
investir na poupanca 0.00 dinheiros
retirar da poupanca 0.00 dinheiros
investir no CDB 0.00 dinheiros
retirar do CDB 31647830.36 dinheiros
investir nas acoes 31599675.20 dinheiros
retirar das acoes 0.00 dinheiros
Mes 7/2018:
investir na poupanca 0.00 dinheiros
retirar da poupanca 0.00 dinheiros
investir no CDB 0.00 dinheiros
retirar do CDB 0.00 dinheiros
investir nas acoes 0.00 dinheiros
retirar das acoes 272857.02 dinheiros
Mes 8/2018:
investir na poupanca 91587257.16 dinheiros
retirar da poupanca 0.00 dinheiros
investir no CDB 0.00 dinheiros
retirar do CDB 0.00 dinheiros
investir nas acoes 0.00 dinheiros
retirar das acoes 91817949.37 dinheiros
Mes 9/2018:
investir na poupanca 0.00 dinheiros
retirar da poupanca 914214.51 dinheiros
investir no CDB 0.00 dinheiros
retirar do CDB 0.00 dinheiros
investir nas acoes 0.00 dinheiros
retirar das acoes 0.00 dinheiros
Mes 10/2018:
investir na poupanca 0.00 dinheiros
retirar da poupanca 215554992.55 dinheiros
investir no CDB 0.00 dinheiros
retirar do CDB 0.00 dinheiros
investir nas acoes 215180075.64 dinheiros
retirar das acoes 0.00 dinheiros
Mes 11/2018:
investir na poupanca 426974192.28 dinheiros
retirar da poupanca 0.00 dinheiros
investir no CDB 0.00 dinheiros
retirar do CDB 0.00 dinheiros
investir nas acoes 0.00 dinheiros
retirar das acoes 427132450.14 dinheiros
Mes 12/2018:
investir na poupanca 0.00 dinheiros
retirar da poupanca 642296421.06 dinheiros
investir no CDB 642181730.46 dinheiros
retirar do CDB 0.00 dinheiros
investir nas acoes 0.00 dinheiros
retirar das acoes 0.00 dinheiros
Mes 1/2019:
retirar da poupanca 0.00 dinheiros
retirar do CDB 41.95 dinheiros
retirar das acoes 0.00 dinheiros
saldo da heranca em 2019: 1105836895.04 dinheiros
Caso 13:
Mes 1/2018:
investir na poupanca 207139.09 dinheiros
retirar da poupanca 0.00 dinheiros
investir no CDB 6770000.60 dinheiros
retirar do CDB 0.00 dinheiros
investir nas acoes 0.00 dinheiros
retirar das acoes 0.00 dinheiros
Mes 2/2018:
investir na poupanca 0.00 dinheiros
retirar da poupanca 340271.20 dinheiros
investir no CDB 0.00 dinheiros
retirar do CDB 0.00 dinheiros
investir nas acoes 0.00 dinheiros
retirar das acoes -0.00 dinheiros
Mes 3/2018:
investir na poupanca -0.00 dinheiros
retirar da poupanca 0.00 dinheiros
investir no CDB 0.00 dinheiros
retirar do CDB 386400.84 dinheiros
investir nas acoes 0.00 dinheiros
retirar das acoes -0.00 dinheiros
Mes 4/2018:
investir na poupanca 38617576.50 dinheiros
retirar da poupanca 0.00 dinheiros
investir no CDB 0.00 dinheiros
retirar do CDB 39175616.79 dinheiros
investir nas acoes 0.00 dinheiros
retirar das acoes 0.00 dinheiros
Mes 5/2018:
investir na poupanca 0.00 dinheiros
retirar da poupanca 842126.34 dinheiros
investir no CDB 0.00 dinheiros
retirar do CDB 0.00 dinheiros
investir nas acoes 0.00 dinheiros
retirar das acoes 0.00 dinheiros
Mes 6/2018:
investir na poupanca 0.00 dinheiros
retirar da poupanca 105911888.78 dinheiros
investir no CDB 0.00 dinheiros
retirar do CDB 0.00 dinheiros
investir nas acoes 105765247.99 dinheiros
retirar das acoes 0.00 dinheiros
Mes 7/2018:
investir na poupanca 206911438.05 dinheiros
retirar da poupanca 0.00 dinheiros
investir no CDB 0.00 dinheiros
retirar do CDB 0.00 dinheiros
investir nas acoes 0.00 dinheiros
retirar das acoes 207511416.55 dinheiros
Mes 8/2018:
investir na poupanca 0.00 dinheiros
retirar da poupanca 339897236.09 dinheiros
investir no CDB 0.00 dinheiros
retirar do CDB 0.00 dinheiros
investir nas acoes 339750142.24 dinheiros
retirar das acoes 0.00 dinheiros
Mes 9/2018:
investir na poupanca 0.00 dinheiros
retirar da poupanca 0.00 dinheiros
investir no CDB 584390115.55 dinheiros
retirar do CDB 0.00 dinheiros
investir nas acoes 0.00 dinheiros
retirar das acoes 584709994.80 dinheiros
Mes 10/2018:
investir na poupanca 1079284841.16 dinheiros
retirar da poupanca 0.00 dinheiros
investir no CDB 0.00 dinheiros
retirar do CDB 1079506014.76 dinheiros
investir nas acoes 0.00 dinheiros
retirar das acoes 0.00 dinheiros
Mes 11/2018:
investir na poupanca 0.00 dinheiros
retirar da poupanca 802615.13 dinheiros
investir no CDB 0.00 dinheiros
retirar do CDB 0.00 dinheiros
investir nas acoes 0.00 dinheiros
retirar das acoes 0.00 dinheiros
Mes 12/2018:
investir na poupanca 0.00 dinheiros
retirar da poupanca 158891.54 dinheiros
investir no CDB 0.00 dinheiros
retirar do CDB 0.00 dinheiros
investir nas acoes 0.00 dinheiros
retirar das acoes 0.00 dinheiros
Mes 1/2019:
retirar da poupanca 74.09 dinheiros
retirar do CDB 0.00 dinheiros
retirar das acoes 0.00 dinheiros
saldo da heranca em 2019: 5225375256.60 dinheiros
Caso 14:
Mes 1/2018:
investir na poupanca 0.00 dinheiros
retirar da poupanca 0.00 dinheiros
investir no CDB 7755037.51 dinheiros
retirar do CDB 0.00 dinheiros
investir nas acoes 0.00 dinheiros
retirar das acoes 0.00 dinheiros
Mes 2/2018:
investir na poupanca 0.00 dinheiros
retirar da poupanca 0.00 dinheiros
investir no CDB 0.00 dinheiros
retirar do CDB 13420482.37 dinheiros
investir nas acoes 12814278.80 dinheiros
retirar das acoes 0.00 dinheiros
Mes 3/2018:
investir na poupanca 0.00 dinheiros
retirar da poupanca 0.00 dinheiros
investir no CDB 20483459.80 dinheiros
retirar do CDB 0.00 dinheiros
investir nas acoes 0.00 dinheiros
retirar das acoes 21233259.97 dinheiros
Mes 4/2018:
investir na poupanca 0.00 dinheiros
retirar da poupanca 0.00 dinheiros
investir no CDB 0.00 dinheiros
retirar do CDB 164108.61 dinheiros
investir nas acoes 0.00 dinheiros
retirar das acoes -0.00 dinheiros
Mes 5/2018:
investir na poupanca 0.00 dinheiros
retirar da poupanca 0.00 dinheiros
investir no CDB 0.00 dinheiros
retirar do CDB 886055.84 dinheiros
investir nas acoes 0.00 dinheiros
retirar das acoes 0.00 dinheiros
Mes 6/2018:
investir na poupanca -0.00 dinheiros
retirar da poupanca 0.00 dinheiros
investir no CDB 0.00 dinheiros
retirar do CDB 405652.01 dinheiros
investir nas acoes 0.00 dinheiros
retirar das acoes 0.00 dinheiros
Mes 7/2018:
investir na poupanca 0.00 dinheiros
retirar da poupanca 0.00 dinheiros
investir no CDB 0.00 dinheiros
retirar do CDB 713025.48 dinheiros
investir nas acoes 0.00 dinheiros
retirar das acoes 0.00 dinheiros
Mes 8/2018:
investir na poupanca 0.00 dinheiros
retirar da poupanca 0.00 dinheiros
investir no CDB 0.00 dinheiros
retirar do CDB 184270.95 dinheiros
investir nas acoes 0.00 dinheiros
retirar das acoes 0.00 dinheiros
Mes 9/2018:
investir na poupanca 366185644.22 dinheiros
retirar da poupanca 0.00 dinheiros
investir no CDB 0.00 dinheiros
retirar do CDB 367090859.60 dinheiros
investir nas acoes 0.00 dinheiros
retirar das acoes 0.00 dinheiros
Mes 10/2018:
investir na poupanca 0.00 dinheiros
retirar da poupanca 511428417.06 dinheiros
investir no CDB 510927879.33 dinheiros
retirar do CDB 0.00 dinheiros
investir nas acoes 0.00 dinheiros
retirar das acoes 0.00 dinheiros
Mes 11/2018:
investir na poupanca 0.00 dinheiros
retirar da poupanca 0.00 dinheiros
investir no CDB 0.00 dinheiros
retirar do CDB 270561.41 dinheiros
investir nas acoes 0.00 dinheiros
retirar das acoes 0.00 dinheiros
Mes 12/2018:
investir na poupanca 0.00 dinheiros
retirar da poupanca 0.00 dinheiros
investir no CDB 0.00 dinheiros
retirar do CDB 745913.98 dinheiros
investir nas acoes 0.00 dinheiros
retirar das acoes 0.00 dinheiros
Mes 1/2019:
retirar da poupanca 0.00 dinheiros
retirar do CDB 33.97 dinheiros
retirar das acoes 0.00 dinheiros
saldo da heranca em 2019: 2833729038.55 dinheiros
Caso 15:
Mes 1/2018:
investir na poupanca 1702094.41 dinheiros
retirar da poupanca 0.00 dinheiros
investir no CDB 0.00 dinheiros
retirar do CDB 0.00 dinheiros
investir nas acoes 0.00 dinheiros
retirar das acoes 0.00 dinheiros
Mes 2/2018:
investir na poupanca 0.00 dinheiros
retirar da poupanca 2987861.21 dinheiros
investir no CDB 0.00 dinheiros
retirar do CDB 0.00 dinheiros
investir nas acoes 2792116.69 dinheiros
retirar das acoes 0.00 dinheiros
Mes 3/2018:
investir na poupanca 4973701.92 dinheiros
retirar da poupanca 0.00 dinheiros
investir no CDB 0.00 dinheiros
retirar do CDB 0.00 dinheiros
investir nas acoes 0.00 dinheiros
retirar das acoes 5106781.42 dinheiros
Mes 4/2018:
investir na poupanca 0.00 dinheiros
retirar da poupanca 224182.50 dinheiros
investir no CDB 0.00 dinheiros
retirar do CDB 0.00 dinheiros
investir nas acoes 0.00 dinheiros
retirar das acoes 0.00 dinheiros
Mes 5/2018:
investir na poupanca 0.00 dinheiros
retirar da poupanca 15201414.89 dinheiros
investir no CDB 0.00 dinheiros
retirar do CDB 0.00 dinheiros
investir nas acoes 14487393.65 dinheiros
retirar das acoes 0.00 dinheiros
Mes 6/2018:
investir na poupanca 26707964.87 dinheiros
retirar da poupanca 0.00 dinheiros
investir no CDB 0.00 dinheiros
retirar do CDB 0.00 dinheiros
investir nas acoes 0.00 dinheiros
retirar das acoes 27685409.26 dinheiros
Mes 7/2018:
investir na poupanca 0.00 dinheiros
retirar da poupanca 465152.29 dinheiros
investir no CDB 0.00 dinheiros
retirar do CDB 0.00 dinheiros
investir nas acoes 0.00 dinheiros
retirar das acoes 0.00 dinheiros
Mes 8/2018:
investir na poupanca 0.00 dinheiros
retirar da poupanca 82949113.80 dinheiros
investir no CDB 0.00 dinheiros
retirar do CDB 0.00 dinheiros
investir nas acoes 82286937.29 dinheiros
retirar das acoes 0.00 dinheiros
Mes 9/2018:
investir na poupanca 0.00 dinheiros
retirar da poupanca 0.00 dinheiros
investir no CDB 155227904.94 dinheiros
retirar do CDB 0.00 dinheiros
investir nas acoes 0.00 dinheiros
retirar das acoes 155522311.48 dinheiros
Mes 10/2018:
investir na poupanca 289831828.37 dinheiros
retirar da poupanca 0.00 dinheiros
investir no CDB 0.00 dinheiros
retirar do CDB 290398271.61 dinheiros
investir nas acoes 0.00 dinheiros
retirar das acoes 0.00 dinheiros
Mes 11/2018:
investir na poupanca 0.00 dinheiros
retirar da poupanca 966934.23 dinheiros
investir no CDB 0.00 dinheiros
retirar do CDB 0.00 dinheiros
investir nas acoes 0.00 dinheiros
retirar das acoes 0.00 dinheiros
Mes 12/2018:
investir na poupanca 0.00 dinheiros
retirar da poupanca 584477.82 dinheiros
investir no CDB 0.00 dinheiros
retirar do CDB 0.00 dinheiros
investir nas acoes 0.00 dinheiros
retirar das acoes 0.00 dinheiros
Mes 1/2019:
retirar da poupanca 63.89 dinheiros
retirar do CDB 0.00 dinheiros
retirar das acoes 0.00 dinheiros
saldo da heranca em 2019: 1649733251.98 dinheiros
Caso 16:
Mes 1/2018:
investir na poupanca 6068189.12 dinheiros
retirar da poupanca 0.00 dinheiros
investir no CDB 0.00 dinheiros
retirar do CDB 0.00 dinheiros
investir nas acoes 0.00 dinheiros
retirar das acoes 0.00 dinheiros
Mes 2/2018:
investir na poupanca 0.00 dinheiros
retirar da poupanca 9986991.63 dinheiros
investir no CDB 0.00 dinheiros
retirar do CDB 0.00 dinheiros
investir nas acoes 9011965.23 dinheiros
retirar das acoes 0.00 dinheiros
Mes 3/2018:
investir na poupanca 0.00 dinheiros
retirar da poupanca 0.00 dinheiros
investir no CDB 0.00 dinheiros
retirar do CDB 0.00 dinheiros
investir nas acoes 0.00 dinheiros
retirar das acoes 862494.70 dinheiros
Mes 4/2018:
investir na poupanca 30739610.88 dinheiros
retirar da poupanca 0.00 dinheiros
investir no CDB 0.00 dinheiros
retirar do CDB 0.00 dinheiros
investir nas acoes 0.00 dinheiros
retirar das acoes 31612483.73 dinheiros
Mes 5/2018:
investir na poupanca 0.00 dinheiros
retirar da poupanca 0.00 dinheiros
investir no CDB 0.00 dinheiros
retirar do CDB 0.00 dinheiros
investir nas acoes 0.00 dinheiros
retirar das acoes 835621.90 dinheiros
Mes 6/2018:
investir na poupanca 0.00 dinheiros
retirar da poupanca 564269.99 dinheiros
investir no CDB 0.00 dinheiros
retirar do CDB 0.00 dinheiros
investir nas acoes 0.00 dinheiros
retirar das acoes 0.00 dinheiros
Mes 7/2018:
investir na poupanca 0.00 dinheiros
retirar da poupanca 247069.39 dinheiros
investir no CDB 0.00 dinheiros
retirar do CDB 0.00 dinheiros
investir nas acoes 0.00 dinheiros
retirar das acoes 0.00 dinheiros
Mes 8/2018:
investir na poupanca 0.00 dinheiros
retirar da poupanca 577878.65 dinheiros
investir no CDB 0.00 dinheiros
retirar do CDB 0.00 dinheiros
investir nas acoes 0.00 dinheiros
retirar das acoes 0.00 dinheiros
Mes 9/2018:
investir na poupanca 0.00 dinheiros
retirar da poupanca 768224.84 dinheiros
investir no CDB 93822.22 dinheiros
retirar do CDB 0.00 dinheiros
investir nas acoes 0.00 dinheiros
retirar das acoes 0.00 dinheiros
Mes 10/2018:
investir na poupanca 0.00 dinheiros
retirar da poupanca 0.00 dinheiros
investir no CDB 0.00 dinheiros
retirar do CDB 172094.28 dinheiros
investir nas acoes 0.00 dinheiros
retirar das acoes 0.00 dinheiros
Mes 11/2018:
investir na poupanca 0.00 dinheiros
retirar da poupanca 109442.80 dinheiros
investir no CDB 0.00 dinheiros
retirar do CDB 0.00 dinheiros
investir nas acoes 0.00 dinheiros
retirar das acoes 0.00 dinheiros
Mes 12/2018:
investir na poupanca 0.00 dinheiros
retirar da poupanca 8270.38 dinheiros
investir no CDB 0.00 dinheiros
retirar do CDB 0.00 dinheiros
investir nas acoes 0.00 dinheiros
retirar das acoes 0.00 dinheiros
Mes 1/2019:
retirar da poupanca 14.21 dinheiros
retirar do CDB 0.00 dinheiros
retirar das acoes 0.00 dinheiros
saldo da heranca em 2019: 4948131883.47 dinheiros
Caso 17:
Mes 1/2018:
investir na poupanca 5445793.67 dinheiros
retirar da poupanca 0.00 dinheiros
investir no CDB 0.00 dinheiros
retirar do CDB 0.00 dinheiros
investir nas acoes 0.00 dinheiros
retirar das acoes 0.00 dinheiros
Mes 2/2018:
investir na poupanca 0.00 dinheiros
retirar da poupanca 8935331.36 dinheiros
investir no CDB 8043185.16 dinheiros
retirar do CDB 0.00 dinheiros
investir nas acoes 0.00 dinheiros
retirar das acoes 0.00 dinheiros
Mes 3/2018:
investir na poupanca 0.00 dinheiros
retirar da poupanca -0.00 dinheiros
investir no CDB 0.00 dinheiros
retirar do CDB 15566947.41 dinheiros
investir nas acoes 15469176.79 dinheiros
retirar das acoes 0.00 dinheiros
Mes 4/2018:
investir na poupanca 30461009.99 dinheiros
retirar da poupanca 0.00 dinheiros
investir no CDB -0.00 dinheiros
retirar do CDB 0.00 dinheiros
investir nas acoes 0.00 dinheiros
retirar das acoes 30752723.45 dinheiros
Mes 5/2018:
investir na poupanca 0.00 dinheiros
retirar da poupanca 762743.23 dinheiros
investir no CDB 0.00 dinheiros
retirar do CDB 0.00 dinheiros
investir nas acoes 0.00 dinheiros
retirar das acoes 0.00 dinheiros
Mes 6/2018:
investir na poupanca 0.00 dinheiros
retirar da poupanca 61461.75 dinheiros
investir no CDB 0.00 dinheiros
retirar do CDB 0.00 dinheiros
investir nas acoes 0.00 dinheiros
retirar das acoes 0.00 dinheiros
Mes 7/2018:
investir na poupanca 0.00 dinheiros
retirar da poupanca 343956.53 dinheiros
investir no CDB 0.00 dinheiros
retirar do CDB 0.00 dinheiros
investir nas acoes 0.00 dinheiros
retirar das acoes 0.00 dinheiros
Mes 8/2018:
investir na poupanca 0.00 dinheiros
retirar da poupanca 91820.13 dinheiros
investir no CDB 0.00 dinheiros
retirar do CDB 0.00 dinheiros
investir nas acoes 0.00 dinheiros
retirar das acoes 0.00 dinheiros
Mes 9/2018:
investir na poupanca 0.00 dinheiros
retirar da poupanca 907915.70 dinheiros
investir no CDB 0.00 dinheiros
retirar do CDB 0.00 dinheiros
investir nas acoes 0.00 dinheiros
retirar das acoes 0.00 dinheiros
Mes 10/2018:
investir na poupanca 0.00 dinheiros
retirar da poupanca 674539556.13 dinheiros
investir no CDB 673933899.77 dinheiros
retirar do CDB 0.00 dinheiros
investir nas acoes 0.00 dinheiros
retirar das acoes 0.00 dinheiros
Mes 11/2018:
investir na poupanca 1309194662.57 dinheiros
retirar da poupanca 0.00 dinheiros
investir no CDB 0.00 dinheiros
retirar do CDB 1309621061.59 dinheiros
investir nas acoes 0.00 dinheiros
retirar das acoes 0.00 dinheiros
Mes 12/2018:
investir na poupanca 0.00 dinheiros
retirar da poupanca 551366.58 dinheiros
investir no CDB 0.00 dinheiros
retirar do CDB 0.00 dinheiros
investir nas acoes 0.00 dinheiros
retirar das acoes 0.00 dinheiros
Mes 1/2019:
retirar da poupanca 46.49 dinheiros
retirar do CDB 0.00 dinheiros
retirar das acoes 0.00 dinheiros
saldo da heranca em 2019: 3738231064.07 dinheiros
Caso 18:
Solucao impossivel ou ilimitada
Caso 19:
Mes 1/2018:
investir na poupanca 8163723.50 dinheiros
retirar da poupanca 0.00 dinheiros
investir no CDB 0.00 dinheiros
retirar do CDB 0.00 dinheiros
investir nas acoes 0.00 dinheiros
retirar das acoes 0.00 dinheiros
Mes 2/2018:
investir na poupanca 0.00 dinheiros
retirar da poupanca 201881.21 dinheiros
investir no CDB 0.00 dinheiros
retirar do CDB 0.00 dinheiros
investir nas acoes 0.00 dinheiros
retirar das acoes 0.00 dinheiros
Mes 3/2018:
investir na poupanca 0.00 dinheiros
retirar da poupanca 733644.73 dinheiros
investir no CDB 0.00 dinheiros
retirar do CDB 0.00 dinheiros
investir nas acoes 0.00 dinheiros
retirar das acoes 0.00 dinheiros
Mes 4/2018:
investir na poupanca 0.00 dinheiros
retirar da poupanca 32700370.38 dinheiros
investir no CDB 32624053.00 dinheiros
retirar do CDB 0.00 dinheiros
investir nas acoes 0.00 dinheiros
retirar das acoes 0.00 dinheiros
Mes 5/2018:
investir na poupanca 0.00 dinheiros
retirar da poupanca 0.00 dinheiros
investir no CDB 0.00 dinheiros
retirar do CDB 615561.33 dinheiros
investir nas acoes 0.00 dinheiros
retirar das acoes 0.00 dinheiros
Mes 6/2018:
investir na poupanca 0.00 dinheiros
retirar da poupanca 0.00 dinheiros
investir no CDB 0.00 dinheiros
retirar do CDB 727480.84 dinheiros
investir nas acoes 0.00 dinheiros
retirar das acoes 0.00 dinheiros
Mes 7/2018:
investir na poupanca 0.00 dinheiros
retirar da poupanca 0.00 dinheiros
investir no CDB 0.00 dinheiros
retirar do CDB 721170.73 dinheiros
investir nas acoes 0.00 dinheiros
retirar das acoes 0.00 dinheiros
Mes 8/2018:
investir na poupanca 381575809.97 dinheiros
retirar da poupanca 0.00 dinheiros
investir no CDB 0.00 dinheiros
retirar do CDB 382533175.84 dinheiros
investir nas acoes 0.00 dinheiros
retirar das acoes 0.00 dinheiros
Mes 9/2018:
investir na poupanca 0.00 dinheiros
retirar da poupanca 928305.34 dinheiros
investir no CDB 0.00 dinheiros
retirar do CDB 0.00 dinheiros
investir nas acoes 0.00 dinheiros
retirar das acoes 0.00 dinheiros
Mes 10/2018:
investir na poupanca 0.00 dinheiros
retirar da poupanca 978536106.08 dinheiros
investir no CDB 978071782.53 dinheiros
retirar do CDB 0.00 dinheiros
investir nas acoes 0.00 dinheiros
retirar das acoes 0.00 dinheiros
Mes 11/2018:
investir na poupanca 25557.72 dinheiros
retirar da poupanca 0.00 dinheiros
investir no CDB 0.00 dinheiros
retirar do CDB 594499.80 dinheiros
investir nas acoes 0.00 dinheiros
retirar das acoes 0.00 dinheiros
Mes 12/2018:
investir na poupanca 0.00 dinheiros
retirar da poupanca 39953.69 dinheiros
investir no CDB 0.00 dinheiros
retirar do CDB 0.00 dinheiros
investir nas acoes 0.00 dinheiros
retirar das acoes 0.00 dinheiros
Mes 1/2019:
retirar da poupanca 0.00 dinheiros
retirar do CDB 2.10 dinheiros
retirar das acoes 0.00 dinheiros
saldo da heranca em 2019: 5566458816.34 dinheiros
Caso 20:
Mes 1/2018:
investir na poupanca 0.00 dinheiros
retirar da poupanca 0.00 dinheiros
investir no CDB 1382388.78 dinheiros
retirar do CDB 0.00 dinheiros
investir nas acoes 0.00 dinheiros
retirar das acoes 0.00 dinheiros
Mes 2/2018:
investir na poupanca -0.00 dinheiros
retirar da poupanca 0.00 dinheiros
investir no CDB 0.00 dinheiros
retirar do CDB 2668238.29 dinheiros
investir nas acoes 1712065.73 dinheiros
retirar das acoes 0.00 dinheiros
Mes 3/2018:
investir na poupanca 0.00 dinheiros
retirar da poupanca 0.00 dinheiros
investir no CDB -0.00 dinheiros
retirar do CDB 0.00 dinheiros
investir nas acoes 0.00 dinheiros
retirar das acoes 337829.71 dinheiros
Mes 4/2018:
investir na poupanca 0.00 dinheiros
retirar da poupanca 0.00 dinheiros
investir no CDB 5309018.67 dinheiros
retirar do CDB 0.00 dinheiros
investir nas acoes 0.00 dinheiros
retirar das acoes 6014527.02 dinheiros
Mes 5/2018:
investir na poupanca -0.00 dinheiros
retirar da poupanca 0.00 dinheiros
investir no CDB 0.00 dinheiros
retirar do CDB 443539.03 dinheiros
investir nas acoes 0.00 dinheiros
retirar das acoes 0.00 dinheiros
Mes 6/2018:
investir na poupanca 0.00 dinheiros
retirar da poupanca 0.00 dinheiros
investir no CDB 0.00 dinheiros
retirar do CDB 15157311.45 dinheiros
investir nas acoes 14374625.75 dinheiros
retirar das acoes 0.00 dinheiros
Mes 7/2018:
investir na poupanca 0.00 dinheiros
retirar da poupanca 0.00 dinheiros
investir no CDB 0.00 dinheiros
retirar do CDB 0.00 dinheiros
investir nas acoes 0.00 dinheiros
retirar das acoes 192147.83 dinheiros
Mes 8/2018:
investir na poupanca 43335502.50 dinheiros
retirar da poupanca 0.00 dinheiros
investir no CDB 0.00 dinheiros
retirar do CDB 0.00 dinheiros
investir nas acoes 0.00 dinheiros
retirar das acoes 43613042.83 dinheiros
Mes 9/2018:
investir na poupanca 0.00 dinheiros
retirar da poupanca 64086541.20 dinheiros
investir no CDB 0.00 dinheiros
retirar do CDB 0.00 dinheiros
investir nas acoes 63550372.41 dinheiros
retirar das acoes 0.00 dinheiros
Mes 10/2018:
investir na poupanca 110149739.02 dinheiros
retirar da poupanca 0.00 dinheiros
investir no CDB 523797.13 dinheiros
retirar do CDB 0.00 dinheiros
investir nas acoes 0.00 dinheiros
retirar das acoes 111467353.20 dinheiros
Mes 11/2018:
investir na poupanca 0.00 dinheiros
retirar da poupanca 0.00 dinheiros
investir no CDB 0.00 dinheiros
retirar do CDB 800175.06 dinheiros
investir nas acoes 0.00 dinheiros
retirar das acoes 0.00 dinheiros
Mes 12/2018:
investir na poupanca 0.00 dinheiros
retirar da poupanca 46915.68 dinheiros
investir no CDB 0.00 dinheiros
retirar do CDB 0.00 dinheiros
investir nas acoes 0.00 dinheiros
retirar das acoes 0.00 dinheiros
Mes 1/2019:
retirar da poupanca 60.07 dinheiros
retirar do CDB 0.00 dinheiros
retirar das acoes 0.00 dinheiros
saldo da heranca em 2019: 400655469.33 dinheiros
