Caso 1:
Mes 1/2018:
investir na poupanca 8580728.97 dinheiros
retirar da poupanca 0.00 dinheiros
investir no CDB 0.00 dinheiros
retirar do CDB 0.00 dinheiros
investir nas acoes 0.00 dinheiros
retirar das acoes 0.00 dinheiros
Mes 2/2018:
investir na poupanca 0.00 dinheiros
retirar da poupanca 55679.17 dinheiros
investir no CDB 0.00 dinheiros
retirar do CDB 0.00 dinheiros
investir nas acoes 0.00 dinheiros
retirar das acoes 0.00 dinheiros
Mes 3/2018:
investir na poupanca 0.00 dinheiros
retirar da poupanca 44909.21 dinheiros
investir no CDB 0.00 dinheiros
retirar do CDB 0.00 dinheiros
investir nas acoes 0.00 dinheiros
retirar das acoes 0.00 dinheiros
Mes 4/2018:
investir na poupanca 0.00 dinheiros
retirar da poupanca 63133.49 dinheiros
investir no CDB 0.00 dinheiros
retirar do CDB 0.00 dinheiros
investir nas acoes 0.00 dinheiros
retirar das acoes 0.00 dinheiros
Mes 5/2018:
investir na poupanca 0.00 dinheiros
retirar da poupanca 56367.06 dinheiros
investir no CDB 0.00 dinheiros
retirar do CDB -0.00 dinheiros
investir nas acoes 0.00 dinheiros
retirar das acoes 0.00 dinheiros
Mes 6/2018:
investir na poupanca 0.00 dinheiros
retirar da poupanca 92964.20 dinheiros
investir no CDB 0.00 dinheiros
retirar do CDB 0.00 dinheiros
investir nas acoes 0.00 dinheiros
retirar das acoes 0.00 dinheiros
Mes 7/2018:
investir na poupanca 0.00 dinheiros
retirar da poupanca 41088.79 dinheiros
investir no CDB 0.00 dinheiros
retirar do CDB 0.00 dinheiros
investir nas acoes 0.00 dinheiros
retirar das acoes 0.00 dinheiros
Mes 8/2018:
investir na poupanca 0.00 dinheiros
retirar da poupanca 89577.94 dinheiros
investir no CDB 0.00 dinheiros
retirar do CDB 0.00 dinheiros
investir nas acoes 0.00 dinheiros
retirar das acoes 0.00 dinheiros
Mes 9/2018:
investir na poupanca 0.00 dinheiros
retirar da poupanca 61416.37 dinheiros
investir no CDB 0.00 dinheiros
retirar do CDB 0.00 dinheiros
investir nas acoes 0.00 dinheiros
retirar das acoes 0.00 dinheiros
Mes 10/2018:
investir na poupanca 0.00 dinheiros
retirar da poupanca 45173.05 dinheiros
investir no CDB -0.00 dinheiros
retirar do CDB 0.00 dinheiros
investir nas acoes 0.00 dinheiros
retirar das acoes 0.00 dinheiros
Mes 11/2018:
investir na poupanca 0.00 dinheiros
retirar da poupanca 70286.12 dinheiros
investir no CDB -0.00 dinheiros
retirar do CDB 0.00 dinheiros
investir nas acoes 0.00 dinheiros
retirar das acoes 0.00 dinheiros
Mes 12/2018:
investir na poupanca 0.00 dinheiros
retirar da poupanca 38561.13 dinheiros
investir no CDB 0.00 dinheiros
retirar do CDB 0.00 dinheiros
investir nas acoes 0.00 dinheiros
retirar das acoes 0.00 dinheiros
Mes 1/2019:
retirar da poupanca 72.72 dinheiros
retirar do CDB 0.00 dinheiros
retirar das acoes 0.00 dinheiros
saldo da heranca em 2019: 17142406460.70 dinheiros
Caso 2:
Mes 1/2018:
investir na poupanca 7428227.15 dinheiros
retirar da poupanca 0.00 dinheiros
investir no CDB 0.00 dinheiros
retirar do CDB 0.00 dinheiros
investir nas acoes 0.00 dinheiros
retirar das acoes 0.00 dinheiros
Mes 2/2018:
investir na poupanca 0.00 dinheiros
retirar da poupanca 65128.57 dinheiros
investir no CDB 0.00 dinheiros
retirar do CDB 0.00 dinheiros
investir nas acoes 0.00 dinheiros
retirar das acoes 0.00 dinheiros
Mes 3/2018:
investir na poupanca 0.00 dinheiros
retirar da poupanca 80735.45 dinheiros
investir no CDB 0.00 dinheiros
retirar do CDB 0.00 dinheiros
investir nas acoes 0.00 dinheiros
retirar das acoes 0.00 dinheiros
Mes 4/2018:
investir na poupanca 0.00 dinheiros
retirar da poupanca 30262464.73 dinheiros
investir no CDB 0.00 dinheiros
retirar do CDB 0.00 dinheiros
investir nas acoes 30206068.96 dinheiros
retirar das acoes 0.00 dinheiros
Mes 5/2018:
investir na poupanca 51801354.68 dinheiros
retirar da poupanca 0.00 dinheiros
investir no CDB 0.00 dinheiros
retirar do CDB 0.00 dinheiros
investir nas acoes 0.00 dinheiros
retirar das acoes 51803408.27 dinheiros
Mes 6/2018:
investir na poupanca 0.00 dinheiros
retirar da poupanca 39539.20 dinheiros
investir no CDB 0.00 dinheiros
retirar do CDB 0.00 dinheiros
investir nas acoes 0.00 dinheiros
retirar das acoes 0.00 dinheiros
Mes 7/2018:
investir na poupanca 0.00 dinheiros
retirar da poupanca 131265424.22 dinheiros
investir no CDB 131245592.29 dinheiros
retirar do CDB 0.00 dinheiros
investir nas acoes 0.00 dinheiros
retirar das acoes 0.00 dinheiros
Mes 8/2018:
investir na poupanca 0.00 dinheiros
retirar da poupanca 0.00 dinheiros
investir no CDB 0.00 dinheiros
retirar do CDB 6283.01 dinheiros
investir nas acoes 0.00 dinheiros
retirar das acoes 0.00 dinheiros
Mes 9/2018:
investir na poupanca 371578675.02 dinheiros
retirar da poupanca 0.00 dinheiros
investir no CDB 0.00 dinheiros
retirar do CDB 371637720.08 dinheiros
investir nas acoes 0.00 dinheiros
retirar das acoes 0.00 dinheiros
Mes 10/2018:
investir na poupanca 0.00 dinheiros
retirar da poupanca 37455.44 dinheiros
investir no CDB 0.00 dinheiros
retirar do CDB 0.00 dinheiros
investir nas acoes 0.00 dinheiros
retirar das acoes 0.00 dinheiros
Mes 11/2018:
investir na poupanca 0.00 dinheiros
retirar da poupanca 20566.78 dinheiros
investir no CDB 0.00 dinheiros
retirar do CDB 0.00 dinheiros
investir nas acoes 0.00 dinheiros
retirar das acoes 0.00 dinheiros
Mes 12/2018:
investir na poupanca 0.00 dinheiros
retirar da poupanca 1528809193.09 dinheiros
investir no CDB 1528783000.83 dinheiros
retirar do CDB 0.00 dinheiros
investir nas acoes 0.00 dinheiros
retirar das acoes 0.00 dinheiros
Mes 1/2019:
retirar da poupanca 0.00 dinheiros
retirar do CDB 24.02 dinheiros
retirar das acoes 0.00 dinheiros
saldo da heranca em 2019: 3011702486.53 dinheiros
Caso 3:
Mes 1/2018:
investir na poupanca 9719270.61 dinheiros
retirar da poupanca 0.00 dinheiros
investir no CDB 0.00 dinheiros
retirar do CDB 0.00 dinheiros
investir nas acoes 0.00 dinheiros
retirar das acoes 0.00 dinheiros
Mes 2/2018:
investir na poupanca 0.00 dinheiros
retirar da poupanca 49628.35 dinheiros
investir no CDB 0.00 dinheiros
retirar do CDB 0.00 dinheiros
investir nas acoes 0.00 dinheiros
retirar das acoes 0.00 dinheiros
Mes 3/2018:
investir na poupanca 0.00 dinheiros
retirar da poupanca 23409367.93 dinheiros
investir no CDB 23352768.32 dinheiros
retirar do CDB 0.00 dinheiros
investir nas acoes 0.00 dinheiros
retirar das acoes 0.00 dinheiros
Mes 4/2018:
investir na poupanca 42870606.21 dinheiros
retirar da poupanca 0.00 dinheiros
investir no CDB 0.00 dinheiros
retirar do CDB 42943269.86 dinheiros
investir nas acoes 0.00 dinheiros
retirar das acoes 0.00 dinheiros
Mes 5/2018:
investir na poupanca 0.00 dinheiros
retirar da poupanca 75446.92 dinheiros
investir no CDB 0.00 dinheiros
retirar do CDB 0.00 dinheiros
investir nas acoes 0.00 dinheiros
retirar das acoes 0.00 dinheiros
Mes 6/2018:
investir na poupanca 0.00 dinheiros
retirar da poupanca 103481310.35 dinheiros
investir no CDB 103402163.70 dinheiros
retirar do CDB 0.00 dinheiros
investir nas acoes 0.00 dinheiros
retirar das acoes 0.00 dinheiros
Mes 7/2018:
investir na poupanca 0.00 dinheiros
retirar da poupanca 0.00 dinheiros
investir no CDB 0.00 dinheiros
retirar do CDB 62858.45 dinheiros
investir nas acoes 0.00 dinheiros
retirar das acoes 0.00 dinheiros
Mes 8/2018:
investir na poupanca 0.00 dinheiros
retirar da poupanca 0.00 dinheiros
investir no CDB 0.00 dinheiros
retirar do CDB 353123805.96 dinheiros
investir nas acoes 353027354.78 dinheiros
retirar das acoes 0.00 dinheiros
Mes 9/2018:
investir na poupanca 689422680.73 dinheiros
retirar da poupanca 0.00 dinheiros
investir no CDB 0.00 dinheiros
retirar do CDB 0.00 dinheiros
investir nas acoes 0.00 dinheiros
retirar das acoes 689462423.89 dinheiros
Mes 10/2018:
investir na poupanca 0.00 dinheiros
retirar da poupanca 72012.38 dinheiros
investir no CDB 0.00 dinheiros
retirar do CDB 0.00 dinheiros
investir nas acoes 0.00 dinheiros
retirar das acoes 0.00 dinheiros
Mes 11/2018:
investir na poupanca 0.00 dinheiros
retirar da poupanca 1665924161.87 dinheiros
investir no CDB 0.00 dinheiros
retirar do CDB 0.00 dinheiros
investir nas acoes 1665881622.27 dinheiros
retirar das acoes 0.00 dinheiros
Mes 12/2018:
investir na poupanca 2985236854.14 dinheiros
retirar da poupanca 0.00 dinheiros
investir no CDB 0.00 dinheiros
retirar do CDB 0.00 dinheiros
investir nas acoes 0.00 dinheiros
retirar das acoes 2985259867.10 dinheiros
Mes 1/2019:
retirar da poupanca 81.90 dinheiros
retirar do CDB 0.00 dinheiros
retirar das acoes 0.00 dinheiros
saldo da heranca em 2019: 4686821777.46 dinheiros
Caso 4:
Mes 1/2018:
investir na poupanca 0.00 dinheiros
retirar da poupanca 0.00 dinheiros
investir no CDB 8454720.46 dinheiros
retirar do CDB 0.00 dinheiros
investir nas acoes 0.00 dinheiros
retirar das acoes 0.00 dinheiros
Mes 2/2018:
investir na poupanca 0.00 dinheiros
retirar da poupanca 0.00 dinheiros
investir no CDB 0.00 dinheiros
retirar do CDB 21390.97 dinheiros
investir nas acoes 0.00 dinheiros
retirar das acoes 0.00 dinheiros
Mes 3/2018:
investir na poupanca 0.00 dinheiros
retirar da poupanca 0.00 dinheiros
investir no CDB 0.00 dinheiros
retirar do CDB 27898.67 dinheiros
investir nas acoes 0.00 dinheiros
retirar das acoes 0.00 dinheiros
Mes 4/2018:
investir na poupanca 0.00 dinheiros
retirar da poupanca 0.00 dinheiros
investir no CDB 0.00 dinheiros
retirar do CDB 66339.34 dinheiros
investir nas acoes 0.00 dinheiros
retirar das acoes 0.00 dinheiros
Mes 5/2018:
investir na poupanca 0.00 dinheiros
retirar da poupanca 0.00 dinheiros
investir no CDB 0.00 dinheiros
retirar do CDB 56783.25 dinheiros
investir nas acoes 0.00 dinheiros
retirar das acoes 0.00 dinheiros
Mes 6/2018:
investir na poupanca 0.00 dinheiros
retirar da poupanca 0.00 dinheiros
investir no CDB 0.00 dinheiros
retirar do CDB 91501587.15 dinheiros
investir nas acoes 91487704.56 dinheiros
retirar das acoes 0.00 dinheiros
Mes 7/2018:
investir na poupanca 0.00 dinheiros
retirar da poupanca 0.00 dinheiros
investir no CDB 142549125.25 dinheiros
retirar do CDB 0.00 dinheiros
investir nas acoes 0.00 dinheiros
retirar das acoes 142629331.42 dinheiros
Mes 8/2018:
investir na poupanca 0.00 dinheiros
retirar da poupanca 0.00 dinheiros
investir no CDB 0.00 dinheiros
retirar do CDB 67441.23 dinheiros
investir nas acoes 0.00 dinheiros
retirar das acoes 0.00 dinheiros
Mes 9/2018:
investir na poupanca 0.00 dinheiros
retirar da poupanca 0.00 dinheiros
investir no CDB 0.00 dinheiros
retirar do CDB 30431.14 dinheiros
investir nas acoes 0.00 dinheiros
retirar das acoes 0.00 dinheiros
Mes 10/2018:
investir na poupanca 0.00 dinheiros
retirar da poupanca 0.00 dinheiros
investir no CDB 0.00 dinheiros
retirar do CDB 24011.46 dinheiros
investir nas acoes 0.00 dinheiros
retirar das acoes 0.00 dinheiros
Mes 11/2018:
investir na poupanca 0.00 dinheiros
retirar da poupanca 0.00 dinheiros
investir no CDB 0.00 dinheiros
retirar do CDB 863768371.70 dinheiros
investir nas acoes 863730632.54 dinheiros
retirar das acoes 0.00 dinheiros
Mes 12/2018:
investir na poupanca 1575434634.52 dinheiros
retirar da poupanca 0.00 dinheiros
investir no CDB 0.00 dinheiros
retirar do CDB 0.00 dinheiros
investir nas acoes 0.00 dinheiros
retirar das acoes 1575444673.75 dinheiros
Mes 1/2019:
retirar da poupanca 15.43 dinheiros
retirar do CDB 0.00 dinheiros
retirar das acoes 0.00 dinheiros
saldo da heranca em 2019: 1638452004.44 dinheiros
Caso 5:
Mes 1/2018:
investir na poupanca 0.00 dinheiros
retirar da poupanca 0.00 dinheiros
investir no CDB 4067225.49 dinheiros
retirar do CDB 0.00 dinheiros
investir nas acoes 0.00 dinheiros
retirar das acoes 0.00 dinheiros
Mes 2/2018:
investir na poupanca 0.00 dinheiros
retirar da poupanca 0.00 dinheiros
investir no CDB 0.00 dinheiros
retirar do CDB 6864959.13 dinheiros
investir nas acoes 6848638.23 dinheiros
retirar das acoes 0.00 dinheiros
Mes 3/2018:
investir na poupanca 0.00 dinheiros
retirar da poupanca 0.00 dinheiros
investir no CDB 12500905.20 dinheiros
retirar do CDB 0.00 dinheiros
investir nas acoes 0.00 dinheiros
retirar das acoes 12546705.23 dinheiros
Mes 4/2018:
investir na poupanca 0.00 dinheiros
retirar da poupanca 0.00 dinheiros
investir no CDB 0.00 dinheiros
retirar do CDB 32344.24 dinheiros
investir nas acoes 0.00 dinheiros
retirar das acoes 0.00 dinheiros
Mes 5/2018:
investir na poupanca 0.00 dinheiros
retirar da poupanca -0.00 dinheiros
investir no CDB 0.00 dinheiros
retirar do CDB 34450.43 dinheiros
investir nas acoes 0.00 dinheiros
retirar das acoes 0.00 dinheiros
Mes 6/2018:
investir na poupanca 61274634.99 dinheiros
retirar da poupanca 0.00 dinheiros
investir no CDB 0.00 dinheiros
retirar do CDB 61312213.16 dinheiros
investir nas acoes 0.00 dinheiros
retirar das acoes 0.00 dinheiros
Mes 7/2018:
investir na poupanca 0.00 dinheiros
retirar da poupanca 70964577.27 dinheiros
investir no CDB 70924335.44 dinheiros
retirar do CDB 0.00 dinheiros
investir nas acoes 0.00 dinheiros
retirar das acoes 0.00 dinheiros
Mes 8/2018:
investir na poupanca 108872725.55 dinheiros
retirar da poupanca 0.00 dinheiros
investir no CDB 0.00 dinheiros
retirar do CDB 108924550.95 dinheiros
investir nas acoes -0.00 dinheiros
retirar das acoes 0.00 dinheiros
Mes 9/2018:
investir na poupanca 0.00 dinheiros
retirar da poupanca 126089807.73 dinheiros
investir no CDB 126080167.77 dinheiros
retirar do CDB 0.00 dinheiros
investir nas acoes 0.00 dinheiros
retirar das acoes 0.00 dinheiros
Mes 10/2018:
investir na poupanca 0.00 dinheiros
retirar da poupanca 0.00 dinheiros
investir no CDB 0.00 dinheiros
retirar do CDB 51592.91 dinheiros
investir nas acoes 0.00 dinheiros
retirar das acoes 0.00 dinheiros
Mes 11/2018:
investir na poupanca 0.00 dinheiros
retirar da poupanca 0.00 dinheiros
investir no CDB 0.00 dinheiros
retirar do CDB 204297395.05 dinheiros
investir nas acoes 204254925.87 dinheiros
retirar das acoes 0.00 dinheiros
Mes 12/2018:
investir na poupanca 313875390.90 dinheiros
retirar da poupanca 0.00 dinheiros
investir no CDB 0.00 dinheiros
retirar do CDB 0.00 dinheiros
investir nas acoes 0.00 dinheiros
retirar das acoes 313939821.06 dinheiros
Mes 1/2019:
retirar da poupanca 76.99 dinheiros
retirar do CDB 0.00 dinheiros
retirar das acoes 0.00 dinheiros
saldo da heranca em 2019: 390774778.90 dinheiros
Caso 6:
Mes 1/2018:
investir na poupanca 0.00 dinheiros
retirar da poupanca 0.00 dinheiros
investir no CDB 2142348.67 dinheiros
retirar do CDB 0.00 dinheiros
investir nas acoes 0.00 dinheiros
retirar das acoes 0.00 dinheiros
Mes 2/2018:
investir na poupanca 4104045.42 dinheiros
retirar da poupanca 0.00 dinheiros
investir no CDB 0.00 dinheiros
retirar do CDB 4148944.55 dinheiros
investir nas acoes 0.00 dinheiros
retirar das acoes 0.00 dinheiros
Mes 3/2018:
investir na poupanca 0.00 dinheiros
retirar da poupanca 4498064.99 dinheiros
investir no CDB 4485945.40 dinheiros
retirar do CDB 0.00 dinheiros
investir nas acoes 0.00 dinheiros
retirar das acoes 0.00 dinheiros
Mes 4/2018:
investir na poupanca 0.00 dinheiros
retirar da poupanca 0.00 dinheiros
investir no CDB 0.00 dinheiros
retirar do CDB 8016961.83 dinheiros
investir nas acoes 8016885.92 dinheiros
retirar das acoes 0.00 dinheiros
Mes 5/2018:
investir na poupanca 0.00 dinheiros
retirar da poupanca 0.00 dinheiros
investir no CDB 15271113.73 dinheiros
retirar do CDB 0.00 dinheiros
investir nas acoes 0.00 dinheiros
retirar das acoes 15312252.12 dinheiros
Mes 6/2018:
investir na poupanca 0.00 dinheiros
retirar da poupanca 0.00 dinheiros
investir no CDB 0.00 dinheiros
retirar do CDB 28138161.03 dinheiros
investir nas acoes 28075459.44 dinheiros
retirar das acoes 0.00 dinheiros
Mes 7/2018:
investir na poupanca 0.00 dinheiros
retirar da poupanca 0.00 dinheiros
investir no CDB 36861552.59 dinheiros
retirar do CDB 0.00 dinheiros
investir nas acoes 0.00 dinheiros
retirar das acoes 36891153.71 dinheiros
Mes 8/2018:
investir na poupanca 0.00 dinheiros
retirar da poupanca 0.00 dinheiros
investir no CDB 0.00 dinheiros
retirar do CDB 63533.60 dinheiros
investir nas acoes 0.00 dinheiros
retirar das acoes 0.00 dinheiros
Mes 9/2018:
investir na poupanca 0.00 dinheiros
retirar da poupanca 0.00 dinheiros
investir no CDB 0.00 dinheiros
retirar do CDB 80340.94 dinheiros
investir nas acoes 0.00 dinheiros
retirar das acoes 0.00 dinheiros
Mes 10/2018:
investir na poupanca 0.00 dinheiros
retirar da poupanca 0.00 dinheiros
investir no CDB 0.00 dinheiros
retirar do CDB 160766858.02 dinheiros
investir nas acoes 160725593.57 dinheiros
retirar das acoes 0.00 dinheiros
Mes 11/2018:
investir na poupanca 0.00 dinheiros
retirar da poupanca 0.00 dinheiros
investir no CDB 0.00 dinheiros
retirar do CDB 0.00 dinheiros
investir nas acoes 0.00 dinheiros
retirar das acoes 93915.12 dinheiros
Mes 12/2018:
investir na poupanca 0.00 dinheiros
retirar da poupanca 0.00 dinheiros
investir no CDB 365418710.42 dinheiros
retirar do CDB 0.00 dinheiros
investir nas acoes 0.00 dinheiros
retirar das acoes 365431617.85 dinheiros
Mes 1/2019:
retirar da poupanca 0.00 dinheiros
retirar do CDB 51.72 dinheiros
retirar das acoes 0.00 dinheiros
saldo da heranca em 2019: 581015697.32 dinheiros
Caso 7:
Mes 1/2018:
investir na poupanca 0.00 dinheiros
retirar da poupanca 0.00 dinheiros
investir no CDB 1135747.46 dinheiros
retirar do CDB 0.00 dinheiros
investir nas acoes 0.00 dinheiros
retirar das acoes 0.00 dinheiros
Mes 2/2018:
investir na poupanca 1734257.95 dinheiros
retirar da poupanca 0.00 dinheiros
investir no CDB 0.00 dinheiros
retirar do CDB 1807722.19 dinheiros
investir nas acoes 0.00 dinheiros
retirar das acoes -0.00 dinheiros
Mes 3/2018:
investir na poupanca 0.00 dinheiros
retirar da poupanca 2123220.35 dinheiros
investir no CDB 0.00 dinheiros
retirar do CDB 0.00 dinheiros
investir nas acoes 2029843.32 dinheiros
retirar das acoes 0.00 dinheiros
Mes 4/2018:
investir na poupanca 0.00 dinheiros
retirar da poupanca 0.00 dinheiros
investir no CDB 3003154.31 dinheiros
retirar do CDB 0.00 dinheiros
investir nas acoes 0.00 dinheiros
retirar das acoes 3077242.47 dinheiros
Mes 5/2018:
investir na poupanca 5478531.20 dinheiros
retirar da poupanca 0.00 dinheiros
investir no CDB 0.00 dinheiros
retirar do CDB 5505297.43 dinheiros
investir nas acoes 0.00 dinheiros
retirar das acoes -0.00 dinheiros
Mes 6/2018:
investir na poupanca 0.00 dinheiros
retirar da poupanca 6707265.72 dinheiros
investir no CDB 6681477.85 dinheiros
retirar do CDB 0.00 dinheiros
investir nas acoes 0.00 dinheiros
retirar das acoes 0.00 dinheiros
Mes 7/2018:
investir na poupanca 0.00 dinheiros
retirar da poupanca 0.00 dinheiros
investir no CDB 0.00 dinheiros
retirar do CDB 82071.85 dinheiros
investir nas acoes 0.00 dinheiros
retirar das acoes 0.00 dinheiros
Mes 8/2018:
investir na poupanca 60305.49 dinheiros
retirar da poupanca 0.00 dinheiros
investir no CDB 0.00 dinheiros
retirar do CDB 22687069.87 dinheiros
investir nas acoes 22587910.26 dinheiros
retirar das acoes 0.00 dinheiros
Mes 9/2018:
investir na poupanca 0.00 dinheiros
retirar da poupanca 0.00 dinheiros
investir no CDB 29319578.57 dinheiros
retirar do CDB 0.00 dinheiros
investir nas acoes 0.00 dinheiros
retirar das acoes 29341695.43 dinheiros
Mes 10/2018:
investir na poupanca 0.00 dinheiros
retirar da poupanca 97530.63 dinheiros
investir no CDB 0.00 dinheiros
retirar do CDB 0.00 dinheiros
investir nas acoes 0.00 dinheiros
retirar das acoes 0.00 dinheiros
Mes 11/2018:
investir na poupanca 0.00 dinheiros
retirar da poupanca 0.00 dinheiros
investir no CDB 0.00 dinheiros
retirar do CDB 54836.37 dinheiros
investir nas acoes 0.00 dinheiros
retirar das acoes 0.00 dinheiros
Mes 12/2018:
investir na poupanca 109983312.54 dinheiros
retirar da poupanca 0.00 dinheiros
investir no CDB 0.00 dinheiros
retirar do CDB 110015096.84 dinheiros
investir nas acoes 0.00 dinheiros
retirar das acoes 0.00 dinheiros
Mes 1/2019:
retirar da poupanca 31.31 dinheiros
retirar do CDB 0.00 dinheiros
retirar das acoes 0.00 dinheiros
saldo da heranca em 2019: 145287922.09 dinheiros
Caso 8:
Mes 1/2018:
investir na poupanca 0.00 dinheiros
retirar da poupanca 0.00 dinheiros
investir no CDB 0.00 dinheiros
retirar do CDB 0.00 dinheiros
investir nas acoes 5027332.08 dinheiros
retirar das acoes 0.00 dinheiros
Mes 2/2018:
investir na poupanca 0.00 dinheiros
retirar da poupanca 0.00 dinheiros
investir no CDB 6905150.15 dinheiros
retirar do CDB 0.00 dinheiros
investir nas acoes 0.00 dinheiros
retirar das acoes 6932690.94 dinheiros
Mes 3/2018:
investir na poupanca 0.00 dinheiros
retirar da poupanca 0.00 dinheiros
investir no CDB 0.00 dinheiros
retirar do CDB 11636102.51 dinheiros
investir nas acoes 11575119.49 dinheiros
retirar das acoes 0.00 dinheiros
Mes 4/2018:
investir na poupanca 0.00 dinheiros
retirar da poupanca 0.00 dinheiros
investir no CDB 19561097.83 dinheiros
retirar do CDB 0.00 dinheiros
investir nas acoes 0.00 dinheiros
retirar das acoes 19654552.90 dinheiros
Mes 5/2018:
investir na poupanca 0.00 dinheiros
retirar da poupanca 0.00 dinheiros
investir no CDB 0.00 dinheiros
retirar do CDB 91115.21 dinheiros
investir nas acoes 0.00 dinheiros
retirar das acoes 0.00 dinheiros
Mes 6/2018:
investir na poupanca 0.00 dinheiros
retirar da poupanca 0.00 dinheiros
investir no CDB 0.00 dinheiros
retirar do CDB 33836.68 dinheiros
investir nas acoes 0.00 dinheiros
retirar das acoes 0.00 dinheiros
Mes 7/2018:
investir na poupanca 89362444.44 dinheiros
retirar da poupanca 0.00 dinheiros
investir no CDB 0.00 dinheiros
retirar do CDB 89377233.43 dinheiros
investir nas acoes 0.00 dinheiros
retirar das acoes 0.00 dinheiros
Mes 8/2018:
investir na poupanca 0.00 dinheiros
retirar da poupanca 103575159.26 dinheiros
investir no CDB 0.00 dinheiros
retirar do CDB 0.00 dinheiros
investir nas acoes 103550207.03 dinheiros
retirar das acoes 0.00 dinheiros
Mes 9/2018:
investir na poupanca 0.00 dinheiros
retirar da poupanca 0.00 dinheiros
investir no CDB 188986198.01 dinheiros
retirar do CDB 0.00 dinheiros
investir nas acoes 0.00 dinheiros
retirar das acoes 189082678.04 dinheiros
Mes 10/2018:
investir na poupanca 333120726.78 dinheiros
retirar da poupanca 0.00 dinheiros
investir no CDB 0.00 dinheiros
retirar do CDB 333125255.77 dinheiros
investir nas acoes 0.00 dinheiros
retirar das acoes 0.00 dinheiros
Mes 11/2018:
investir na poupanca 0.00 dinheiros
retirar da poupanca 386102154.49 dinheiros
investir no CDB 386051764.52 dinheiros
retirar do CDB 0.00 dinheiros
investir nas acoes 0.00 dinheiros
retirar das acoes 0.00 dinheiros
Mes 12/2018:
investir na poupanca 686883386.94 dinheiros
retirar da poupanca 0.00 dinheiros
investir no CDB 0.00 dinheiros
retirar do CDB 686908356.64 dinheiros
investir nas acoes 0.00 dinheiros
retirar das acoes 0.00 dinheiros
Mes 1/2019:
retirar da poupanca 94.07 dinheiros
retirar do CDB 0.00 dinheiros
retirar das acoes 0.00 dinheiros
saldo da heranca em 2019: 800905934.53 dinheiros
Caso 9:
Mes 1/2018:
investir na poupanca 0.00 dinheiros
retirar da poupanca 0.00 dinheiros
investir no CDB 0.00 dinheiros
retirar do CDB 0.00 dinheiros
investir nas acoes 1657215.96 dinheiros
retirar das acoes 0.00 dinheiros
Mes 2/2018:
investir na poupanca 3133486.37 dinheiros
retirar da poupanca 0.00 dinheiros
investir no CDB 0.00 dinheiros
retirar do CDB 0.00 dinheiros
investir nas acoes 0.00 dinheiros
retirar das acoes 3145395.89 dinheiros
Mes 3/2018:
investir na poupanca 0.00 dinheiros
retirar da poupanca 30648.60 dinheiros
investir no CDB 0.00 dinheiros
retirar do CDB 0.00 dinheiros
investir nas acoes 0.00 dinheiros
retirar das acoes 0.00 dinheiros
Mes 4/2018:
investir na poupanca 0.00 dinheiros
retirar da poupanca 32004.00 dinheiros
investir no CDB 0.00 dinheiros
retirar do CDB 0.00 dinheiros
investir nas acoes 0.00 dinheiros
retirar das acoes -0.00 dinheiros
Mes 5/2018:
investir na poupanca 0.00 dinheiros
retirar da poupanca 69438.45 dinheiros
investir no CDB 0.00 dinheiros
retirar do CDB 0.00 dinheiros
investir nas acoes 0.00 dinheiros
retirar das acoes 0.00 dinheiros
Mes 6/2018:
investir na poupanca 0.00 dinheiros
retirar da poupanca 12793.73 dinheiros
investir no CDB 0.00 dinheiros
retirar do CDB 0.00 dinheiros
investir nas acoes 0.00 dinheiros
retirar das acoes 0.00 dinheiros
Mes 7/2018:
investir na poupanca 0.00 dinheiros
retirar da poupanca 11548.06 dinheiros
investir no CDB -0.00 dinheiros
retirar do CDB 0.00 dinheiros
investir nas acoes 0.00 dinheiros
retirar das acoes 0.00 dinheiros
Mes 8/2018:
investir na poupanca 0.00 dinheiros
retirar da poupanca 52988.37 dinheiros
investir no CDB 0.00 dinheiros
retirar do CDB 0.00 dinheiros
investir nas acoes 0.00 dinheiros
retirar das acoes 0.00 dinheiros
Mes 9/2018:
investir na poupanca 0.00 dinheiros
retirar da poupanca 49484.41 dinheiros
investir no CDB 0.00 dinheiros
retirar do CDB 0.00 dinheiros
investir nas acoes 0.00 dinheiros
retirar das acoes 0.00 dinheiros
Mes 10/2018:
investir na poupanca 0.00 dinheiros
retirar da poupanca 73319.19 dinheiros
investir no CDB 0.00 dinheiros
retirar do CDB 0.00 dinheiros
investir nas acoes 0.00 dinheiros
retirar das acoes 0.00 dinheiros
Mes 11/2018:
investir na poupanca 0.00 dinheiros
retirar da poupanca 589.50 dinheiros
investir no CDB 0.00 dinheiros
retirar do CDB 0.00 dinheiros
investir nas acoes 0.00 dinheiros
retirar das acoes 0.00 dinheiros
Mes 12/2018:
investir na poupanca 0.00 dinheiros
retirar da poupanca 54246.69 dinheiros
investir no CDB 0.00 dinheiros
retirar do CDB 0.00 dinheiros
investir nas acoes 0.00 dinheiros
retirar das acoes 0.00 dinheiros
Mes 1/2019:
retirar da poupanca 14.82 dinheiros
retirar do CDB 0.00 dinheiros
retirar das acoes 0.00 dinheiros
saldo da heranca em 2019: 2020608643.61 dinheiros
Caso 10:
Mes 1/2018:
investir na poupanca 0.00 dinheiros
retirar da poupanca 0.00 dinheiros
investir no CDB 1070331.40 dinheiros
retirar do CDB 0.00 dinheiros
investir nas acoes 0.00 dinheiros
retirar das acoes 0.00 dinheiros
Mes 2/2018:
investir na poupanca 0.00 dinheiros
retirar da poupanca 0.00 dinheiros
investir no CDB 0.00 dinheiros
retirar do CDB 1702844.88 dinheiros
investir nas acoes 1675972.88 dinheiros
retirar das acoes 0.00 dinheiros
Mes 3/2018:
investir na poupanca 0.00 dinheiros
retirar da poupanca 0.00 dinheiros
investir no CDB 3306086.73 dinheiros
retirar do CDB 0.00 dinheiros
investir nas acoes 0.00 dinheiros
retirar das acoes 3331834.08 dinheiros
Mes 4/2018:
investir na poupanca 0.00 dinheiros
retirar da poupanca 0.00 dinheiros
investir no CDB 0.00 dinheiros
retirar do CDB 5824573.85 dinheiros
investir nas acoes 5764598.14 dinheiros
retirar das acoes 0.00 dinheiros
Mes 5/2018:
investir na poupanca 0.00 dinheiros
retirar da poupanca 0.00 dinheiros
investir no CDB 11068567.39 dinheiros
retirar do CDB 0.00 dinheiros
investir nas acoes 0.00 dinheiros
retirar das acoes 11102616.02 dinheiros
Mes 6/2018:
investir na poupanca 0.00 dinheiros
retirar da poupanca 0.00 dinheiros
investir no CDB 0.00 dinheiros
retirar do CDB 6430.07 dinheiros
investir nas acoes 0.00 dinheiros
retirar das acoes 0.00 dinheiros
Mes 7/2018:
investir na poupanca -0.00 dinheiros
retirar da poupanca 0.00 dinheiros
investir no CDB 0.00 dinheiros
retirar do CDB 122075.83 dinheiros
investir nas acoes 32401.59 dinheiros
retirar das acoes 0.00 dinheiros
Mes 8/2018:
investir na poupanca 0.00 dinheiros
retirar da poupanca 0.00 dinheiros
investir no CDB 0.00 dinheiros
retirar do CDB 0.00 dinheiros
investir nas acoes 0.00 dinheiros
retirar das acoes 63345.10 dinheiros
Mes 9/2018:
investir na poupanca -0.00 dinheiros
retirar da poupanca 0.00 dinheiros
investir no CDB 0.00 dinheiros
retirar do CDB 82114.76 dinheiros
investir nas acoes 0.00 dinheiros
retirar das acoes -0.00 dinheiros
Mes 10/2018:
investir na poupanca 0.00 dinheiros
retirar da poupanca 0.00 dinheiros
investir no CDB 0.00 dinheiros
retirar do CDB 25982.89 dinheiros
investir nas acoes 0.00 dinheiros
retirar das acoes 0.00 dinheiros
Mes 11/2018:
investir na poupanca 0.00 dinheiros
retirar da poupanca 0.00 dinheiros
investir no CDB 0.00 dinheiros
retirar do CDB 92279.37 dinheiros
investir nas acoes 0.00 dinheiros
retirar das acoes 0.00 dinheiros
Mes 12/2018:
investir na poupanca 0.00 dinheiros
retirar da poupanca 0.00 dinheiros
investir no CDB 0.00 dinheiros
retirar do CDB 74276.96 dinheiros
investir nas acoes 0.00 dinheiros
retirar das acoes 0.00 dinheiros
Mes 1/2019:
retirar da poupanca 0.00 dinheiros
retirar do CDB 66.54 dinheiros
retirar das acoes 0.00 dinheiros
saldo da heranca em 2019: 1252077267.81 dinheiros
Caso 11:
Mes 1/2018:
investir na poupanca 5147908.58 dinheiros
retirar da poupanca 0.00 dinheiros
investir no CDB 0.00 dinheiros
retirar do CDB 0.00 dinheiros
investir nas acoes 0.00 dinheiros
retirar das acoes 0.00 dinheiros
Mes 2/2018:
investir na poupanca 0.00 dinheiros
retirar da poupanca 2152.51 dinheiros
investir no CDB 0.00 dinheiros
retirar do CDB 0.00 dinheiros
investir nas acoes 0.00 dinheiros
retirar das acoes 0.00 dinheiros
Mes 3/2018:
investir na poupanca 0.00 dinheiros
retirar da poupanca 119471.14 dinheiros
investir no CDB 31295.97 dinheiros
retirar do CDB 0.00 dinheiros
investir nas acoes 0.00 dinheiros
retirar das acoes 0.00 dinheiros
Mes 4/2018:
investir na poupanca 0.00 dinheiros
retirar da poupanca 0.00 dinheiros
investir no CDB 0.00 dinheiros
retirar do CDB 57420.28 dinheiros
investir nas acoes 0.00 dinheiros
retirar das acoes 0.00 dinheiros
Mes 5/2018:
investir na poupanca 0.00 dinheiros
retirar da poupanca 59567.78 dinheiros
investir no CDB 0.00 dinheiros
retirar do CDB 0.00 dinheiros
investir nas acoes 0.00 dinheiros
retirar das acoes 0.00 dinheiros
Mes 6/2018:
investir na poupanca 0.00 dinheiros
retirar da poupanca 92707.34 dinheiros
investir no CDB 43498.20 dinheiros
retirar do CDB 0.00 dinheiros
investir nas acoes 0.00 dinheiros
retirar das acoes 0.00 dinheiros
Mes 7/2018:
investir na poupanca 0.00 dinheiros
retirar da poupanca 0.00 dinheiros
investir no CDB 0.00 dinheiros
retirar do CDB 70987.06 dinheiros
investir nas acoes 0.00 dinheiros
retirar das acoes 0.00 dinheiros
Mes 8/2018:
investir na poupanca 0.00 dinheiros
retirar da poupanca 0.00 dinheiros
investir no CDB 0.00 dinheiros
retirar do CDB 16457.87 dinheiros
investir nas acoes 0.00 dinheiros
retirar das acoes 0.00 dinheiros
Mes 9/2018:
investir na poupanca 0.00 dinheiros
retirar da poupanca 62307.27 dinheiros
investir no CDB 0.00 dinheiros
retirar do CDB 0.00 dinheiros
investir nas acoes 0.00 dinheiros
retirar das acoes 0.00 dinheiros
Mes 10/2018:
investir na poupanca 0.00 dinheiros
retirar da poupanca 63033.06 dinheiros
investir no CDB 0.00 dinheiros
retirar do CDB 0.00 dinheiros
investir nas acoes 0.00 dinheiros
retirar das acoes 0.00 dinheiros
Mes 11/2018:
investir na poupanca 0.00 dinheiros
retirar da poupanca 66567.13 dinheiros
investir no CDB 0.00 dinheiros
retirar do CDB 0.00 dinheiros
investir nas acoes 0.00 dinheiros
retirar das acoes 0.00 dinheiros
Mes 12/2018:
investir na poupanca 0.00 dinheiros
retirar da poupanca 9711.10 dinheiros
investir no CDB 0.00 dinheiros
retirar do CDB 0.00 dinheiros
investir nas acoes 0.00 dinheiros
retirar das acoes 0.00 dinheiros
Mes 1/2019:
retirar da poupanca 5.58 dinheiros
retirar do CDB 0.00 dinheiros
retirar das acoes 0.00 dinheiros
saldo da heranca em 2019: 6177683563.40 dinheiros
Caso 12:
Mes 1/2018:
investir na poupanca 0.00 dinheiros
retirar da poupanca 0.00 dinheiros
investir no CDB -0.00 dinheiros
retirar do CDB 0.00 dinheiros
investir nas acoes 115569.26 dinheiros
retirar das acoes 0.00 dinheiros
Mes 2/2018:
investir na poupanca 172600.09 dinheiros
retirar da poupanca 0.00 dinheiros
investir no CDB 0.00 dinheiros
retirar do CDB 0.00 dinheiros
investir nas acoes 0.00 dinheiros
retirar das acoes 212416.30 dinheiros
Mes 3/2018:
investir na poupanca 0.00 dinheiros
retirar da poupanca 272017.74 dinheiros
investir no CDB 221722.36 dinheiros
retirar do CDB 0.00 dinheiros
investir nas acoes 0.00 dinheiros
retirar das acoes 0.00 dinheiros
Mes 4/2018:
investir na poupanca -0.00 dinheiros
retirar da poupanca 0.00 dinheiros
investir no CDB 0.00 dinheiros
retirar do CDB 88443.36 dinheiros
investir nas acoes 0.00 dinheiros
retirar das acoes 0.00 dinheiros
Mes 5/2018:
investir na poupanca 0.00 dinheiros
retirar da poupanca 0.00 dinheiros
investir no CDB 0.00 dinheiros
retirar do CDB 441193.05 dinheiros
investir nas acoes 395418.14 dinheiros
retirar das acoes 0.00 dinheiros
Mes 6/2018:
investir na poupanca 0.00 dinheiros
retirar da poupanca 0.00 dinheiros
investir no CDB 671799.23 dinheiros
retirar do CDB 0.00 dinheiros
investir nas acoes 0.00 dinheiros
retirar das acoes 767111.18 dinheiros
Mes 7/2018:
investir na poupanca 1088993.48 dinheiros
retirar da poupanca 0.00 dinheiros
investir no CDB 0.00 dinheiros
retirar do CDB 1105695.25 dinheiros
investir nas acoes -0.00 dinheiros
retirar das acoes 0.00 dinheiros
Mes 8/2018:
investir na poupanca 0.00 dinheiros
retirar da poupanca 1716253.72 dinheiros
investir no CDB 0.00 dinheiros
retirar do CDB 0.00 dinheiros
investir nas acoes 1697648.96 dinheiros
retirar das acoes 0.00 dinheiros
Mes 9/2018:
investir na poupanca 2668345.67 dinheiros
retirar da poupanca 0.00 dinheiros
investir no CDB -0.00 dinheiros
retirar do CDB 0.00 dinheiros
investir nas acoes 0.00 dinheiros
retirar das acoes 2706052.45 dinheiros
Mes 10/2018:
investir na poupanca 0.00 dinheiros
retirar da poupanca 54097.40 dinheiros
investir no CDB 0.00 dinheiros
retirar do CDB 0.00 dinheiros
investir nas acoes 0.00 dinheiros
retirar das acoes 0.00 dinheiros
Mes 11/2018:
investir na poupanca 0.00 dinheiros
retirar da poupanca 90901.21 dinheiros
investir no CDB 0.00 dinheiros
retirar do CDB 0.00 dinheiros
investir nas acoes 0.00 dinheiros
retirar das acoes 0.00 dinheiros
Mes 12/2018:
investir na poupanca 0.00 dinheiros
retirar da poupanca 56650.26 dinheiros
investir no CDB 0.00 dinheiros
retirar do CDB 0.00 dinheiros
investir nas acoes 0.00 dinheiros
retirar das acoes 0.00 dinheiros
Mes 1/2019:
retirar da poupanca 77.92 dinheiros
retirar do CDB 0.00 dinheiros
retirar das acoes 0.00 dinheiros
saldo da heranca em 2019: 15934509.08 dinheiros
Caso 13:
Mes 1/2018:
investir na poupanca 6873342.89 dinheiros
retirar da poupanca 0.00 dinheiros
investir no CDB 0.00 dinheiros
retirar do CDB 0.00 dinheiros
investir nas acoes 0.00 dinheiros
retirar das acoes 0.00 dinheiros
Mes 2/2018:
investir na poupanca 0.00 dinheiros
retirar da poupanca 57576.15 dinheiros
investir no CDB 0.00 dinheiros
retirar do CDB 0.00 dinheiros
investir nas acoes 0.00 dinheiros
retirar das acoes 0.00 dinheiros
Mes 3/2018:
investir na poupanca 0.00 dinheiros
retirar da poupanca 3935.33 dinheiros
investir no CDB 0.00 dinheiros
retirar do CDB 0.00 dinheiros
investir nas acoes 0.00 dinheiros
retirar das acoes 0.00 dinheiros
Mes 4/2018:
investir na poupanca 0.00 dinheiros
retirar da poupanca 6711.77 dinheiros
investir no CDB 0.00 dinheiros
retirar do CDB 0.00 dinheiros
investir nas acoes 0.00 dinheiros
retirar das acoes 0.00 dinheiros
Mes 5/2018:
investir na poupanca 0.00 dinheiros
retirar da poupanca 66158.58 dinheiros
investir no CDB 0.00 dinheiros
retirar do CDB 0.00 dinheiros
investir nas acoes 0.00 dinheiros
retirar das acoes 0.00 dinheiros
Mes 6/2018:
investir na poupanca 0.00 dinheiros
retirar da poupanca 30185.07 dinheiros
investir no CDB 0.00 dinheiros
retirar do CDB 0.00 dinheiros
investir nas acoes 0.00 dinheiros
retirar das acoes 0.00 dinheiros
Mes 7/2018:
investir na poupanca 0.00 dinheiros
retirar da poupanca 46913.87 dinheiros
investir no CDB 0.00 dinheiros
retirar do CDB 0.00 dinheiros
investir nas acoes 0.00 dinheiros
retirar das acoes 0.00 dinheiros
Mes 8/2018:
investir na poupanca 0.00 dinheiros
retirar da poupanca 48875.37 dinheiros
investir no CDB 0.00 dinheiros
retirar do CDB 0.00 dinheiros
investir nas acoes 0.00 dinheiros
retirar das acoes 0.00 dinheiros
Mes 9/2018:
investir na poupanca 0.00 dinheiros
retirar da poupanca 32721.39 dinheiros
investir no CDB 0.00 dinheiros
retirar do CDB 0.00 dinheiros
investir nas acoes 0.00 dinheiros
retirar das acoes 0.00 dinheiros
Mes 10/2018:
investir na poupanca 0.00 dinheiros
retirar da poupanca 37694.28 dinheiros
investir no CDB 0.00 dinheiros
retirar do CDB 0.00 dinheiros
investir nas acoes 0.00 dinheiros
retirar das acoes 0.00 dinheiros
Mes 11/2018:
investir na poupanca 0.00 dinheiros
retirar da poupanca 10391.54 dinheiros
investir no CDB 0.00 dinheiros
retirar do CDB 0.00 dinheiros
investir nas acoes 0.00 dinheiros
retirar das acoes 0.00 dinheiros
Mes 12/2018:
investir na poupanca 0.00 dinheiros
retirar da poupanca 68792.68 dinheiros
investir no CDB 0.00 dinheiros
retirar do CDB 0.00 dinheiros
investir nas acoes 0.00 dinheiros
retirar das acoes 0.00 dinheiros
Mes 1/2019:
retirar da poupanca 32.91 dinheiros
retirar do CDB 0.00 dinheiros
retirar das acoes 0.00 dinheiros
saldo da heranca em 2019: 19056386433.23 dinheiros
Caso 14:
Mes 1/2018:
investir na poupanca 5159268.24 dinheiros
retirar da poupanca 0.00 dinheiros
investir no CDB 0.00 dinheiros
retirar do CDB 0.00 dinheiros
investir nas acoes 0.00 dinheiros
retirar das acoes 0.00 dinheiros
Mes 2/2018:
investir na poupanca 0.00 dinheiros
retirar da poupanca 21574.09 dinheiros
investir no CDB 0.00 dinheiros
retirar do CDB 0.00 dinheiros
investir nas acoes 0.00 dinheiros
retirar das acoes 0.00 dinheiros
Mes 3/2018:
investir na poupanca 0.00 dinheiros
retirar da poupanca 17395.09 dinheiros
investir no CDB 0.00 dinheiros
retirar do CDB 0.00 dinheiros
investir nas acoes 0.00 dinheiros
retirar das acoes 0.00 dinheiros
Mes 4/2018:
investir na poupanca 0.00 dinheiros
retirar da poupanca 66069.29 dinheiros
investir no CDB 0.00 dinheiros
retirar do CDB 0.00 dinheiros
investir nas acoes 0.00 dinheiros
retirar das acoes 0.00 dinheiros
Mes 5/2018:
investir na poupanca 0.00 dinheiros
retirar da poupanca 31547.05 dinheiros
investir no CDB 0.00 dinheiros
retirar do CDB 0.00 dinheiros
investir nas acoes 0.00 dinheiros
retirar das acoes 0.00 dinheiros
Mes 6/2018:
investir na poupanca 0.00 dinheiros
retirar da poupanca 2643.39 dinheiros
investir no CDB 0.00 dinheiros
retirar do CDB 0.00 dinheiros
investir nas acoes 0.00 dinheiros
retirar das acoes 0.00 dinheiros
Mes 7/2018:
investir na poupanca 0.00 dinheiros
retirar da poupanca 95040.37 dinheiros
investir no CDB 0.00 dinheiros
retirar do CDB 0.00 dinheiros
investir nas acoes 0.00 dinheiros
retirar das acoes 0.00 dinheiros
Mes 8/2018:
investir na poupanca 0.00 dinheiros
retirar da poupanca 98113.36 dinheiros
investir no CDB 0.00 dinheiros
retirar do CDB 0.00 dinheiros
investir nas acoes 0.00 dinheiros
retirar das acoes 0.00 dinheiros
Mes 9/2018:
investir na poupanca 0.00 dinheiros
retirar da poupanca 59056.00 dinheiros
investir no CDB 0.00 dinheiros
retirar do CDB 0.00 dinheiros
investir nas acoes 0.00 dinheiros
retirar das acoes 0.00 dinheiros
Mes 10/2018:
investir na poupanca 0.00 dinheiros
retirar da poupanca 98721.72 dinheiros
investir no CDB 0.00 dinheiros
retirar do CDB 0.00 dinheiros
investir nas acoes 0.00 dinheiros
retirar das acoes 0.00 dinheiros
Mes 11/2018:
investir na poupanca 0.00 dinheiros
retirar da poupanca 57809.86 dinheiros
investir no CDB 0.00 dinheiros
retirar do CDB 0.00 dinheiros
investir nas acoes 0.00 dinheiros
retirar das acoes 0.00 dinheiros
Mes 12/2018:
investir na poupanca 0.00 dinheiros
retirar da poupanca 6192.77 dinheiros
investir no CDB 0.00 dinheiros
retirar do CDB 0.00 dinheiros
investir nas acoes 0.00 dinheiros
retirar das acoes 0.00 dinheiros
Mes 1/2019:
retirar da poupanca 21.74 dinheiros
retirar do CDB 0.00 dinheiros
retirar das acoes 0.00 dinheiros
saldo da heranca em 2019: 16791770677.77 dinheiros
Caso 15:
Mes 1/2018:
investir na poupanca 0.00 dinheiros
retirar da poupanca 0.00 dinheiros
investir no CDB 4270403.14 dinheiros
retirar do CDB 0.00 dinheiros
investir nas acoes 0.00 dinheiros
retirar das acoes 0.00 dinheiros
Mes 2/2018:
investir na poupanca 0.00 dinheiros
retirar da poupanca 0.00 dinheiros
investir no CDB 0.00 dinheiros
retirar do CDB 21115.04 dinheiros
investir nas acoes 0.00 dinheiros
retirar das acoes -0.00 dinheiros
Mes 3/2018:
investir na poupanca 0.00 dinheiros
retirar da poupanca 0.00 dinheiros
investir no CDB 0.00 dinheiros
retirar do CDB 84424.45 dinheiros
investir nas acoes 0.00 dinheiros
retirar das acoes -0.00 dinheiros
Mes 4/2018:
investir na poupanca -0.00 dinheiros
retirar da poupanca 0.00 dinheiros
investir no CDB 0.00 dinheiros
retirar do CDB 19286.60 dinheiros
investir nas acoes 0.00 dinheiros
retirar das acoes 0.00 dinheiros
Mes 5/2018:
investir na poupanca 0.00 dinheiros
retirar da poupanca 0.00 dinheiros
investir no CDB 0.00 dinheiros
retirar do CDB 17377.84 dinheiros
investir nas acoes 0.00 dinheiros
retirar das acoes 0.00 dinheiros
Mes 6/2018:
investir na poupanca 49692513.68 dinheiros
retirar da poupanca 0.00 dinheiros
investir no CDB 0.00 dinheiros
retirar do CDB 49706800.68 dinheiros
investir nas acoes 0.00 dinheiros
retirar das acoes 0.00 dinheiros
Mes 7/2018:
investir na poupanca 0.00 dinheiros
retirar da poupanca 78525.42 dinheiros
investir no CDB 0.00 dinheiros
retirar do CDB 0.00 dinheiros
investir nas acoes 0.00 dinheiros
retirar das acoes 0.00 dinheiros
Mes 8/2018:
investir na poupanca 0.00 dinheiros
retirar da poupanca 78646852.94 dinheiros
investir no CDB 78547706.99 dinheiros
retirar do CDB 0.00 dinheiros
investir nas acoes 0.00 dinheiros
retirar das acoes 0.00 dinheiros
Mes 9/2018:
investir na poupanca 0.00 dinheiros
retirar da poupanca 0.00 dinheiros
investir no CDB 0.00 dinheiros
retirar do CDB 92687.70 dinheiros
investir nas acoes 0.00 dinheiros
retirar das acoes 0.00 dinheiros
Mes 10/2018:
investir na poupanca 0.00 dinheiros
retirar da poupanca 0.00 dinheiros
investir no CDB 0.00 dinheiros
retirar do CDB 170174144.41 dinheiros
investir nas acoes 170128173.44 dinheiros
retirar das acoes 0.00 dinheiros
Mes 11/2018:
investir na poupanca 0.00 dinheiros
retirar da poupanca 0.00 dinheiros
investir no CDB 277640838.05 dinheiros
retirar do CDB 0.00 dinheiros
investir nas acoes 0.00 dinheiros
retirar das acoes 277649179.05 dinheiros
Mes 12/2018:
investir na poupanca 0.00 dinheiros
retirar da poupanca 0.00 dinheiros
investir no CDB 0.00 dinheiros
retirar do CDB 518173910.24 dinheiros
investir nas acoes 518101906.27 dinheiros
retirar das acoes 0.00 dinheiros
Mes 1/2019:
retirar da poupanca 0.00 dinheiros
retirar do CDB 0.00 dinheiros
retirar das acoes 92.70 dinheiros
saldo da heranca em 2019: 954343618.65 dinheiros
Caso 16:
Mes 1/2018:
investir na poupanca 4469797.56 dinheiros
retirar da poupanca 0.00 dinheiros
investir no CDB 0.00 dinheiros
retirar do CDB 0.00 dinheiros
investir nas acoes 0.00 dinheiros
retirar das acoes 0.00 dinheiros
Mes 2/2018:
investir na poupanca 0.00 dinheiros
retirar da poupanca 7338.06 dinheiros
investir no CDB 0.00 dinheiros
retirar do CDB 0.00 dinheiros
investir nas acoes -0.00 dinheiros
retirar das acoes 0.00 dinheiros
Mes 3/2018:
investir na poupanca 0.00 dinheiros
retirar da poupanca 45668.13 dinheiros
investir no CDB 0.00 dinheiros
retirar do CDB 0.00 dinheiros
investir nas acoes 33547.70 dinheiros
retirar das acoes 0.00 dinheiros
Mes 4/2018:
investir na poupanca 0.00 dinheiros
retirar da poupanca 0.00 dinheiros
investir no CDB 0.00 dinheiros
retirar do CDB 0.00 dinheiros
investir nas acoes 0.00 dinheiros
retirar das acoes 48407.59 dinheiros
Mes 5/2018:
investir na poupanca 0.00 dinheiros
retirar da poupanca 0.00 dinheiros
investir no CDB 0.00 dinheiros
retirar do CDB 0.00 dinheiros
investir nas acoes 0.00 dinheiros
retirar das acoes 36466.09 dinheiros
Mes 6/2018:
investir na poupanca 0.00 dinheiros
retirar da poupanca 94078.70 dinheiros
investir no CDB 0.00 dinheiros
retirar do CDB 0.00 dinheiros
investir nas acoes 0.00 dinheiros
retirar das acoes 0.00 dinheiros
Mes 7/2018:
investir na poupanca 0.00 dinheiros
retirar da poupanca 62791.39 dinheiros
investir no CDB 0.00 dinheiros
retirar do CDB 0.00 dinheiros
investir nas acoes 0.00 dinheiros
retirar das acoes 0.00 dinheiros
Mes 8/2018:
investir na poupanca 0.00 dinheiros
retirar da poupanca 64510.84 dinheiros
investir no CDB 0.00 dinheiros
retirar do CDB 0.00 dinheiros
investir nas acoes -0.00 dinheiros
retirar das acoes 0.00 dinheiros
Mes 9/2018:
investir na poupanca 0.00 dinheiros
retirar da poupanca 7546.07 dinheiros
investir no CDB 0.00 dinheiros
retirar do CDB 0.00 dinheiros
investir nas acoes 0.00 dinheiros
retirar das acoes 0.00 dinheiros
Mes 10/2018:
investir na poupanca 0.00 dinheiros
retirar da poupanca 73037.39 dinheiros
investir no CDB 0.00 dinheiros
retirar do CDB 0.00 dinheiros
investir nas acoes 0.00 dinheiros
retirar das acoes 0.00 dinheiros
Mes 11/2018:
investir na poupanca 0.00 dinheiros
retirar da poupanca 34769.51 dinheiros
investir no CDB 0.00 dinheiros
retirar do CDB 0.00 dinheiros
investir nas acoes 0.00 dinheiros
retirar das acoes 0.00 dinheiros
Mes 12/2018:
investir na poupanca 0.00 dinheiros
retirar da poupanca 92668.69 dinheiros
investir no CDB 0.00 dinheiros
retirar do CDB 0.00 dinheiros
investir nas acoes 0.00 dinheiros
retirar das acoes 0.00 dinheiros
Mes 1/2019:
retirar da poupanca 43.68 dinheiros
retirar do CDB 0.00 dinheiros
retirar das acoes 0.00 dinheiros
saldo da heranca em 2019: 16749765945.00 dinheiros
Caso 17:
Mes 1/2018:
investir na poupanca 0.00 dinheiros
retirar da poupanca 0.00 dinheiros
investir no CDB 0.00 dinheiros
retirar do CDB 0.00 dinheiros
investir nas acoes 8792149.86 dinheiros
retirar das acoes 0.00 dinheiros
Mes 2/2018:
investir na poupanca 0.00 dinheiros
retirar da poupanca 0.00 dinheiros
investir no CDB 0.00 dinheiros
retirar do CDB 0.00 dinheiros
investir nas acoes 0.00 dinheiros
retirar das acoes 53648.13 dinheiros
Mes 3/2018:
investir na poupanca 0.00 dinheiros
retirar da poupanca 0.00 dinheiros
investir no CDB 0.00 dinheiros
retirar do CDB 0.00 dinheiros
investir nas acoes 0.00 dinheiros
retirar das acoes 25453.27 dinheiros
Mes 4/2018:
investir na poupanca 0.00 dinheiros
retirar da poupanca 0.00 dinheiros
investir no CDB 43085976.90 dinheiros
retirar do CDB 0.00 dinheiros
investir nas acoes 0.00 dinheiros
retirar das acoes 43137494.70 dinheiros
Mes 5/2018:
investir na poupanca 0.00 dinheiros
retirar da poupanca 0.00 dinheiros
investir no CDB 0.00 dinheiros
retirar do CDB 61655.24 dinheiros
investir nas acoes 0.00 dinheiros
retirar das acoes 0.00 dinheiros
Mes 6/2018:
investir na poupanca 123385874.10 dinheiros
retirar da poupanca 0.00 dinheiros
investir no CDB 0.00 dinheiros
retirar do CDB 123405743.20 dinheiros
investir nas acoes 0.00 dinheiros
retirar das acoes 0.00 dinheiros
Mes 7/2018:
investir na poupanca 0.00 dinheiros
retirar da poupanca 175300391.74 dinheiros
investir no CDB 0.00 dinheiros
retirar do CDB 0.00 dinheiros
investir nas acoes 175209667.67 dinheiros
retirar das acoes 0.00 dinheiros
Mes 8/2018:
investir na poupanca 290730753.72 dinheiros
retirar da poupanca 0.00 dinheiros
investir no CDB 32421.39 dinheiros
retirar do CDB 0.00 dinheiros
investir nas acoes 0.00 dinheiros
retirar das acoes 290848048.33 dinheiros
Mes 9/2018:
investir na poupanca 0.00 dinheiros
retirar da poupanca 0.00 dinheiros
investir no CDB 0.00 dinheiros
retirar do CDB 47634.73 dinheiros
investir nas acoes 0.00 dinheiros
retirar das acoes 0.00 dinheiros
Mes 10/2018:
investir na poupanca 0.00 dinheiros
retirar da poupanca 610909097.65 dinheiros
investir no CDB 0.00 dinheiros
retirar do CDB 0.00 dinheiros
investir nas acoes 610872400.73 dinheiros
retirar das acoes 0.00 dinheiros
Mes 11/2018:
investir na poupanca 1106854725.43 dinheiros
retirar da poupanca 0.00 dinheiros
investir no CDB 0.00 dinheiros
retirar do CDB 0.00 dinheiros
investir nas acoes 0.00 dinheiros
retirar das acoes 1106900790.12 dinheiros
Mes 12/2018:
investir na poupanca 0.00 dinheiros
retirar da poupanca 1572563053.71 dinheiros
investir no CDB 1572498871.47 dinheiros
retirar do CDB 0.00 dinheiros
investir nas acoes 0.00 dinheiros
retirar das acoes 0.00 dinheiros
Mes 1/2019:
retirar da poupanca 0.00 dinheiros
retirar do CDB 31.54 dinheiros
retirar das acoes 0.00 dinheiros
saldo da heranca em 2019: 3124555223.27 dinheiros
Caso 18:
Mes 1/2018:
investir na poupanca 0.00 dinheiros
retirar da poupanca 0.00 dinheiros
investir no CDB 5360990.35 dinheiros
retirar do CDB 0.00 dinheiros
investir nas acoes 0.00 dinheiros
retirar das acoes 0.00 dinheiros
Mes 2/2018:
investir na poupanca 10490934.06 dinheiros
retirar da poupanca 0.00 dinheiros
investir no CDB 0.00 dinheiros
retirar do CDB 10534346.04 dinheiros
investir nas acoes 0.00 dinheiros
retirar das acoes 0.00 dinheiros
Mes 3/2018:
investir na poupanca 0.00 dinheiros
retirar da poupanca 16450281.21 dinheiros
investir no CDB 16406738.70 dinheiros
retirar do CDB 0.00 dinheiros
investir nas acoes 0.00 dinheiros
retirar das acoes 0.00 dinheiros
Mes 4/2018:
investir na poupanca 29078579.80 dinheiros
retirar da poupanca 0.00 dinheiros
investir no CDB 0.00 dinheiros
retirar do CDB 29105554.46 dinheiros
investir nas acoes 0.00 dinheiros
retirar das acoes 0.00 dinheiros
Mes 5/2018:
investir na poupanca 0.00 dinheiros
retirar da poupanca 78194.49 dinheiros
investir no CDB 0.00 dinheiros
retirar do CDB 0.00 dinheiros
investir nas acoes 0.00 dinheiros
retirar das acoes 0.00 dinheiros
Mes 6/2018:
investir na poupanca 0.00 dinheiros
retirar da poupanca 72374248.27 dinheiros
investir no CDB 0.00 dinheiros
retirar do CDB 0.00 dinheiros
investir nas acoes 72279372.01 dinheiros
retirar das acoes 0.00 dinheiros
Mes 7/2018:
investir na poupanca 0.00 dinheiros
retirar da poupanca 0.00 dinheiros
investir no CDB 142740543.22 dinheiros
retirar do CDB 0.00 dinheiros
investir nas acoes 0.00 dinheiros
retirar das acoes 142824039.10 dinheiros
Mes 8/2018:
investir na poupanca 0.00 dinheiros
retirar da poupanca 0.00 dinheiros
investir no CDB 0.00 dinheiros
retirar do CDB 225815539.37 dinheiros
investir nas acoes 225716480.79 dinheiros
retirar das acoes 0.00 dinheiros
Mes 9/2018:
investir na poupanca 0.00 dinheiros
retirar da poupanca 0.00 dinheiros
investir no CDB 0.00 dinheiros
retirar do CDB 0.00 dinheiros
investir nas acoes 0.00 dinheiros
retirar das acoes 41619.80 dinheiros
Mes 10/2018:
investir na poupanca 614056282.40 dinheiros
retirar da poupanca 0.00 dinheiros
investir no CDB 0.00 dinheiros
retirar do CDB 0.00 dinheiros
investir nas acoes 0.00 dinheiros
retirar das acoes 614073032.13 dinheiros
Mes 11/2018:
investir na poupanca 0.00 dinheiros
retirar da poupanca 962869318.55 dinheiros
investir no CDB 0.00 dinheiros
retirar do CDB 0.00 dinheiros
investir nas acoes 962821153.25 dinheiros
retirar das acoes 0.00 dinheiros
Mes 12/2018:
investir na poupanca 1757119309.24 dinheiros
retirar da poupanca 0.00 dinheiros
investir no CDB 0.00 dinheiros
retirar do CDB 0.00 dinheiros
investir nas acoes 0.00 dinheiros
retirar das acoes 1757148604.68 dinheiros
Mes 1/2019:
retirar da poupanca 32.60 dinheiros
retirar do CDB 0.00 dinheiros
retirar das acoes 0.00 dinheiros
saldo da heranca em 2019: 2793819668.64 dinheiros
Caso 19:
Mes 1/2018:
investir na poupanca 0.00 dinheiros
retirar da poupanca 0.00 dinheiros
investir no CDB 0.00 dinheiros
retirar do CDB 0.00 dinheiros
investir nas acoes 4767862.62 dinheiros
retirar das acoes 0.00 dinheiros
Mes 2/2018:
investir na poupanca 9058489.67 dinheiros
retirar da poupanca 0.00 dinheiros
investir no CDB 0.00 dinheiros
retirar do CDB 0.00 dinheiros
investir nas acoes 0.00 dinheiros
retirar das acoes 9087546.15 dinheiros
Mes 3/2018:
investir na poupanca 0.00 dinheiros
retirar da poupanca 12158.37 dinheiros
investir no CDB 0.00 dinheiros
retirar do CDB 0.00 dinheiros
investir nas acoes 0.00 dinheiros
retirar das acoes 0.00 dinheiros
Mes 4/2018:
investir na poupanca 0.00 dinheiros
retirar da poupanca 23535632.91 dinheiros
investir no CDB 23456810.53 dinheiros
retirar do CDB 0.00 dinheiros
investir nas acoes 0.00 dinheiros
retirar das acoes 0.00 dinheiros
Mes 5/2018:
investir na poupanca 0.00 dinheiros
retirar da poupanca 0.00 dinheiros
investir no CDB 0.00 dinheiros
retirar do CDB 1094.00 dinheiros
investir nas acoes 0.00 dinheiros
retirar das acoes 0.00 dinheiros
Mes 6/2018:
investir na poupanca 0.00 dinheiros
retirar da poupanca 0.00 dinheiros
investir no CDB 0.00 dinheiros
retirar do CDB 56681.34 dinheiros
investir nas acoes 0.00 dinheiros
retirar das acoes 0.00 dinheiros
Mes 7/2018:
investir na poupanca 119145576.54 dinheiros
retirar da poupanca 0.00 dinheiros
investir no CDB 0.00 dinheiros
retirar do CDB 119165876.58 dinheiros
investir nas acoes 0.00 dinheiros
retirar das acoes 0.00 dinheiros
Mes 8/2018:
investir na poupanca 0.00 dinheiros
retirar da poupanca 73403.69 dinheiros
investir no CDB 0.00 dinheiros
retirar do CDB 0.00 dinheiros
investir nas acoes 0.00 dinheiros
retirar das acoes 0.00 dinheiros
Mes 9/2018:
investir na poupanca 0.00 dinheiros
retirar da poupanca 67457.28 dinheiros
investir no CDB 0.00 dinheiros
retirar do CDB 0.00 dinheiros
investir nas acoes 0.00 dinheiros
retirar das acoes 0.00 dinheiros
Mes 10/2018:
investir na poupanca 0.00 dinheiros
retirar da poupanca 62734.95 dinheiros
investir no CDB 0.00 dinheiros
retirar do CDB 0.00 dinheiros
investir nas acoes 0.00 dinheiros
retirar das acoes 0.00 dinheiros
Mes 11/2018:
investir na poupanca 0.00 dinheiros
retirar da poupanca 811501281.12 dinheiros
investir no CDB 0.00 dinheiros
retirar do CDB 0.00 dinheiros
investir nas acoes 811478706.14 dinheiros
retirar das acoes 0.00 dinheiros
Mes 12/2018:
investir na poupanca 1374635606.67 dinheiros
retirar da poupanca 0.00 dinheiros
investir no CDB 0.00 dinheiros
retirar do CDB 0.00 dinheiros
investir nas acoes 0.00 dinheiros
retirar das acoes 1374644928.21 dinheiros
Mes 1/2019:
retirar da poupanca 89.96 dinheiros
retirar do CDB 0.00 dinheiros
retirar das acoes 0.00 dinheiros
saldo da heranca em 2019: 2225534956.52 dinheiros
Caso 20:
Mes 1/2018:
investir na poupanca 0.00 dinheiros
retirar da poupanca 0.00 dinheiros
investir no CDB 0.00 dinheiros
retirar do CDB 0.00 dinheiros
investir nas acoes 6796395.68 dinheiros
retirar das acoes 0.00 dinheiros
Mes 2/2018:
investir na poupanca 0.00 dinheiros
retirar da poupanca 0.00 dinheiros
investir no CDB 0.00 dinheiros
retirar do CDB 0.00 dinheiros
investir nas acoes 0.00 dinheiros
retirar das acoes 18082.20 dinheiros
Mes 3/2018:
investir na poupanca 0.00 dinheiros
retirar da poupanca 0.00 dinheiros
investir no CDB 0.00 dinheiros
retirar do CDB 0.00 dinheiros
investir nas acoes 0.00 dinheiros
retirar das acoes 79593.91 dinheiros
Mes 4/2018:
investir na poupanca 0.00 dinheiros
retirar da poupanca 0.00 dinheiros
investir no CDB 36941340.17 dinheiros
retirar do CDB 0.00 dinheiros
investir nas acoes 0.00 dinheiros
retirar das acoes 37035786.83 dinheiros
Mes 5/2018:
investir na poupanca 61218647.40 dinheiros
retirar da poupanca 0.00 dinheiros
investir no CDB 0.00 dinheiros
retirar do CDB 61271178.33 dinheiros
investir nas acoes 0.00 dinheiros
retirar das acoes 0.00 dinheiros
Mes 6/2018:
investir na poupanca 0.00 dinheiros
retirar da poupanca 74385.90 dinheiros
investir no CDB 0.00 dinheiros
retirar do CDB 0.00 dinheiros
investir nas acoes 0.00 dinheiros
retirar das acoes 0.00 dinheiros
Mes 7/2018:
investir na poupanca 0.00 dinheiros
retirar da poupanca 60166.46 dinheiros
investir no CDB 0.00 dinheiros
retirar do CDB 0.00 dinheiros
investir nas acoes 0.00 dinheiros
retirar das acoes 0.00 dinheiros
Mes 8/2018:
investir na poupanca 0.00 dinheiros
retirar da poupanca 262094167.45 dinheiros
investir no CDB 262017234.56 dinheiros
retirar do CDB 0.00 dinheiros
investir nas acoes 0.00 dinheiros
retirar das acoes 0.00 dinheiros
Mes 9/2018:
investir na poupanca 464709643.65 dinheiros
retirar da poupanca 0.00 dinheiros
investir no CDB 0.00 dinheiros
retirar do CDB 464738499.22 dinheiros
investir nas acoes 22717.78 dinheiros
retirar das acoes 0.00 dinheiros
Mes 10/2018:
investir na poupanca 0.00 dinheiros
retirar da poupanca 0.00 dinheiros
investir no CDB 0.00 dinheiros
retirar do CDB 0.00 dinheiros
investir nas acoes 0.00 dinheiros
retirar das acoes 36689.22 dinheiros
Mes 11/2018:
investir na poupanca 0.00 dinheiros
retirar da poupanca 1219720565.87 dinheiros
investir no CDB 0.00 dinheiros
retirar do CDB 0.00 dinheiros
investir nas acoes 1219660380.09 dinheiros
retirar das acoes 0.00 dinheiros
Mes 12/2018:
investir na poupanca 2192862379.93 dinheiros
retirar da poupanca 0.00 dinheiros
investir no CDB 0.00 dinheiros
retirar do CDB 0.00 dinheiros
investir nas acoes 0.00 dinheiros
retirar das acoes 2192949363.40 dinheiros
Mes 1/2019:
retirar da poupanca 62.67 dinheiros
retirar do CDB 0.00 dinheiros
retirar das acoes 0.00 dinheiros
saldo da heranca em 2019: 3580944202.75 dinheiros
