Caso 1:
Mes 1/2018:
investir na poupanca 8645343.25 dinheiros
retirar da poupanca 0.00 dinheiros
investir no CDB 0.00 dinheiros
retirar do CDB 0.00 dinheiros
investir nas acoes 0.00 dinheiros
retirar das acoes 0.00 dinheiros
Mes 2/2018:
investir na poupanca 0.00 dinheiros
retirar da poupanca 4371.32 dinheiros
investir no CDB 0.00 dinheiros
retirar do CDB 0.00 dinheiros
investir nas acoes 0.00 dinheiros
retirar das acoes 0.00 dinheiros
Mes 3/2018:
investir na poupanca 0.00 dinheiros
retirar da poupanca 7940.73 dinheiros
investir no CDB 0.00 dinheiros
retirar do CDB 0.00 dinheiros
investir nas acoes 0.00 dinheiros
retirar das acoes 0.00 dinheiros
Mes 4/2018:
investir na poupanca 0.00 dinheiros
retirar da poupanca 43236270.63 dinheiros
investir no CDB 0.00 dinheiros
retirar do CDB 0.00 dinheiros
investir nas acoes 43235262.65 dinheiros
retirar das acoes 0.00 dinheiros
Mes 5/2018:
investir na poupanca 0.00 dinheiros
retirar da poupanca 0.00 dinheiros
investir no CDB 75783379.63 dinheiros
retirar do CDB 0.00 dinheiros
investir nas acoes 0.00 dinheiros
retirar das acoes 75791415.43 dinheiros
Mes 6/2018:
investir na poupanca 0.00 dinheiros
retirar da poupanca 0.00 dinheiros
investir no CDB 0.00 dinheiros
retirar do CDB 3331.09 dinheiros
investir nas acoes 0.00 dinheiros
retirar das acoes 0.00 dinheiros
Mes 7/2018:
investir na poupanca 241577491.04 dinheiros
retirar da poupanca 0.00 dinheiros
investir no CDB 0.00 dinheiros
retirar do CDB 241585187.13 dinheiros
investir nas acoes 0.00 dinheiros
retirar das acoes 0.00 dinheiros
Mes 8/2018:
investir na poupanca 0.00 dinheiros
retirar da poupanca 6948.01 dinheiros
investir no CDB 0.00 dinheiros
retirar do CDB 0.00 dinheiros
investir nas acoes 0.00 dinheiros
retirar das acoes 0.00 dinheiros
Mes 9/2018:
investir na poupanca 0.00 dinheiros
retirar da poupanca 704882683.45 dinheiros
investir no CDB 0.00 dinheiros
retirar do CDB 0.00 dinheiros
investir nas acoes 704881014.58 dinheiros
retirar das acoes 0.00 dinheiros
Mes 10/2018:
investir na poupanca 0.00 dinheiros
retirar da poupanca 0.00 dinheiros
investir no CDB 1283585180.22 dinheiros
retirar do CDB 0.00 dinheiros
investir nas acoes 0.00 dinheiros
retirar das acoes 1283588327.56 dinheiros
Mes 11/2018:
investir na poupanca 0.00 dinheiros
retirar da poupanca 0.00 dinheiros
investir no CDB 0.00 dinheiros
retirar do CDB 7323.71 dinheiros
investir nas acoes 0.00 dinheiros
retirar das acoes 0.00 dinheiros
Mes 12/2018:
investir na poupanca 0.00 dinheiros
retirar da poupanca 0.00 dinheiros
investir no CDB 0.00 dinheiros
retirar do CDB 6773.30 dinheiros
investir nas acoes 30.85 dinheiros
retirar das acoes 0.00 dinheiros
Mes 1/2019:
retirar da poupanca 0.00 dinheiros
retirar do CDB 0.00 dinheiros
retirar das acoes 53.16 dinheiros
saldo da heranca em 2019: 7537908182.48 dinheiros
Caso 2:
Mes 1/2018:
investir na poupanca 3717063.31 dinheiros
retirar da poupanca 0.00 dinheiros
investir no CDB 0.00 dinheiros
retirar do CDB 0.00 dinheiros
investir nas acoes 0.00 dinheiros
retirar das acoes 0.00 dinheiros
Mes 2/2018:
investir na poupanca 0.00 dinheiros
retirar da poupanca 5742.35 dinheiros
investir no CDB 0.00 dinheiros
retirar do CDB 0.00 dinheiros
investir nas acoes 0.00 dinheiros
retirar das acoes 0.00 dinheiros
Mes 3/2018:
investir na poupanca 0.00 dinheiros
retirar da poupanca 1149.98 dinheiros
investir no CDB 0.00 dinheiros
retirar do CDB 0.00 dinheiros
investir nas acoes 0.00 dinheiros
retirar das acoes 0.00 dinheiros
Mes 4/2018:
investir na poupanca 0.00 dinheiros
retirar da poupanca 8548.20 dinheiros
investir no CDB 0.00 dinheiros
retirar do CDB 0.00 dinheiros
investir nas acoes 0.00 dinheiros
retirar das acoes 0.00 dinheiros
Mes 5/2018:
investir na poupanca 0.00 dinheiros
retirar da poupanca 9054.38 dinheiros
investir no CDB 0.00 dinheiros
retirar do CDB 0.00 dinheiros
investir nas acoes 0.00 dinheiros
retirar das acoes 0.00 dinheiros
Mes 6/2018:
investir na poupanca 0.00 dinheiros
retirar da poupanca 5555.38 dinheiros
investir no CDB 0.00 dinheiros
retirar do CDB 0.00 dinheiros
investir nas acoes 0.00 dinheiros
retirar das acoes 0.00 dinheiros
Mes 7/2018:
investir na poupanca 0.00 dinheiros
retirar da poupanca 1516.77 dinheiros
investir no CDB 0.00 dinheiros
retirar do CDB 0.00 dinheiros
investir nas acoes 0.00 dinheiros
retirar das acoes 0.00 dinheiros
Mes 8/2018:
investir na poupanca 0.00 dinheiros
retirar da poupanca 474.34 dinheiros
investir no CDB 0.00 dinheiros
retirar do CDB 0.00 dinheiros
investir nas acoes 0.00 dinheiros
retirar das acoes 0.00 dinheiros
Mes 9/2018:
investir na poupanca 0.00 dinheiros
retirar da poupanca 8751.44 dinheiros
investir no CDB 0.00 dinheiros
retirar do CDB 0.00 dinheiros
investir nas acoes 0.00 dinheiros
retirar das acoes 0.00 dinheiros
Mes 10/2018:
investir na poupanca 0.00 dinheiros
retirar da poupanca 1937.73 dinheiros
investir no CDB 0.00 dinheiros
retirar do CDB 0.00 dinheiros
investir nas acoes 0.00 dinheiros
retirar das acoes 0.00 dinheiros
Mes 11/2018:
investir na poupanca 0.00 dinheiros
retirar da poupanca 9784.91 dinheiros
investir no CDB 0.00 dinheiros
retirar do CDB 0.00 dinheiros
investir nas acoes 0.00 dinheiros
retirar das acoes 0.00 dinheiros
Mes 12/2018:
investir na poupanca 0.00 dinheiros
retirar da poupanca 1725.96 dinheiros
investir no CDB 0.00 dinheiros
retirar do CDB 0.00 dinheiros
investir nas acoes 0.00 dinheiros
retirar das acoes 0.00 dinheiros
Mes 1/2019:
retirar da poupanca 62.58 dinheiros
retirar do CDB 0.00 dinheiros
retirar das acoes 0.00 dinheiros
saldo da heranca em 2019: 14403135283.21 dinheiros
Caso 3:
Mes 1/2018:
investir na poupanca 0.00 dinheiros
retirar da poupanca 0.00 dinheiros
investir no CDB 0.00 dinheiros
retirar do CDB 0.00 dinheiros
investir nas acoes 6042346.71 dinheiros
retirar das acoes 0.00 dinheiros
Mes 2/2018:
investir na poupanca 0.00 dinheiros
retirar da poupanca 0.00 dinheiros
investir no CDB 10240094.94 dinheiros
retirar do CDB 0.00 dinheiros
investir nas acoes 0.00 dinheiros
retirar das acoes 10247820.02 dinheiros
Mes 3/2018:
investir na poupanca 19351340.59 dinheiros
retirar da poupanca 0.00 dinheiros
investir no CDB 0.00 dinheiros
retirar do CDB 19352470.48 dinheiros
investir nas acoes 0.00 dinheiros
retirar das acoes 0.00 dinheiros
Mes 4/2018:
investir na poupanca 0.00 dinheiros
retirar da poupanca 3464.13 dinheiros
investir no CDB 0.00 dinheiros
retirar do CDB 0.00 dinheiros
investir nas acoes 0.00 dinheiros
retirar das acoes 0.00 dinheiros
Mes 5/2018:
investir na poupanca 0.00 dinheiros
retirar da poupanca 10803.90 dinheiros
investir no CDB 2543.60 dinheiros
retirar do CDB 0.00 dinheiros
investir nas acoes 0.00 dinheiros
retirar das acoes 0.00 dinheiros
Mes 6/2018:
investir na poupanca 0.00 dinheiros
retirar da poupanca 0.00 dinheiros
investir no CDB 0.00 dinheiros
retirar do CDB 4571.97 dinheiros
investir nas acoes 0.00 dinheiros
retirar das acoes 0.00 dinheiros
Mes 7/2018:
investir na poupanca 0.00 dinheiros
retirar da poupanca 160944193.34 dinheiros
investir no CDB 0.00 dinheiros
retirar do CDB 0.00 dinheiros
investir nas acoes 160935433.87 dinheiros
retirar das acoes 0.00 dinheiros
Mes 8/2018:
investir na poupanca 312214641.18 dinheiros
retirar da poupanca 0.00 dinheiros
investir no CDB 0.00 dinheiros
retirar do CDB 0.00 dinheiros
investir nas acoes 0.00 dinheiros
retirar das acoes 312214741.71 dinheiros
Mes 9/2018:
investir na poupanca 0.00 dinheiros
retirar da poupanca 510465002.68 dinheiros
investir no CDB 0.00 dinheiros
retirar do CDB 0.00 dinheiros
investir nas acoes 510458623.41 dinheiros
retirar das acoes 0.00 dinheiros
Mes 10/2018:
investir na poupanca 995899922.72 dinheiros
retirar da poupanca 0.00 dinheiros
investir no CDB 0.00 dinheiros
retirar do CDB 0.00 dinheiros
investir nas acoes 0.00 dinheiros
retirar das acoes 995904774.28 dinheiros
Mes 11/2018:
investir na poupanca 0.00 dinheiros
retirar da poupanca 1628277440.19 dinheiros
investir no CDB 0.00 dinheiros
retirar do CDB 0.00 dinheiros
investir nas acoes 1628276590.61 dinheiros
retirar das acoes 0.00 dinheiros
Mes 12/2018:
investir na poupanca 0.00 dinheiros
retirar da poupanca 0.00 dinheiros
investir no CDB 2987881297.61 dinheiros
retirar do CDB 0.00 dinheiros
investir nas acoes 0.00 dinheiros
retirar das acoes 2987887543.77 dinheiros
Mes 1/2019:
retirar da poupanca 0.00 dinheiros
retirar do CDB 94.66 dinheiros
retirar das acoes 0.00 dinheiros
saldo da heranca em 2019: 5632156149.72 dinheiros
Caso 4:
Mes 1/2018:
investir na poupanca 0.00 dinheiros
retirar da poupanca 0.00 dinheiros
investir no CDB 0.00 dinheiros
retirar do CDB 0.00 dinheiros
investir nas acoes 4417490.71 dinheiros
retirar das acoes 0.00 dinheiros
Mes 2/2018:
investir na poupanca 8699468.06 dinheiros
retirar da poupanca 0.00 dinheiros
investir no CDB 0.00 dinheiros
retirar do CDB 0.00 dinheiros
investir nas acoes 0.00 dinheiros
retirar das acoes 8706874.19 dinheiros
Mes 3/2018:
investir na poupanca 0.00 dinheiros
retirar da poupanca 14349899.26 dinheiros
investir no CDB 0.00 dinheiros
retirar do CDB 0.00 dinheiros
investir nas acoes 14347640.63 dinheiros
retirar das acoes 0.00 dinheiros
Mes 4/2018:
investir na poupanca 0.00 dinheiros
retirar da poupanca 0.00 dinheiros
investir no CDB 25980184.59 dinheiros
retirar do CDB 0.00 dinheiros
investir nas acoes 0.00 dinheiros
retirar das acoes 25983577.17 dinheiros
Mes 5/2018:
investir na poupanca 0.00 dinheiros
retirar da poupanca 0.00 dinheiros
investir no CDB 0.00 dinheiros
retirar do CDB 2094.73 dinheiros
investir nas acoes 0.00 dinheiros
retirar das acoes 0.00 dinheiros
Mes 6/2018:
investir na poupanca 86689063.08 dinheiros
retirar da poupanca 0.00 dinheiros
investir no CDB 0.00 dinheiros
retirar do CDB 86693134.47 dinheiros
investir nas acoes 0.00 dinheiros
retirar das acoes 0.00 dinheiros
Mes 7/2018:
investir na poupanca 0.00 dinheiros
retirar da poupanca 142991585.82 dinheiros
investir no CDB 142991051.09 dinheiros
retirar do CDB 0.00 dinheiros
investir nas acoes 0.00 dinheiros
retirar das acoes 0.00 dinheiros
Mes 8/2018:
investir na poupanca 0.00 dinheiros
retirar da poupanca 3936.83 dinheiros
investir no CDB 0.00 dinheiros
retirar do CDB 0.00 dinheiros
investir nas acoes 0.00 dinheiros
retirar das acoes 0.00 dinheiros
Mes 9/2018:
investir na poupanca 0.00 dinheiros
retirar da poupanca 2797.22 dinheiros
investir no CDB 0.00 dinheiros
retirar do CDB 0.00 dinheiros
investir nas acoes 0.00 dinheiros
retirar das acoes 0.00 dinheiros
Mes 10/2018:
investir na poupanca 0.00 dinheiros
retirar da poupanca 0.00 dinheiros
investir no CDB 0.00 dinheiros
retirar do CDB 744289670.24 dinheiros
investir nas acoes 744282176.13 dinheiros
retirar das acoes 0.00 dinheiros
Mes 11/2018:
investir na poupanca 0.00 dinheiros
retirar da poupanca 0.00 dinheiros
investir no CDB 0.00 dinheiros
retirar do CDB 0.00 dinheiros
investir nas acoes 0.00 dinheiros
retirar das acoes 4135.81 dinheiros
Mes 12/2018:
investir na poupanca 0.00 dinheiros
retirar da poupanca 0.00 dinheiros
investir no CDB 0.00 dinheiros
retirar do CDB 0.00 dinheiros
investir nas acoes 0.00 dinheiros
retirar das acoes 9817.12 dinheiros
Mes 1/2019:
retirar da poupanca 0.00 dinheiros
retirar do CDB 0.00 dinheiros
retirar das acoes 56.07 dinheiros
saldo da heranca em 2019: 4338931485.02 dinheiros
Caso 5:
Mes 1/2018:
investir na poupanca 0.00 dinheiros
retirar da poupanca 0.00 dinheiros
investir no CDB 1947734.74 dinheiros
retirar do CDB 0.00 dinheiros
investir nas acoes 0.00 dinheiros
retirar das acoes 0.00 dinheiros
Mes 2/2018:
investir na poupanca 0.00 dinheiros
retirar da poupanca 0.00 dinheiros
investir no CDB 0.00 dinheiros
retirar do CDB 7538.18 dinheiros
investir nas acoes 0.00 dinheiros
retirar das acoes 0.00 dinheiros
Mes 3/2018:
investir na poupanca 0.00 dinheiros
retirar da poupanca 0.00 dinheiros
investir no CDB 0.00 dinheiros
retirar do CDB 9202.31 dinheiros
investir nas acoes 0.00 dinheiros
retirar das acoes 0.00 dinheiros
Mes 4/2018:
investir na poupanca 0.00 dinheiros
retirar da poupanca 0.00 dinheiros
investir no CDB 0.00 dinheiros
retirar do CDB 6757489.41 dinheiros
investir nas acoes 6755849.42 dinheiros
retirar das acoes 0.00 dinheiros
Mes 5/2018:
investir na poupanca 0.00 dinheiros
retirar da poupanca 0.00 dinheiros
investir no CDB 12846931.77 dinheiros
retirar do CDB 0.00 dinheiros
investir nas acoes 0.00 dinheiros
retirar das acoes 12849625.61 dinheiros
Mes 6/2018:
investir na poupanca 0.00 dinheiros
retirar da poupanca 0.00 dinheiros
investir no CDB 0.00 dinheiros
retirar do CDB 696.68 dinheiros
investir nas acoes 0.00 dinheiros
retirar das acoes 0.00 dinheiros
Mes 7/2018:
investir na poupanca 0.00 dinheiros
retirar da poupanca 0.00 dinheiros
investir no CDB 0.00 dinheiros
retirar do CDB 47272963.87 dinheiros
investir nas acoes 47265592.39 dinheiros
retirar das acoes 0.00 dinheiros
Mes 8/2018:
investir na poupanca 0.00 dinheiros
retirar da poupanca 0.00 dinheiros
investir no CDB 0.00 dinheiros
retirar do CDB 0.00 dinheiros
investir nas acoes 0.00 dinheiros
retirar das acoes 2782.27 dinheiros
Mes 9/2018:
investir na poupanca 0.00 dinheiros
retirar da poupanca 0.00 dinheiros
investir no CDB 172150479.83 dinheiros
retirar do CDB 0.00 dinheiros
investir nas acoes 0.00 dinheiros
retirar das acoes 172153558.92 dinheiros
Mes 10/2018:
investir na poupanca 0.00 dinheiros
retirar da poupanca 0.00 dinheiros
investir no CDB 0.00 dinheiros
retirar do CDB 4307.36 dinheiros
investir nas acoes 0.00 dinheiros
retirar das acoes 0.00 dinheiros
Mes 11/2018:
investir na poupanca 0.00 dinheiros
retirar da poupanca 0.00 dinheiros
investir no CDB 0.00 dinheiros
retirar do CDB 8942.97 dinheiros
investir nas acoes 0.00 dinheiros
retirar das acoes 0.00 dinheiros
Mes 12/2018:
investir na poupanca 0.00 dinheiros
retirar da poupanca 0.00 dinheiros
investir no CDB 0.00 dinheiros
retirar do CDB 4213.15 dinheiros
investir nas acoes 0.00 dinheiros
retirar das acoes 0.00 dinheiros
Mes 1/2019:
retirar da poupanca 0.00 dinheiros
retirar do CDB 54.45 dinheiros
retirar das acoes 0.00 dinheiros
saldo da heranca em 2019: 1009739360.42 dinheiros
Caso 6:
Mes 1/2018:
investir na poupanca 0.00 dinheiros
retirar da poupanca 0.00 dinheiros
investir no CDB 4899983.10 dinheiros
retirar do CDB 0.00 dinheiros
investir nas acoes 0.00 dinheiros
retirar das acoes 0.00 dinheiros
Mes 2/2018:
investir na poupanca 0.00 dinheiros
retirar da poupanca 0.00 dinheiros
investir no CDB 0.00 dinheiros
retirar do CDB 9399.51 dinheiros
investir nas acoes 0.00 dinheiros
retirar das acoes 0.00 dinheiros
Mes 3/2018:
investir na poupanca 0.00 dinheiros
retirar da poupanca 0.00 dinheiros
investir no CDB 0.00 dinheiros
retirar do CDB 14046482.79 dinheiros
investir nas acoes 14036975.40 dinheiros
retirar das acoes 0.00 dinheiros
Mes 4/2018:
investir na poupanca 0.00 dinheiros
retirar da poupanca 0.00 dinheiros
investir no CDB 21259023.96 dinheiros
retirar do CDB 0.00 dinheiros
investir nas acoes 0.00 dinheiros
retirar das acoes 21266017.74 dinheiros
Mes 5/2018:
investir na poupanca 0.00 dinheiros
retirar da poupanca 0.00 dinheiros
investir no CDB 0.00 dinheiros
retirar do CDB 10079.84 dinheiros
investir nas acoes 0.00 dinheiros
retirar das acoes 0.00 dinheiros
Mes 6/2018:
investir na poupanca 0.00 dinheiros
retirar da poupanca 0.00 dinheiros
investir no CDB 0.00 dinheiros
retirar do CDB 1683.85 dinheiros
investir nas acoes 0.00 dinheiros
retirar das acoes 0.00 dinheiros
Mes 7/2018:
investir na poupanca 0.00 dinheiros
retirar da poupanca 0.00 dinheiros
investir no CDB 0.00 dinheiros
retirar do CDB 2413.93 dinheiros
investir nas acoes 0.00 dinheiros
retirar das acoes 0.00 dinheiros
Mes 8/2018:
investir na poupanca 0.00 dinheiros
retirar da poupanca 0.00 dinheiros
investir no CDB 0.00 dinheiros
retirar do CDB 8625.87 dinheiros
investir nas acoes 0.00 dinheiros
retirar das acoes 0.00 dinheiros
Mes 9/2018:
investir na poupanca 0.00 dinheiros
retirar da poupanca 0.00 dinheiros
investir no CDB 0.00 dinheiros
retirar do CDB 7190.15 dinheiros
investir nas acoes 0.00 dinheiros
retirar das acoes 0.00 dinheiros
Mes 10/2018:
investir na poupanca 0.00 dinheiros
retirar da poupanca 0.00 dinheiros
investir no CDB 0.00 dinheiros
retirar do CDB 8707.20 dinheiros
investir nas acoes 0.00 dinheiros
retirar das acoes 0.00 dinheiros
Mes 11/2018:
investir na poupanca 425858628.69 dinheiros
retirar da poupanca 0.00 dinheiros
investir no CDB 0.00 dinheiros
retirar do CDB 425866661.34 dinheiros
investir nas acoes 0.00 dinheiros
retirar das acoes 0.00 dinheiros
Mes 12/2018:
investir na poupanca 0.00 dinheiros
retirar da poupanca 513803387.36 dinheiros
investir no CDB 513800678.90 dinheiros
retirar do CDB 0.00 dinheiros
investir nas acoes 0.00 dinheiros
retirar das acoes 0.00 dinheiros
Mes 1/2019:
retirar da poupanca 0.00 dinheiros
retirar do CDB 97.18 dinheiros
retirar das acoes 0.00 dinheiros
saldo da heranca em 2019: 817456778.87 dinheiros
Caso 7:
Mes 1/2018:
investir na poupanca 0.00 dinheiros
retirar da poupanca 0.00 dinheiros
investir no CDB 1153945.44 dinheiros
retirar do CDB 0.00 dinheiros
investir nas acoes 0.00 dinheiros
retirar das acoes 0.00 dinheiros
Mes 2/2018:
investir na poupanca 0.00 dinheiros
retirar da poupanca 0.00 dinheiros
investir no CDB 0.00 dinheiros
retirar do CDB 1533942.36 dinheiros
investir nas acoes 1531681.13 dinheiros
retirar das acoes 0.00 dinheiros
Mes 3/2018:
investir na poupanca 2602892.23 dinheiros
retirar da poupanca 0.00 dinheiros
investir no CDB 0.00 dinheiros
retirar do CDB 0.00 dinheiros
investir nas acoes 0.00 dinheiros
retirar das acoes 2606921.28 dinheiros
Mes 4/2018:
investir na poupanca 0.00 dinheiros
retirar da poupanca 7149.45 dinheiros
investir no CDB 0.00 dinheiros
retirar do CDB 0.00 dinheiros
investir nas acoes 0.00 dinheiros
retirar das acoes 0.00 dinheiros
Mes 5/2018:
investir na poupanca 0.00 dinheiros
retirar da poupanca 4217992.87 dinheiros
investir no CDB 0.00 dinheiros
retirar do CDB 0.00 dinheiros
investir nas acoes 4214234.05 dinheiros
retirar das acoes 0.00 dinheiros
Mes 6/2018:
investir na poupanca 0.00 dinheiros
retirar da poupanca 0.00 dinheiros
investir no CDB 6654659.89 dinheiros
retirar do CDB 0.00 dinheiros
investir nas acoes 0.00 dinheiros
retirar das acoes 6661970.29 dinheiros
Mes 7/2018:
investir na poupanca 0.00 dinheiros
retirar da poupanca 0.00 dinheiros
investir no CDB 0.00 dinheiros
retirar do CDB 0.00 dinheiros
investir nas acoes 0.00 dinheiros
retirar das acoes 9064.69 dinheiros
Mes 8/2018:
investir na poupanca 0.00 dinheiros
retirar da poupanca 0.00 dinheiros
investir no CDB 0.00 dinheiros
retirar do CDB 2072.46 dinheiros
investir nas acoes 0.00 dinheiros
retirar das acoes 0.00 dinheiros
Mes 9/2018:
investir na poupanca 0.00 dinheiros
retirar da poupanca 0.00 dinheiros
investir no CDB 0.00 dinheiros
retirar do CDB 7947.11 dinheiros
investir nas acoes 0.00 dinheiros
retirar das acoes 0.00 dinheiros
Mes 10/2018:
investir na poupanca 0.00 dinheiros
retirar da poupanca 0.00 dinheiros
investir no CDB 0.00 dinheiros
retirar do CDB 8771.85 dinheiros
investir nas acoes 0.00 dinheiros
retirar das acoes 0.00 dinheiros
Mes 11/2018:
investir na poupanca 0.00 dinheiros
retirar da poupanca 0.00 dinheiros
investir no CDB 0.00 dinheiros
retirar do CDB 81287583.39 dinheiros
investir nas acoes 81285486.57 dinheiros
retirar das acoes 0.00 dinheiros
Mes 12/2018:
investir na poupanca 106560799.70 dinheiros
retirar da poupanca 0.00 dinheiros
investir no CDB 0.00 dinheiros
retirar do CDB 0.00 dinheiros
investir nas acoes 0.00 dinheiros
retirar das acoes 106565272.90 dinheiros
Mes 1/2019:
retirar da poupanca 69.03 dinheiros
retirar do CDB 0.00 dinheiros
retirar das acoes 0.00 dinheiros
saldo da heranca em 2019: 138955210.53 dinheiros
Caso 8:
Mes 1/2018:
investir na poupanca 6572641.09 dinheiros
retirar da poupanca 0.00 dinheiros
investir no CDB 0.00 dinheiros
retirar do CDB 0.00 dinheiros
investir nas acoes 0.00 dinheiros
retirar das acoes 0.00 dinheiros
Mes 2/2018:
investir na poupanca 0.00 dinheiros
retirar da poupanca 1477.25 dinheiros
investir no CDB 0.00 dinheiros
retirar do CDB 0.00 dinheiros
investir nas acoes 0.00 dinheiros
retirar das acoes 0.00 dinheiros
Mes 3/2018:
investir na poupanca 0.00 dinheiros
retirar da poupanca 13991176.92 dinheiros
investir no CDB 13984745.74 dinheiros
retirar do CDB 0.00 dinheiros
investir nas acoes 0.00 dinheiros
retirar das acoes 0.00 dinheiros
Mes 4/2018:
investir na poupanca 0.00 dinheiros
retirar da poupanca 0.00 dinheiros
investir no CDB 0.00 dinheiros
retirar do CDB 25169888.69 dinheiros
investir nas acoes 25169025.41 dinheiros
retirar das acoes 0.00 dinheiros
Mes 5/2018:
investir na poupanca 0.00 dinheiros
retirar da poupanca 0.00 dinheiros
investir no CDB 0.00 dinheiros
retirar do CDB 0.00 dinheiros
investir nas acoes 0.00 dinheiros
retirar das acoes 9902.31 dinheiros
Mes 6/2018:
investir na poupanca 89505356.10 dinheiros
retirar da poupanca 0.00 dinheiros
investir no CDB 0.00 dinheiros
retirar do CDB 0.00 dinheiros
investir nas acoes 0.00 dinheiros
retirar das acoes 89508607.63 dinheiros
Mes 7/2018:
investir na poupanca 0.00 dinheiros
retirar da poupanca 3241.38 dinheiros
investir no CDB 0.00 dinheiros
retirar do CDB 0.00 dinheiros
investir nas acoes 0.00 dinheiros
retirar das acoes 0.00 dinheiros
Mes 8/2018:
investir na poupanca 0.00 dinheiros
retirar da poupanca 190555274.51 dinheiros
investir no CDB 190548355.85 dinheiros
retirar do CDB 0.00 dinheiros
investir nas acoes 0.00 dinheiros
retirar das acoes 0.00 dinheiros
Mes 9/2018:
investir na poupanca 0.00 dinheiros
retirar da poupanca 0.00 dinheiros
investir no CDB 0.00 dinheiros
retirar do CDB 3256.89 dinheiros
investir nas acoes 0.00 dinheiros
retirar das acoes 0.00 dinheiros
Mes 10/2018:
investir na poupanca 0.00 dinheiros
retirar da poupanca 0.00 dinheiros
investir no CDB 0.00 dinheiros
retirar do CDB 7032.40 dinheiros
investir nas acoes 0.00 dinheiros
retirar das acoes 0.00 dinheiros
Mes 11/2018:
investir na poupanca 1127339513.11 dinheiros
retirar da poupanca 0.00 dinheiros
investir no CDB 0.00 dinheiros
retirar do CDB 1127344198.43 dinheiros
investir nas acoes 0.00 dinheiros
retirar das acoes 0.00 dinheiros
Mes 12/2018:
investir na poupanca 0.00 dinheiros
retirar da poupanca 5353.56 dinheiros
investir no CDB 0.00 dinheiros
retirar do CDB 0.00 dinheiros
investir nas acoes 0.00 dinheiros
retirar das acoes 0.00 dinheiros
Mes 1/2019:
retirar da poupanca 59.03 dinheiros
retirar do CDB 0.00 dinheiros
retirar das acoes 0.00 dinheiros
saldo da heranca em 2019: 2529745861.87 dinheiros
Caso 9:
Mes 1/2018:
investir na poupanca 0.00 dinheiros
retirar da poupanca 0.00 dinheiros
investir no CDB 5945296.39 dinheiros
retirar do CDB 0.00 dinheiros
investir nas acoes 2043.64 dinheiros
retirar das acoes 0.00 dinheiros
Mes 2/2018:
investir na poupanca 0.00 dinheiros
retirar da poupanca 0.00 dinheiros
investir no CDB 0.00 dinheiros
retirar do CDB 0.00 dinheiros
investir nas acoes 0.00 dinheiros
retirar das acoes 3220.78 dinheiros
Mes 3/2018:
investir na poupanca 15298511.98 dinheiros
retirar da poupanca 0.00 dinheiros
investir no CDB 0.00 dinheiros
retirar do CDB 15304243.73 dinheiros
investir nas acoes 0.00 dinheiros
retirar das acoes 0.00 dinheiros
Mes 4/2018:
investir na poupanca 0.00 dinheiros
retirar da poupanca 21389586.19 dinheiros
investir no CDB 21387202.22 dinheiros
retirar do CDB 0.00 dinheiros
investir nas acoes 0.00 dinheiros
retirar das acoes 0.00 dinheiros
Mes 5/2018:
investir na poupanca 36865926.98 dinheiros
retirar da poupanca 0.00 dinheiros
investir no CDB 0.00 dinheiros
retirar do CDB 36871698.34 dinheiros
investir nas acoes 0.00 dinheiros
retirar das acoes 0.00 dinheiros
Mes 6/2018:
investir na poupanca 0.00 dinheiros
retirar da poupanca 2456.47 dinheiros
investir no CDB 0.00 dinheiros
retirar do CDB 0.00 dinheiros
investir nas acoes 0.00 dinheiros
retirar das acoes 0.00 dinheiros
Mes 7/2018:
investir na poupanca 0.00 dinheiros
retirar da poupanca 6758.25 dinheiros
investir no CDB 0.00 dinheiros
retirar do CDB 0.00 dinheiros
investir nas acoes 0.00 dinheiros
retirar das acoes 0.00 dinheiros
Mes 8/2018:
investir na poupanca 0.00 dinheiros
retirar da poupanca 117509731.23 dinheiros
investir no CDB 0.00 dinheiros
retirar do CDB 0.00 dinheiros
investir nas acoes 117504805.73 dinheiros
retirar das acoes 0.00 dinheiros
Mes 9/2018:
investir na poupanca 0.00 dinheiros
retirar da poupanca 0.00 dinheiros
investir no CDB 0.00 dinheiros
retirar do CDB 0.00 dinheiros
investir nas acoes 0.00 dinheiros
retirar das acoes 1780.71 dinheiros
Mes 10/2018:
investir na poupanca 0.00 dinheiros
retirar da poupanca 0.00 dinheiros
investir no CDB 371758100.83 dinheiros
retirar do CDB 0.00 dinheiros
investir nas acoes 0.00 dinheiros
retirar das acoes 371767992.09 dinheiros
Mes 11/2018:
investir na poupanca 0.00 dinheiros
retirar da poupanca 0.00 dinheiros
investir no CDB 0.00 dinheiros
retirar do CDB 7328.20 dinheiros
investir nas acoes 0.00 dinheiros
retirar das acoes 0.00 dinheiros
Mes 12/2018:
investir na poupanca 0.00 dinheiros
retirar da poupanca 0.00 dinheiros
investir no CDB 0.00 dinheiros
retirar do CDB 8322.77 dinheiros
investir nas acoes 0.00 dinheiros
retirar das acoes 0.00 dinheiros
Mes 1/2019:
retirar da poupanca 0.00 dinheiros
retirar do CDB 26.74 dinheiros
retirar das acoes 0.00 dinheiros
saldo da heranca em 2019: 1577193860.35 dinheiros
Caso 10:
Mes 1/2018:
investir na poupanca 0.00 dinheiros
retirar da poupanca 0.00 dinheiros
investir no CDB 2848482.84 dinheiros
retirar do CDB 0.00 dinheiros
investir nas acoes 0.00 dinheiros
retirar das acoes 0.00 dinheiros
Mes 2/2018:
investir na poupanca 0.00 dinheiros
retirar da poupanca 0.00 dinheiros
investir no CDB 0.00 dinheiros
retirar do CDB 7100.71 dinheiros
investir nas acoes 0.00 dinheiros
retirar das acoes 0.00 dinheiros
Mes 3/2018:
investir na poupanca 9454963.97 dinheiros
retirar da poupanca 0.00 dinheiros
investir no CDB 0.00 dinheiros
retirar do CDB 9455256.17 dinheiros
investir nas acoes 0.00 dinheiros
retirar das acoes 0.00 dinheiros
Mes 4/2018:
investir na poupanca 0.00 dinheiros
retirar da poupanca 5671.92 dinheiros
investir no CDB 0.00 dinheiros
retirar do CDB 0.00 dinheiros
investir nas acoes 2429.72 dinheiros
retirar das acoes 0.00 dinheiros
Mes 5/2018:
investir na poupanca 0.00 dinheiros
retirar da poupanca 0.00 dinheiros
investir no CDB 0.00 dinheiros
retirar do CDB 0.00 dinheiros
investir nas acoes 0.00 dinheiros
retirar das acoes 4361.35 dinheiros
Mes 6/2018:
investir na poupanca 0.00 dinheiros
retirar da poupanca 46415036.84 dinheiros
investir no CDB 46414210.92 dinheiros
retirar do CDB 0.00 dinheiros
investir nas acoes 0.00 dinheiros
retirar das acoes 0.00 dinheiros
Mes 7/2018:
investir na poupanca 0.00 dinheiros
retirar da poupanca 0.00 dinheiros
investir no CDB 0.00 dinheiros
retirar do CDB 6013.59 dinheiros
investir nas acoes 0.00 dinheiros
retirar das acoes 0.00 dinheiros
Mes 8/2018:
investir na poupanca 0.00 dinheiros
retirar da poupanca 0.00 dinheiros
investir no CDB 0.00 dinheiros
retirar do CDB 2273.99 dinheiros
investir nas acoes 0.00 dinheiros
retirar das acoes 0.00 dinheiros
Mes 9/2018:
investir na poupanca 276721972.31 dinheiros
retirar da poupanca 0.00 dinheiros
investir no CDB 0.00 dinheiros
retirar do CDB 276725497.80 dinheiros
investir nas acoes 0.00 dinheiros
retirar das acoes 0.00 dinheiros
Mes 10/2018:
investir na poupanca 0.00 dinheiros
retirar da poupanca 453007992.47 dinheiros
investir no CDB 0.00 dinheiros
retirar do CDB 0.00 dinheiros
investir nas acoes 453007252.74 dinheiros
retirar das acoes 0.00 dinheiros
Mes 11/2018:
investir na poupanca 862974873.26 dinheiros
retirar da poupanca 0.00 dinheiros
investir no CDB 0.00 dinheiros
retirar do CDB 0.00 dinheiros
investir nas acoes 0.00 dinheiros
retirar das acoes 862978816.48 dinheiros
Mes 12/2018:
investir na poupanca 0.00 dinheiros
retirar da poupanca 4250.70 dinheiros
investir no CDB 0.00 dinheiros
retirar do CDB 0.00 dinheiros
investir nas acoes 0.00 dinheiros
retirar das acoes 0.00 dinheiros
Mes 1/2019:
retirar da poupanca 16.49 dinheiros
retirar do CDB 0.00 dinheiros
retirar das acoes 0.00 dinheiros
saldo da heranca em 2019: 2588764929.53 dinheiros
Caso 11:
Mes 1/2018:
investir na poupanca 0.00 dinheiros
retirar da poupanca 0.00 dinheiros
investir no CDB 358536.69 dinheiros
retirar do CDB 0.00 dinheiros
investir nas acoes 0.00 dinheiros
retirar das acoes 0.00 dinheiros
Mes 2/2018:
investir na poupanca 0.00 dinheiros
retirar da poupanca 0.00 dinheiros
investir no CDB 0.00 dinheiros
retirar do CDB 7052.12 dinheiros
investir nas acoes 0.00 dinheiros
retirar das acoes 0.00 dinheiros
Mes 3/2018:
investir na poupanca 0.00 dinheiros
retirar da poupanca 0.00 dinheiros
investir no CDB 0.00 dinheiros
retirar do CDB 470741.30 dinheiros
investir nas acoes 468659.42 dinheiros
retirar das acoes 0.00 dinheiros
Mes 4/2018:
investir na poupanca 0.00 dinheiros
retirar da poupanca 0.00 dinheiros
investir no CDB 910877.73 dinheiros
retirar do CDB 0.00 dinheiros
investir nas acoes 0.00 dinheiros
retirar das acoes 917635.14 dinheiros
Mes 5/2018:
investir na poupanca 0.00 dinheiros
retirar da poupanca 0.00 dinheiros
investir no CDB 0.00 dinheiros
retirar do CDB 1236.75 dinheiros
investir nas acoes 0.00 dinheiros
retirar das acoes 0.00 dinheiros
Mes 6/2018:
investir na poupanca 0.00 dinheiros
retirar da poupanca 0.00 dinheiros
investir no CDB 0.00 dinheiros
retirar do CDB 5172.91 dinheiros
investir nas acoes 0.00 dinheiros
retirar das acoes 0.00 dinheiros
Mes 7/2018:
investir na poupanca 0.00 dinheiros
retirar da poupanca 0.00 dinheiros
investir no CDB 0.00 dinheiros
retirar do CDB 4330940.95 dinheiros
investir nas acoes 4326715.91 dinheiros
retirar das acoes 0.00 dinheiros
Mes 8/2018:
investir na poupanca 0.00 dinheiros
retirar da poupanca 0.00 dinheiros
investir no CDB 7948429.86 dinheiros
retirar do CDB 0.00 dinheiros
investir nas acoes 0.00 dinheiros
retirar das acoes 7956830.56 dinheiros
Mes 9/2018:
investir na poupanca 0.00 dinheiros
retirar da poupanca 0.00 dinheiros
investir no CDB 0.00 dinheiros
retirar do CDB 3870.30 dinheiros
investir nas acoes 0.00 dinheiros
retirar das acoes 0.00 dinheiros
Mes 10/2018:
investir na poupanca 0.00 dinheiros
retirar da poupanca 0.00 dinheiros
investir no CDB 0.00 dinheiros
retirar do CDB 4907.85 dinheiros
investir nas acoes 0.00 dinheiros
retirar das acoes 0.00 dinheiros
Mes 11/2018:
investir na poupanca 0.00 dinheiros
retirar da poupanca 0.00 dinheiros
investir no CDB 0.00 dinheiros
retirar do CDB 8963.36 dinheiros
investir nas acoes 0.00 dinheiros
retirar das acoes 0.00 dinheiros
Mes 12/2018:
investir na poupanca 0.00 dinheiros
retirar da poupanca 0.00 dinheiros
investir no CDB 0.00 dinheiros
retirar do CDB 62763398.82 dinheiros
investir nas acoes 62754400.42 dinheiros
retirar das acoes 0.00 dinheiros
Mes 1/2019:
retirar da poupanca 0.00 dinheiros
retirar do CDB 0.00 dinheiros
retirar das acoes 62.33 dinheiros
saldo da heranca em 2019: 125320475.30 dinheiros
Caso 12:
Mes 1/2018:
investir na poupanca 3287793.28 dinheiros
retirar da poupanca 0.00 dinheiros
investir no CDB 0.00 dinheiros
retirar do CDB 0.00 dinheiros
investir nas acoes 0.00 dinheiros
retirar das acoes 0.00 dinheiros
Mes 2/2018:
investir na poupanca 0.00 dinheiros
retirar da poupanca 9895.19 dinheiros
investir no CDB 3181.23 dinheiros
retirar do CDB 0.00 dinheiros
investir nas acoes 0.00 dinheiros
retirar das acoes 0.00 dinheiros
Mes 3/2018:
investir na poupanca 0.00 dinheiros
retirar da poupanca 0.00 dinheiros
investir no CDB 0.00 dinheiros
retirar do CDB 5414.49 dinheiros
investir nas acoes 0.00 dinheiros
retirar das acoes 0.00 dinheiros
Mes 4/2018:
investir na poupanca 0.00 dinheiros
retirar da poupanca 5346.59 dinheiros
investir no CDB -0.00 dinheiros
retirar do CDB 0.00 dinheiros
investir nas acoes 0.00 dinheiros
retirar das acoes -0.00 dinheiros
Mes 5/2018:
investir na poupanca 0.00 dinheiros
retirar da poupanca 1868.95 dinheiros
investir no CDB 0.00 dinheiros
retirar do CDB 0.00 dinheiros
investir nas acoes 0.00 dinheiros
retirar das acoes 0.00 dinheiros
Mes 6/2018:
investir na poupanca 0.00 dinheiros
retirar da poupanca 8902.75 dinheiros
investir no CDB 0.00 dinheiros
retirar do CDB 0.00 dinheiros
investir nas acoes 0.00 dinheiros
retirar das acoes 0.00 dinheiros
Mes 7/2018:
investir na poupanca 0.00 dinheiros
retirar da poupanca 2043.70 dinheiros
investir no CDB 0.00 dinheiros
retirar do CDB 0.00 dinheiros
investir nas acoes 0.00 dinheiros
retirar das acoes 0.00 dinheiros
Mes 8/2018:
investir na poupanca 0.00 dinheiros
retirar da poupanca 9286.12 dinheiros
investir no CDB 0.00 dinheiros
retirar do CDB 0.00 dinheiros
investir nas acoes 0.00 dinheiros
retirar das acoes 0.00 dinheiros
Mes 9/2018:
investir na poupanca 0.00 dinheiros
retirar da poupanca 7581.91 dinheiros
investir no CDB 0.00 dinheiros
retirar do CDB 0.00 dinheiros
investir nas acoes 0.00 dinheiros
retirar das acoes 0.00 dinheiros
Mes 10/2018:
investir na poupanca 0.00 dinheiros
retirar da poupanca 1491.66 dinheiros
investir no CDB 0.00 dinheiros
retirar do CDB 0.00 dinheiros
investir nas acoes 0.00 dinheiros
retirar das acoes 0.00 dinheiros
Mes 11/2018:
investir na poupanca 0.00 dinheiros
retirar da poupanca 1897.95 dinheiros
investir no CDB 0.00 dinheiros
retirar do CDB 0.00 dinheiros
investir nas acoes 0.00 dinheiros
retirar das acoes 0.00 dinheiros
Mes 12/2018:
investir na poupanca 0.00 dinheiros
retirar da poupanca 8529.90 dinheiros
investir no CDB 0.00 dinheiros
retirar do CDB 0.00 dinheiros
investir nas acoes 0.00 dinheiros
retirar das acoes 0.00 dinheiros
Mes 1/2019:
retirar da poupanca 89.79 dinheiros
retirar do CDB 0.00 dinheiros
retirar das acoes 0.00 dinheiros
saldo da heranca em 2019: 1161742331.46 dinheiros
Caso 13:
Mes 1/2018:
investir na poupanca 2914560.67 dinheiros
retirar da poupanca 0.00 dinheiros
investir no CDB 0.00 dinheiros
retirar do CDB 0.00 dinheiros
investir nas acoes 0.00 dinheiros
retirar das acoes 0.00 dinheiros
Mes 2/2018:
investir na poupanca 0.00 dinheiros
retirar da poupanca 3424540.24 dinheiros
investir no CDB 0.00 dinheiros
retirar do CDB 0.00 dinheiros
investir nas acoes 3416994.72 dinheiros
retirar das acoes 0.00 dinheiros
Mes 3/2018:
investir na poupanca 0.00 dinheiros
retirar da poupanca 0.00 dinheiros
investir no CDB 6610725.28 dinheiros
retirar do CDB 0.00 dinheiros
investir nas acoes 0.00 dinheiros
retirar das acoes 6618718.78 dinheiros
Mes 4/2018:
investir na poupanca 10299927.36 dinheiros
retirar da poupanca 0.00 dinheiros
investir no CDB 0.00 dinheiros
retirar do CDB 10301335.86 dinheiros
investir nas acoes 0.00 dinheiros
retirar das acoes 0.00 dinheiros
Mes 5/2018:
investir na poupanca 0.00 dinheiros
retirar da poupanca 280.98 dinheiros
investir no CDB 0.00 dinheiros
retirar do CDB 0.00 dinheiros
investir nas acoes 0.00 dinheiros
retirar das acoes 0.00 dinheiros
Mes 6/2018:
investir na poupanca 0.00 dinheiros
retirar da poupanca 9098.95 dinheiros
investir no CDB 0.00 dinheiros
retirar do CDB 0.00 dinheiros
investir nas acoes 0.00 dinheiros
retirar das acoes 0.00 dinheiros
Mes 7/2018:
investir na poupanca 0.00 dinheiros
retirar da poupanca 18867598.15 dinheiros
investir no CDB 18860136.08 dinheiros
retirar do CDB 0.00 dinheiros
investir nas acoes 0.00 dinheiros
retirar das acoes 0.00 dinheiros
Mes 8/2018:
investir na poupanca 0.00 dinheiros
retirar da poupanca 0.00 dinheiros
investir no CDB 0.00 dinheiros
retirar do CDB 4424.76 dinheiros
investir nas acoes 0.00 dinheiros
retirar das acoes 0.00 dinheiros
Mes 9/2018:
investir na poupanca 0.00 dinheiros
retirar da poupanca 0.00 dinheiros
investir no CDB 0.00 dinheiros
retirar do CDB 3915.76 dinheiros
investir nas acoes 0.00 dinheiros
retirar das acoes 0.00 dinheiros
Mes 10/2018:
investir na poupanca 0.00 dinheiros
retirar da poupanca 0.00 dinheiros
investir no CDB 0.00 dinheiros
retirar do CDB 4582.77 dinheiros
investir nas acoes 0.00 dinheiros
retirar das acoes 0.00 dinheiros
Mes 11/2018:
investir na poupanca 139316886.65 dinheiros
retirar da poupanca 0.00 dinheiros
investir no CDB 0.00 dinheiros
retirar do CDB 139319913.73 dinheiros
investir nas acoes 0.00 dinheiros
retirar das acoes 0.00 dinheiros
Mes 12/2018:
investir na poupanca 0.00 dinheiros
retirar da poupanca 163694065.32 dinheiros
investir no CDB 163689970.21 dinheiros
retirar do CDB 0.00 dinheiros
investir nas acoes 0.00 dinheiros
retirar das acoes 0.00 dinheiros
Mes 1/2019:
retirar da poupanca 0.00 dinheiros
retirar do CDB 30.57 dinheiros
retirar das acoes 0.00 dinheiros
saldo da heranca em 2019: 226710577.52 dinheiros
Caso 14:
Mes 1/2018:
investir na poupanca 0.00 dinheiros
retirar da poupanca 0.00 dinheiros
investir no CDB 5122168.19 dinheiros
retirar do CDB 0.00 dinheiros
investir nas acoes 0.00 dinheiros
retirar das acoes 0.00 dinheiros
Mes 2/2018:
investir na poupanca 0.00 dinheiros
retirar da poupanca 0.00 dinheiros
investir no CDB 0.00 dinheiros
retirar do CDB 9107.30 dinheiros
investir nas acoes 0.00 dinheiros
retirar das acoes 0.00 dinheiros
Mes 3/2018:
investir na poupanca 0.00 dinheiros
retirar da poupanca 0.00 dinheiros
investir no CDB 0.00 dinheiros
retirar do CDB 5644.96 dinheiros
investir nas acoes 0.00 dinheiros
retirar das acoes 0.00 dinheiros
Mes 4/2018:
investir na poupanca 0.00 dinheiros
retirar da poupanca 0.00 dinheiros
investir no CDB 0.00 dinheiros
retirar do CDB 6022.92 dinheiros
investir nas acoes 0.00 dinheiros
retirar das acoes 0.00 dinheiros
Mes 5/2018:
investir na poupanca 0.00 dinheiros
retirar da poupanca 0.00 dinheiros
investir no CDB 0.00 dinheiros
retirar do CDB 3505.52 dinheiros
investir nas acoes 0.00 dinheiros
retirar das acoes 0.00 dinheiros
Mes 6/2018:
investir na poupanca 0.00 dinheiros
retirar da poupanca 0.00 dinheiros
investir no CDB 0.00 dinheiros
retirar do CDB 7816.65 dinheiros
investir nas acoes 0.00 dinheiros
retirar das acoes 0.00 dinheiros
Mes 7/2018:
investir na poupanca 0.00 dinheiros
retirar da poupanca 0.00 dinheiros
investir no CDB 0.00 dinheiros
retirar do CDB 4261.25 dinheiros
investir nas acoes 0.00 dinheiros
retirar das acoes 0.00 dinheiros
Mes 8/2018:
investir na poupanca 0.00 dinheiros
retirar da poupanca 0.00 dinheiros
investir no CDB 0.00 dinheiros
retirar do CDB 219.01 dinheiros
investir nas acoes 0.00 dinheiros
retirar das acoes 0.00 dinheiros
Mes 9/2018:
investir na poupanca 0.00 dinheiros
retirar da poupanca 0.00 dinheiros
investir no CDB 0.00 dinheiros
retirar do CDB 3248.57 dinheiros
investir nas acoes 0.00 dinheiros
retirar das acoes 0.00 dinheiros
Mes 10/2018:
investir na poupanca 0.00 dinheiros
retirar da poupanca 0.00 dinheiros
investir no CDB 0.00 dinheiros
retirar do CDB 1025.70 dinheiros
investir nas acoes 0.00 dinheiros
retirar das acoes 0.00 dinheiros
Mes 11/2018:
investir na poupanca 0.00 dinheiros
retirar da poupanca 0.00 dinheiros
investir no CDB 0.00 dinheiros
retirar do CDB 311490577.61 dinheiros
investir nas acoes 311487623.89 dinheiros
retirar das acoes 0.00 dinheiros
Mes 12/2018:
investir na poupanca 0.00 dinheiros
retirar da poupanca 0.00 dinheiros
investir no CDB 366926964.91 dinheiros
retirar do CDB 0.00 dinheiros
investir nas acoes 0.00 dinheiros
retirar das acoes 366932420.95 dinheiros
Mes 1/2019:
retirar da poupanca 0.00 dinheiros
retirar do CDB 23.17 dinheiros
retirar das acoes 0.00 dinheiros
saldo da heranca em 2019: 701564332.62 dinheiros
Caso 15:
Mes 1/2018:
investir na poupanca 1242.97 dinheiros
retirar da poupanca 0.00 dinheiros
investir no CDB 4445647.94 dinheiros
retirar do CDB 0.00 dinheiros
investir nas acoes 0.00 dinheiros
retirar das acoes 0.00 dinheiros
Mes 2/2018:
investir na poupanca 0.00 dinheiros
retirar da poupanca 0.00 dinheiros
investir no CDB 0.00 dinheiros
retirar do CDB 5620.45 dinheiros
investir nas acoes 0.00 dinheiros
retirar das acoes 0.00 dinheiros
Mes 3/2018:
investir na poupanca 0.00 dinheiros
retirar da poupanca 3787.47 dinheiros
investir no CDB 0.00 dinheiros
retirar do CDB 0.00 dinheiros
investir nas acoes 0.00 dinheiros
retirar das acoes 0.00 dinheiros
Mes 4/2018:
investir na poupanca -0.00 dinheiros
retirar da poupanca 0.00 dinheiros
investir no CDB 0.00 dinheiros
retirar do CDB 5857.09 dinheiros
investir nas acoes 0.00 dinheiros
retirar das acoes 0.00 dinheiros
Mes 5/2018:
investir na poupanca 47005689.25 dinheiros
retirar da poupanca 0.00 dinheiros
investir no CDB 0.00 dinheiros
retirar do CDB 47010858.39 dinheiros
investir nas acoes 0.00 dinheiros
retirar das acoes 0.00 dinheiros
Mes 6/2018:
investir na poupanca 0.00 dinheiros
retirar da poupanca 8144.07 dinheiros
investir no CDB -0.00 dinheiros
retirar do CDB 0.00 dinheiros
investir nas acoes 0.00 dinheiros
retirar das acoes -0.00 dinheiros
Mes 7/2018:
investir na poupanca 0.00 dinheiros
retirar da poupanca 5928.90 dinheiros
investir no CDB 0.00 dinheiros
retirar do CDB 0.00 dinheiros
investir nas acoes -0.00 dinheiros
retirar das acoes 0.00 dinheiros
Mes 8/2018:
investir na poupanca 0.00 dinheiros
retirar da poupanca 10624.54 dinheiros
investir no CDB 0.00 dinheiros
retirar do CDB 0.00 dinheiros
investir nas acoes 5452.55 dinheiros
retirar das acoes 0.00 dinheiros
Mes 9/2018:
investir na poupanca 0.00 dinheiros
retirar da poupanca 0.00 dinheiros
investir no CDB 0.00 dinheiros
retirar do CDB 0.00 dinheiros
investir nas acoes 0.00 dinheiros
retirar das acoes 9798.24 dinheiros
Mes 10/2018:
investir na poupanca 0.00 dinheiros
retirar da poupanca 3350.41 dinheiros
investir no CDB 0.00 dinheiros
retirar do CDB 0.00 dinheiros
investir nas acoes 0.00 dinheiros
retirar das acoes 0.00 dinheiros
Mes 11/2018:
investir na poupanca 0.00 dinheiros
retirar da poupanca 2903.06 dinheiros
investir no CDB 0.00 dinheiros
retirar do CDB 0.00 dinheiros
investir nas acoes 0.00 dinheiros
retirar das acoes 0.00 dinheiros
Mes 12/2018:
investir na poupanca 0.00 dinheiros
retirar da poupanca 3459.60 dinheiros
investir no CDB -0.00 dinheiros
retirar do CDB 0.00 dinheiros
investir nas acoes 0.00 dinheiros
retirar das acoes 0.00 dinheiros
Mes 1/2019:
retirar da poupanca 91.22 dinheiros
retirar do CDB 0.00 dinheiros
retirar das acoes 0.00 dinheiros
saldo da heranca em 2019: 4887237871.02 dinheiros
Caso 16:
Mes 1/2018:
investir na poupanca 0.00 dinheiros
retirar da poupanca 0.00 dinheiros
investir no CDB 0.00 dinheiros
retirar do CDB 0.00 dinheiros
investir nas acoes 4490609.92 dinheiros
retirar das acoes 0.00 dinheiros
Mes 2/2018:
investir na poupanca 0.00 dinheiros
retirar da poupanca 0.00 dinheiros
investir no CDB 7710771.23 dinheiros
retirar do CDB 0.00 dinheiros
investir nas acoes 0.00 dinheiros
retirar das acoes 7719358.45 dinheiros
Mes 3/2018:
investir na poupanca 0.00 dinheiros
retirar da poupanca 0.00 dinheiros
investir no CDB 0.00 dinheiros
retirar do CDB 2369.72 dinheiros
investir nas acoes 0.00 dinheiros
retirar das acoes 0.00 dinheiros
Mes 4/2018:
investir na poupanca 0.00 dinheiros
retirar da poupanca 0.00 dinheiros
investir no CDB 0.00 dinheiros
retirar do CDB 18732801.87 dinheiros
investir nas acoes 18729794.39 dinheiros
retirar das acoes 0.00 dinheiros
Mes 5/2018:
investir na poupanca 0.00 dinheiros
retirar da poupanca 0.00 dinheiros
investir no CDB 0.00 dinheiros
retirar do CDB 0.00 dinheiros
investir nas acoes 0.00 dinheiros
retirar das acoes 3325.31 dinheiros
Mes 6/2018:
investir na poupanca 51313561.83 dinheiros
retirar da poupanca 0.00 dinheiros
investir no CDB 0.00 dinheiros
retirar do CDB 0.00 dinheiros
investir nas acoes 0.00 dinheiros
retirar das acoes 51323182.22 dinheiros
Mes 7/2018:
investir na poupanca 0.00 dinheiros
retirar da poupanca 56944946.10 dinheiros
investir no CDB 56939611.49 dinheiros
retirar do CDB 0.00 dinheiros
investir nas acoes 0.00 dinheiros
retirar das acoes 0.00 dinheiros
Mes 8/2018:
investir na poupanca 0.00 dinheiros
retirar da poupanca 0.00 dinheiros
investir no CDB 0.00 dinheiros
retirar do CDB 8483.39 dinheiros
investir nas acoes 0.00 dinheiros
retirar das acoes 0.00 dinheiros
Mes 9/2018:
investir na poupanca 0.00 dinheiros
retirar da poupanca 0.00 dinheiros
investir no CDB 0.00 dinheiros
retirar do CDB 117938771.28 dinheiros
investir nas acoes 117930164.13 dinheiros
retirar das acoes 0.00 dinheiros
Mes 10/2018:
investir na poupanca 0.00 dinheiros
retirar da poupanca 0.00 dinheiros
investir no CDB 190570214.26 dinheiros
retirar do CDB 0.00 dinheiros
investir nas acoes 0.00 dinheiros
retirar das acoes 190575145.23 dinheiros
Mes 11/2018:
investir na poupanca 0.00 dinheiros
retirar da poupanca 0.00 dinheiros
investir no CDB 0.00 dinheiros
retirar do CDB 310204938.93 dinheiros
investir nas acoes 310202663.94 dinheiros
retirar das acoes 0.00 dinheiros
Mes 12/2018:
investir na poupanca 0.00 dinheiros
retirar da poupanca 0.00 dinheiros
investir no CDB 0.00 dinheiros
retirar do CDB 0.00 dinheiros
investir nas acoes 0.00 dinheiros
retirar das acoes 3914.89 dinheiros
Mes 1/2019:
retirar da poupanca 0.00 dinheiros
retirar do CDB 0.00 dinheiros
retirar das acoes 64.69 dinheiros
saldo da heranca em 2019: 677129741.34 dinheiros
Caso 17:
Mes 1/2018:
investir na poupanca 0.00 dinheiros
retirar da poupanca 0.00 dinheiros
investir no CDB 499021.05 dinheiros
retirar do CDB 0.00 dinheiros
investir nas acoes 0.00 dinheiros
retirar das acoes 0.00 dinheiros
Mes 2/2018:
investir na poupanca 0.00 dinheiros
retirar da poupanca 0.00 dinheiros
investir no CDB 0.00 dinheiros
retirar do CDB 12106.87 dinheiros
investir nas acoes 2573.98 dinheiros
retirar das acoes 0.00 dinheiros
Mes 3/2018:
investir na poupanca 0.00 dinheiros
retirar da poupanca 0.00 dinheiros
investir no CDB 0.00 dinheiros
retirar do CDB 0.00 dinheiros
investir nas acoes 0.00 dinheiros
retirar das acoes 3057.89 dinheiros
Mes 4/2018:
investir na poupanca -0.00 dinheiros
retirar da poupanca 0.00 dinheiros
investir no CDB 0.00 dinheiros
retirar do CDB 6717.46 dinheiros
investir nas acoes -0.00 dinheiros
retirar das acoes 0.00 dinheiros
Mes 5/2018:
investir na poupanca 0.00 dinheiros
retirar da poupanca 0.00 dinheiros
investir no CDB 0.00 dinheiros
retirar do CDB 7889.88 dinheiros
investir nas acoes 0.00 dinheiros
retirar das acoes 0.00 dinheiros
Mes 6/2018:
investir na poupanca 0.00 dinheiros
retirar da poupanca 0.00 dinheiros
investir no CDB 0.00 dinheiros
retirar do CDB 8053.44 dinheiros
investir nas acoes 0.00 dinheiros
retirar das acoes 0.00 dinheiros
Mes 7/2018:
investir na poupanca 0.00 dinheiros
retirar da poupanca 0.00 dinheiros
investir no CDB 0.00 dinheiros
retirar do CDB 1027.99 dinheiros
investir nas acoes 0.00 dinheiros
retirar das acoes 0.00 dinheiros
Mes 8/2018:
investir na poupanca 0.00 dinheiros
retirar da poupanca 0.00 dinheiros
investir no CDB 0.00 dinheiros
retirar do CDB 832.50 dinheiros
investir nas acoes -0.00 dinheiros
retirar das acoes 0.00 dinheiros
Mes 9/2018:
investir na poupanca -0.00 dinheiros
retirar da poupanca 0.00 dinheiros
investir no CDB 0.00 dinheiros
retirar do CDB 3052.57 dinheiros
investir nas acoes 0.00 dinheiros
retirar das acoes 0.00 dinheiros
Mes 10/2018:
investir na poupanca 0.00 dinheiros
retirar da poupanca 0.00 dinheiros
investir no CDB 0.00 dinheiros
retirar do CDB 9706.48 dinheiros
investir nas acoes 0.00 dinheiros
retirar das acoes 0.00 dinheiros
Mes 11/2018:
investir na poupanca 0.00 dinheiros
retirar da poupanca 0.00 dinheiros
investir no CDB 0.00 dinheiros
retirar do CDB 23900659.18 dinheiros
investir nas acoes 23897251.16 dinheiros
retirar das acoes 0.00 dinheiros
Mes 12/2018:
investir na poupanca 0.00 dinheiros
retirar da poupanca 0.00 dinheiros
investir no CDB 37799883.83 dinheiros
retirar do CDB 0.00 dinheiros
investir nas acoes 0.00 dinheiros
retirar das acoes 37805451.34 dinheiros
Mes 1/2019:
retirar da poupanca 0.00 dinheiros
retirar do CDB 8.52 dinheiros
retirar das acoes 0.00 dinheiros
saldo da heranca em 2019: 64410993.08 dinheiros
Caso 18:
Mes 1/2018:
investir na poupanca 0.00 dinheiros
retirar da poupanca 0.00 dinheiros
investir no CDB 9148084.05 dinheiros
retirar do CDB 0.00 dinheiros
investir nas acoes 0.00 dinheiros
retirar das acoes 0.00 dinheiros
Mes 2/2018:
investir na poupanca 0.00 dinheiros
retirar da poupanca 0.00 dinheiros
investir no CDB 0.00 dinheiros
retirar do CDB 14892631.64 dinheiros
investir nas acoes 14886074.12 dinheiros
retirar das acoes 0.00 dinheiros
Mes 3/2018:
investir na poupanca 0.00 dinheiros
retirar da poupanca 0.00 dinheiros
investir no CDB 25006857.77 dinheiros
retirar do CDB 0.00 dinheiros
investir nas acoes 0.00 dinheiros
retirar das acoes 25008604.51 dinheiros
Mes 4/2018:
investir na poupanca 0.00 dinheiros
retirar da poupanca 0.00 dinheiros
investir no CDB 0.00 dinheiros
retirar do CDB 234.65 dinheiros
investir nas acoes 0.00 dinheiros
retirar das acoes 0.00 dinheiros
Mes 5/2018:
investir na poupanca 0.00 dinheiros
retirar da poupanca 0.00 dinheiros
investir no CDB 0.00 dinheiros
retirar do CDB 67256779.48 dinheiros
investir nas acoes 67255230.42 dinheiros
retirar das acoes 0.00 dinheiros
Mes 6/2018:
investir na poupanca 0.00 dinheiros
retirar da poupanca 0.00 dinheiros
investir no CDB 0.00 dinheiros
retirar do CDB 0.00 dinheiros
investir nas acoes 0.00 dinheiros
retirar das acoes 6312.13 dinheiros
Mes 7/2018:
investir na poupanca 0.00 dinheiros
retirar da poupanca 0.00 dinheiros
investir no CDB 0.00 dinheiros
retirar do CDB 0.00 dinheiros
investir nas acoes 0.00 dinheiros
retirar das acoes 7520.73 dinheiros
Mes 8/2018:
investir na poupanca 0.00 dinheiros
retirar da poupanca 0.00 dinheiros
investir no CDB 512774510.09 dinheiros
retirar do CDB 0.00 dinheiros
investir nas acoes 0.00 dinheiros
retirar das acoes 512776893.51 dinheiros
Mes 9/2018:
investir na poupanca 0.00 dinheiros
retirar da poupanca 0.00 dinheiros
investir no CDB 0.00 dinheiros
retirar do CDB 0.00 dinheiros
investir nas acoes 0.00 dinheiros
retirar das acoes 2099.26 dinheiros
Mes 10/2018:
investir na poupanca 0.00 dinheiros
retirar da poupanca 0.00 dinheiros
investir no CDB 0.00 dinheiros
retirar do CDB 4333.06 dinheiros
investir nas acoes 0.00 dinheiros
retirar das acoes 0.00 dinheiros
Mes 11/2018:
investir na poupanca 0.00 dinheiros
retirar da poupanca 0.00 dinheiros
investir no CDB 0.00 dinheiros
retirar do CDB 6897.91 dinheiros
investir nas acoes 0.00 dinheiros
retirar das acoes 0.00 dinheiros
Mes 12/2018:
investir na poupanca 0.00 dinheiros
retirar da poupanca 0.00 dinheiros
investir no CDB 0.00 dinheiros
retirar do CDB 4797408646.04 dinheiros
investir nas acoes 4797404466.05 dinheiros
retirar das acoes 0.00 dinheiros
Mes 1/2019:
retirar da poupanca 0.00 dinheiros
retirar do CDB 0.00 dinheiros
retirar das acoes 79.02 dinheiros
saldo da heranca em 2019: 7037792272.68 dinheiros
Caso 19:
Mes 1/2018:
investir na poupanca 0.00 dinheiros
retirar da poupanca 0.00 dinheiros
investir no CDB 3402070.93 dinheiros
retirar do CDB 0.00 dinheiros
investir nas acoes 0.00 dinheiros
retirar das acoes 0.00 dinheiros
Mes 2/2018:
investir na poupanca 5682579.54 dinheiros
retirar da poupanca 0.00 dinheiros
investir no CDB 0.00 dinheiros
retirar do CDB 5684105.23 dinheiros
investir nas acoes 0.00 dinheiros
retirar das acoes 0.00 dinheiros
Mes 3/2018:
investir na poupanca 0.00 dinheiros
retirar da poupanca 8630981.42 dinheiros
investir no CDB 8623395.25 dinheiros
retirar do CDB 0.00 dinheiros
investir nas acoes 0.00 dinheiros
retirar das acoes 0.00 dinheiros
Mes 4/2018:
investir na poupanca 0.00 dinheiros
retirar da poupanca 0.00 dinheiros
investir no CDB 0.00 dinheiros
retirar do CDB 14514139.63 dinheiros
investir nas acoes 14511886.83 dinheiros
retirar das acoes 0.00 dinheiros
Mes 5/2018:
investir na poupanca 25664014.88 dinheiros
retirar da poupanca 0.00 dinheiros
investir no CDB 0.00 dinheiros
retirar do CDB 0.00 dinheiros
investir nas acoes 0.00 dinheiros
retirar das acoes 25671527.80 dinheiros
Mes 6/2018:
investir na poupanca 0.00 dinheiros
retirar da poupanca 38979768.63 dinheiros
investir no CDB 38975429.49 dinheiros
retirar do CDB 0.00 dinheiros
investir nas acoes 0.00 dinheiros
retirar das acoes 0.00 dinheiros
Mes 7/2018:
investir na poupanca 0.00 dinheiros
retirar da poupanca 0.00 dinheiros
investir no CDB 0.00 dinheiros
retirar do CDB 1057.81 dinheiros
investir nas acoes 0.00 dinheiros
retirar das acoes 0.00 dinheiros
Mes 8/2018:
investir na poupanca 140337366.23 dinheiros
retirar da poupanca 0.00 dinheiros
investir no CDB 0.00 dinheiros
retirar do CDB 140343543.94 dinheiros
investir nas acoes 0.00 dinheiros
retirar das acoes 0.00 dinheiros
Mes 9/2018:
investir na poupanca 0.00 dinheiros
retirar da poupanca 2543.76 dinheiros
investir no CDB 0.00 dinheiros
retirar do CDB 0.00 dinheiros
investir nas acoes 0.00 dinheiros
retirar das acoes 0.00 dinheiros
Mes 10/2018:
investir na poupanca 0.00 dinheiros
retirar da poupanca 8530.89 dinheiros
investir no CDB 0.00 dinheiros
retirar do CDB 0.00 dinheiros
investir nas acoes 0.00 dinheiros
retirar das acoes 0.00 dinheiros
Mes 11/2018:
investir na poupanca 0.00 dinheiros
retirar da poupanca 3903.98 dinheiros
investir no CDB 0.00 dinheiros
retirar do CDB 0.00 dinheiros
investir nas acoes 0.00 dinheiros
retirar das acoes 0.00 dinheiros
Mes 12/2018:
investir na poupanca 0.00 dinheiros
retirar da poupanca 764880510.60 dinheiros
investir no CDB 764871669.45 dinheiros
retirar do CDB 0.00 dinheiros
investir nas acoes 0.00 dinheiros
retirar das acoes 0.00 dinheiros
Mes 1/2019:
retirar da poupanca 73.48 dinheiros
retirar do CDB 0.00 dinheiros
retirar das acoes 0.00 dinheiros
saldo da heranca em 2019: 1210026981.07 dinheiros
Caso 20:
Mes 1/2018:
investir na poupanca 0.00 dinheiros
retirar da poupanca 0.00 dinheiros
investir no CDB 4708887.22 dinheiros
retirar do CDB 0.00 dinheiros
investir nas acoes 0.00 dinheiros
retirar das acoes 0.00 dinheiros
Mes 2/2018:
investir na poupanca 0.00 dinheiros
retirar da poupanca 0.00 dinheiros
investir no CDB 0.00 dinheiros
retirar do CDB 6404.93 dinheiros
investir nas acoes 0.00 dinheiros
retirar das acoes 0.00 dinheiros
Mes 3/2018:
investir na poupanca 0.00 dinheiros
retirar da poupanca 0.00 dinheiros
investir no CDB 0.00 dinheiros
retirar do CDB 1108.74 dinheiros
investir nas acoes 0.00 dinheiros
retirar das acoes 0.00 dinheiros
Mes 4/2018:
investir na poupanca 0.00 dinheiros
retirar da poupanca 0.00 dinheiros
investir no CDB 0.00 dinheiros
retirar do CDB 931.99 dinheiros
investir nas acoes 0.00 dinheiros
retirar das acoes 0.00 dinheiros
Mes 5/2018:
investir na poupanca 0.00 dinheiros
retirar da poupanca 0.00 dinheiros
investir no CDB 0.00 dinheiros
retirar do CDB 8591.47 dinheiros
investir nas acoes 0.00 dinheiros
retirar das acoes 0.00 dinheiros
Mes 6/2018:
investir na poupanca 0.00 dinheiros
retirar da poupanca 0.00 dinheiros
investir no CDB 0.00 dinheiros
retirar do CDB 1391.47 dinheiros
investir nas acoes 0.00 dinheiros
retirar das acoes 0.00 dinheiros
Mes 7/2018:
investir na poupanca 0.00 dinheiros
retirar da poupanca 0.00 dinheiros
investir no CDB 0.00 dinheiros
retirar do CDB 68892677.34 dinheiros
investir nas acoes 68884806.37 dinheiros
retirar das acoes 0.00 dinheiros
Mes 8/2018:
investir na poupanca 0.00 dinheiros
retirar da poupanca 0.00 dinheiros
investir no CDB 0.00 dinheiros
retirar do CDB -0.00 dinheiros
investir nas acoes 0.00 dinheiros
retirar das acoes 5800.03 dinheiros
Mes 9/2018:
investir na poupanca 0.00 dinheiros
retirar da poupanca 0.00 dinheiros
investir no CDB 183625214.64 dinheiros
retirar do CDB 0.00 dinheiros
investir nas acoes 0.00 dinheiros
retirar das acoes 183627647.77 dinheiros
Mes 10/2018:
investir na poupanca 0.00 dinheiros
retirar da poupanca 0.00 dinheiros
investir no CDB 0.00 dinheiros
retirar do CDB 291565846.20 dinheiros
investir nas acoes 291564962.87 dinheiros
retirar das acoes 0.00 dinheiros
Mes 11/2018:
investir na poupanca 0.00 dinheiros
retirar da poupanca 0.00 dinheiros
investir no CDB 546965857.91 dinheiros
retirar do CDB 0.00 dinheiros
investir nas acoes 0.00 dinheiros
retirar das acoes 546975870.35 dinheiros
Mes 12/2018:
investir na poupanca 873854931.32 dinheiros
retirar da poupanca 0.00 dinheiros
investir no CDB 0.00 dinheiros
retirar do CDB 873857131.18 dinheiros
investir nas acoes 0.00 dinheiros
retirar das acoes 0.00 dinheiros
Mes 1/2019:
retirar da poupanca 64.79 dinheiros
retirar do CDB 0.00 dinheiros
retirar das acoes 0.00 dinheiros
saldo da heranca em 2019: 1189316493.63 dinheiros
