Caso 1:
Solucao impossivel ou ilimitada
Caso 2:
Solucao impossivel ou ilimitada
Caso 3:
Mes 1/2018:
investir na poupanca 6125508.12 dinheiros
retirar da poupanca 0.00 dinheiros
investir no CDB 0.00 dinheiros
retirar do CDB 0.00 dinheiros
investir nas acoes 0.00 dinheiros
retirar das acoes 0.00 dinheiros
Mes 2/2018:
investir na poupanca 0.00 dinheiros
retirar da poupanca 11373331.49 dinheiros
investir no CDB 0.00 dinheiros
retirar do CDB 0.00 dinheiros
investir nas acoes 6275374.19 dinheiros
retirar das acoes 0.00 dinheiros
Mes 3/2018:
investir na poupanca 5593934.17 dinheiros
retirar da poupanca 0.00 dinheiros
investir no CDB 0.00 dinheiros
retirar do CDB 0.00 dinheiros
investir nas acoes 0.00 dinheiros
retirar das acoes 12218153.56 dinheiros
Mes 4/2018:
investir na poupanca 0.00 dinheiros
retirar da poupanca 4011370.15 dinheiros
investir no CDB 0.00 dinheiros
retirar do CDB 0.00 dinheiros
investir nas acoes 0.00 dinheiros
retirar das acoes 0.00 dinheiros
Mes 5/2018:
investir na poupanca 0.00 dinheiros
retirar da poupanca 5894774.62 dinheiros
investir no CDB 0.00 dinheiros
retirar do CDB 0.00 dinheiros
investir nas acoes 0.00 dinheiros
retirar das acoes 0.00 dinheiros
Mes 6/2018:
investir na poupanca 0.00 dinheiros
retirar da poupanca 6364745.13 dinheiros
investir no CDB 0.00 dinheiros
retirar do CDB 0.00 dinheiros
investir nas acoes 0.00 dinheiros
retirar das acoes 0.00 dinheiros
Mes 7/2018:
investir na poupanca 0.00 dinheiros
retirar da poupanca 2419285.74 dinheiros
investir no CDB 0.00 dinheiros
retirar do CDB 0.00 dinheiros
investir nas acoes 0.00 dinheiros
retirar das acoes 0.00 dinheiros
Mes 8/2018:
investir na poupanca 0.00 dinheiros
retirar da poupanca 5378337.37 dinheiros
investir no CDB 0.00 dinheiros
retirar do CDB 0.00 dinheiros
investir nas acoes 0.00 dinheiros
retirar das acoes 0.00 dinheiros
Mes 9/2018:
investir na poupanca 0.00 dinheiros
retirar da poupanca 2437818.26 dinheiros
investir no CDB 0.00 dinheiros
retirar do CDB 0.00 dinheiros
investir nas acoes 0.00 dinheiros
retirar das acoes 0.00 dinheiros
Mes 10/2018:
investir na poupanca 0.00 dinheiros
retirar da poupanca 4731853.96 dinheiros
investir no CDB 0.00 dinheiros
retirar do CDB 0.00 dinheiros
investir nas acoes 0.00 dinheiros
retirar das acoes 0.00 dinheiros
Mes 11/2018:
investir na poupanca 0.00 dinheiros
retirar da poupanca 5328614.43 dinheiros
investir no CDB 0.00 dinheiros
retirar do CDB 0.00 dinheiros
investir nas acoes 0.00 dinheiros
retirar das acoes 0.00 dinheiros
Mes 12/2018:
investir na poupanca 0.00 dinheiros
retirar da poupanca 6333202.23 dinheiros
investir no CDB 0.00 dinheiros
retirar do CDB 0.00 dinheiros
investir nas acoes 0.00 dinheiros
retirar das acoes 0.00 dinheiros
Mes 1/2019:
retirar da poupanca 96.48 dinheiros
retirar do CDB 0.00 dinheiros
retirar das acoes 0.00 dinheiros
saldo da heranca em 2019: 66565226.46 dinheiros
Caso 4:
Solucao impossivel ou ilimitada
Caso 5:
Solucao impossivel ou ilimitada
Caso 6:
Solucao impossivel ou ilimitada
Caso 7:
Solucao impossivel ou ilimitada
Caso 8:
Solucao impossivel ou ilimitada
Caso 9:
Solucao impossivel ou ilimitada
Caso 10:
Solucao impossivel ou ilimitada
Caso 11:
Mes 1/2018:
investir na poupanca 4087390.68 dinheiros
retirar da poupanca 0.00 dinheiros
investir no CDB 300735.34 dinheiros
retirar do CDB 0.00 dinheiros
investir nas acoes 0.00 dinheiros
retirar das acoes 0.00 dinheiros
Mes 2/2018:
investir na poupanca 0.00 dinheiros
retirar da poupanca 0.00 dinheiros
investir no CDB 0.00 dinheiros
retirar do CDB 566427.98 dinheiros
investir nas acoes 0.00 dinheiros
retirar das acoes 0.00 dinheiros
Mes 3/2018:
investir na poupanca 0.00 dinheiros
retirar da poupanca 1433884.13 dinheiros
investir no CDB 0.00 dinheiros
retirar do CDB 0.00 dinheiros
investir nas acoes 0.00 dinheiros
retirar das acoes 0.00 dinheiros
Mes 4/2018:
investir na poupanca 0.00 dinheiros
retirar da poupanca 9355434.05 dinheiros
investir no CDB 0.00 dinheiros
retirar do CDB 0.00 dinheiros
investir nas acoes 0.00 dinheiros
retirar das acoes 0.00 dinheiros
Mes 5/2018:
investir na poupanca 0.00 dinheiros
retirar da poupanca 4929039.71 dinheiros
investir no CDB 0.00 dinheiros
retirar do CDB 0.00 dinheiros
investir nas acoes 0.00 dinheiros
retirar das acoes 0.00 dinheiros
Mes 6/2018:
investir na poupanca 0.00 dinheiros
retirar da poupanca 2897950.10 dinheiros
investir no CDB 0.00 dinheiros
retirar do CDB 0.00 dinheiros
investir nas acoes 0.00 dinheiros
retirar das acoes 0.00 dinheiros
Mes 7/2018:
investir na poupanca 0.00 dinheiros
retirar da poupanca 7819811.44 dinheiros
investir no CDB 0.00 dinheiros
retirar do CDB 0.00 dinheiros
investir nas acoes 0.00 dinheiros
retirar das acoes 0.00 dinheiros
Mes 8/2018:
investir na poupanca 0.00 dinheiros
retirar da poupanca 543484.60 dinheiros
investir no CDB 0.00 dinheiros
retirar do CDB 0.00 dinheiros
investir nas acoes 0.00 dinheiros
retirar das acoes 0.00 dinheiros
Mes 9/2018:
investir na poupanca 0.00 dinheiros
retirar da poupanca 6511981.37 dinheiros
investir no CDB 0.00 dinheiros
retirar do CDB 0.00 dinheiros
investir nas acoes 0.00 dinheiros
retirar das acoes 0.00 dinheiros
Mes 10/2018:
investir na poupanca 0.00 dinheiros
retirar da poupanca 76043.39 dinheiros
investir no CDB 0.00 dinheiros
retirar do CDB 0.00 dinheiros
investir nas acoes 0.00 dinheiros
retirar das acoes 0.00 dinheiros
Mes 11/2018:
investir na poupanca 0.00 dinheiros
retirar da poupanca 7947498.70 dinheiros
investir no CDB 0.00 dinheiros
retirar do CDB 0.00 dinheiros
investir nas acoes 0.00 dinheiros
retirar das acoes 0.00 dinheiros
Mes 12/2018:
investir na poupanca 0.00 dinheiros
retirar da poupanca 7029402.20 dinheiros
investir no CDB 0.00 dinheiros
retirar do CDB 0.00 dinheiros
investir nas acoes 0.00 dinheiros
retirar das acoes 0.00 dinheiros
Mes 1/2019:
retirar da poupanca 61.18 dinheiros
retirar do CDB 0.00 dinheiros
retirar das acoes 0.00 dinheiros
saldo da heranca em 2019: 7250543252.55 dinheiros
Caso 12:
Solucao impossivel ou ilimitada
Caso 13:
Solucao impossivel ou ilimitada
Caso 14:
Solucao impossivel ou ilimitada
Caso 15:
Solucao impossivel ou ilimitada
Caso 16:
Solucao impossivel ou ilimitada
Caso 17:
Solucao impossivel ou ilimitada
Caso 18:
Solucao impossivel ou ilimitada
Caso 19:
Solucao impossivel ou ilimitada
Caso 20:
Solucao impossivel ou ilimitada
